,Destroying Script,2016-12-21 11:28:13
,Destroyed,2016-12-21 11:28:13
,Destroying Script,2016-12-22 13:20:33
,Destroyed,2016-12-22 13:20:33
,Destroying Script,2016-12-22 13:21:22
,Destroyed,2016-12-22 13:21:22
,Destroying Script,2016-12-22 13:30:46
,Destroyed,2016-12-22 13:30:46
,Destroying Script,2016-12-22 15:41:28
,Destroyed,2016-12-22 15:41:28
,Destroying Script,2016-12-22 18:51:39
,Destroyed,2016-12-22 18:51:39
,Destroying Script,2016-12-22 19:02:00
,Destroyed,2016-12-22 19:02:00
,Destroying Script,2017-01-03 11:38:12
,Destroyed,2017-01-03 11:38:12
