
open prog 107 clear
I713=0
I714=0
@SET_OFF(MOTOR_STATUS_U_M, 1024)
DWELL0
while(@On(ENC_STATUS_U_M, 65536))
F1000 LIN
INC U-0.5
endw
DWELL0
while(@Off(ENC_STATUS_U_M, 65536))
F1000 LIN
INC U0.50
endw
DWELL0
while(@On(ENC_STATUS_U_M, 65536))
F1000 LIN
INC U-0.02
DWELL0
endw
DWELL0
I723=1.00
I726=0
I7333=0
I7332=1
DWELL0
HOME_GRID_U_M = ENCODER_U_M / (312.50 * 2)
HOMEZ7 
DWELL0
HOME_GRID_U_M = HOME_GRID_U_M - (ENCODER_U_M / (312.50 * 2))
DWELL1500
close