; Created by PMAC Win32 Driver from:C:\hsd6GT.V3\profile\NCPmacCode\NC.Txt
;
;C:\hsd6GT.V3\profile\NCPmacCode\NC.Txt
M0..8191->*;1
Q0..8191=0;2
P100..8191=0;3
UNDEFINE ALL;4
I5=0;5
I5=0 ;6
&1;8
#1->1365.33X;9
#2->1365.33Y;10
#3->1365.33Z;11
#4->1000.00A;12
#5->1000.00B;13
#6->1000.00C;14
#7->312.50U;15
Frax;16
M3->DP:$60D61;250
M4->DP:$60D62;251
M5->DP:$60D63;252
M6->DP:$60DA2;253
M7->DP:$60D64;254
M8->DP:$60D65;255
M9->DP:$60D66;256
M11->Y:$60D67,0,8;257
M12->Y:$60D67,8,8;258
M13->X:$60D67,0,8;259
M14->X:$60D67,8,8;260
M15->Y:$60D68,0,8;261
M16->Y:$60D68,8,8;262
M17->X:$60D68,0,8;263
M18->X:$60D68,8,8;264
M19->Y:$60D69,0,8;265
M20->Y:$60D69,8,8;266
M21->X:$60D69,0,8;267
M22->Y:$60D9F,0,8;268
M23->Y:$60D9F,8,8;269
M24->X:$60D9F,0,8;270
M25->X:$60D9F,8,8;271
M27->DP:$60DA0;272
M28->DP:$60DA1;273
M29->Y:$60D6A,0,16;274
M30->Y:$C083,8,4;275
M31->X:$2000,24,s;276
M40->Y:$60D60,0,1;277
M41->Y:$60D60,1,1;278
M42->Y:$60D60,2,1;279
M43->Y:$60D60,3,1;280
M50->Y:$60D9E,0,1;281
M51->Y:$60D9E,1,1;282
M52->Y:$60D9E,2,1;283
M53->Y:$60D9E,3,1;284
M54->Y:$60D9E,4,1;285
M55->Y:$60D9E,5,1;286
M60->Y:$60D9D,0,1;287
M61->Y:$60D9D,1,1;288
M62->Y:$60D9D,2,1;289
M70->L:$2047;290
M71->L:$2048;291
M72->L:$2049;292
M73->L:$2041;293
M74->L:$2042;294
M75->L:$2043;295
M76->L:$2044;296
M80->F:$60D6B;297
M81->F:$60D6C;298
M82->F:$60D6D;299
M83->F:$60D6E;300
M84->F:$60D6F;301
M85->F:$60D70;302
M86->F:$60D71;303
M90->X:$78202,0,24,s;304
M91->X:$7820A,0,24,s;305
M92->X:$78212,0,24,s;306
M93->X:$7821A,0,24,s;307
M94->X:$78302,0,24,s;308
M95->X:$7830A,0,24,s;309
M96->X:$78312,0,24,s;310
M100->X:$78200,0,24;311
M101->X:$78208,0,24;312
M102->X:$78210,0,24;313
M103->X:$78218,0,24;314
M104->X:$78300,0,24;315
M105->X:$78308,0,24;316
M106->X:$78310,0,24;317
M110->Y:$C0,0,24;318
M111->Y:$140,0,24;319
M112->Y:$1C0,0,24;320
M113->Y:$240,0,24;321
M114->Y:$2C0,0,24;322
M115->Y:$340,0,24;323
M116->Y:$3C0,0,24;324
M120->D:$CC;325
M121->D:$14C;326
M122->D:$1CC;327
M123->D:$24C;328
M124->D:$2CC;329
M125->D:$34C;330
M126->D:$3CC;331
M130->F:$60D7B;332
M131->F:$60D7C;333
M132->F:$60D7D;334
M133->F:$60D7E;335
M134->F:$60D7F;336
M135->F:$60D80;337
M136->F:$60D81;338
M137->F:$60D82;339
M138->F:$60D83;340
M139->F:$60D84;341
M140->F:$60DA5;342
M141->F:$60DA6;343
M142->F:$60DA7;344
M143->F:$60DA8;345
M144->F:$60DA9;346
M145->F:$60DAA;347
M146->F:$60DAB;348
M147->F:$60DAC;349
M148->F:$60DAD;350
M149->F:$60DAE;351
M150->X:$78203,0,24,s;352
M151->X:$7820B,0,24,s;353
M152->X:$78213,0,24,s;354
M153->X:$7821B,0,24,s;355
M154->X:$78303,0,24,s;356
M155->X:$7830B,0,24,s;357
M156->X:$78313,0,24,s;358
M160->Y:$78F08,5;359
M161->Y:$78F09,5;360
M162->Y:$78F0A,5;361
M163->Y:$78F0B,5;362
M164->Y:$78F0C,5;363
M165->Y:$78F0D,5;364
M166->Y:$78F0E,5;365
M170->F:$60D73;366
M171->F:$60D74;367
M172->F:$60D75;368
M173->F:$60D76;369
M174->F:$60D77;370
M175->F:$60D78;371
M176->F:$60D79;372
M180->D:$88;373
M181->D:$108;374
M182->D:$188;375
M183->D:$208;376
M184->D:$288;377
M185->D:$308;378
M186->D:$388;379
M190->D:$8B;380
M191->D:$10B;381
M192->D:$18B;382
M193->D:$20B;383
M194->D:$28B;384
M195->D:$30B;385
M196->D:$38B;386
&1;395
I50=5;396
I68=1;397
I100=1;398
I108=96;399
I109=96;400
I111=251221;401
I112=240299;402
I115=2.73;403
I116=227.56;404
I117=1.37;405
I119=1.37;406
I122=45.51;407
I127=0;408
I128=66;409
I130=10200.00;410
I131=0.00;411
I133=400.00;412
I190=1.00;413
I200=1;414
I208=96;415
I209=96;416
I211=251221;417
I212=240299;418
I215=2.73;419
I216=227.56;420
I217=1.37;421
I219=1.37;422
I222=45.51;423
I227=0;424
I228=66;425
I230=10200.00;426
I231=0.00;427
I233=400.00;428
I290=1.00;429
I300=1;430
I308=96;431
I309=96;432
I311=251221;433
I312=240299;434
I315=2.73;435
I316=227.56;436
I317=1.37;437
I319=1.37;438
I322=45.51;439
I327=0;440
I328=66;441
I330=10200.00;442
I331=0.00;443
I333=400.00;444
I390=1.00;445
I400=1;446
I408=96;447
I409=96;448
I411=96000;449
I412=94400;450
I415=0.40;451
I416=48.00;452
I417=0.20;453
I419=0.20;454
I422=18.00;455
I427=0;456
I428=48;457
I430=26100.00;458
I431=0.00;459
I433=400.00;460
I490=1.00;461
I500=1;462
I508=96;463
I509=96;464
I511=96000;465
I512=94400;466
I515=0.40;467
I516=48.00;468
I517=0.20;469
I519=0.20;470
I522=18.00;471
I527=0;472
I528=48;473
I530=26100.00;474
I531=0.00;475
I533=400.00;476
I590=1.00;477
I600=1;478
I608=96;479
I609=96;480
I611=96000;481
I612=94400;482
I615=0.50;483
I616=48.00;484
I617=0.25;485
I619=0.25;486
I622=18.00;487
I627=360000;488
I628=48;489
I630=16000.00;490
I631=0.00;491
I633=400.00;492
I690=1.00;493
I700=1;494
I708=96;495
I709=96;496
I711=10000;497
I712=4000;498
I715=1.25;499
I716=10.42;500
I717=0.63;501
I719=0.63;502
I722=5.21;503
I727=0;504
I728=15;505
I730=1200000.00;506
I731=0.00;507
I733=1280.00;508
I790=1.00;509
I5113=15;510
I5120=21;511
I5185=10.00;512
I5187=0;513
I5188=7;514
I5190=60000.00;515
I5191=0;516
open prog 1000 clear;574
RAPID;575
M11 = 0;576
Return;577
N41;579
dwell0;580
while(M50 != 1);581
endwhile;582
Return;583
N42;585
dwell0;586
M40 = 1;587
while(M50 != 0);588
endwhile;589
dwell0;590
M40 = 0;591
Return;592
N1000;593
LINEAR;594
M11 = 1;595
Return;596
N2000;597
CIRCLE1;598
M11 = 2;599
Return;600
N3000;601
CIRCLE2;602
M11 = 3;603
Return;604
N4000;605
M43 = 1;606
GOSUB 41;607
Read(P);608
if (Q100 & 32768 != 0);609
  Q116 = Q116 * 1000.0;610
else;611
  Q116 = 0;612
endif;613
Dwell(Q116);614
GOSUB 42;615
M43 = 0;616
Return;617
N13000;618
M12 = 13;619
Return;620
N14000;621
M12 = 14;622
Return;623
N15000;624
M12 = 15;625
Return;626
N16000;627
Q12=0;628
Q13=0;629
Q14=0;630
if (Q100 & 256 != 0);631
  Q12=Q109;632
endif;633
if (Q100 & 512 != 0);634
  Q13=Q110;635
endif;636
if (Q100 & 1024 != 0);637
  Q14=Q111;638
endif;639
NORMAL I(Q12)J(Q13)K(Q14);640
M13 = 16;641
Return;642
N17000;643
NORMAL K-1;644
M13 = 17;645
Return;646
N18000;647
NORMAL J-1;648
M13 = 18;649
Return;650
N19000;651
NORMAL I-1;652
M13 = 19;653
Return;654
N20000;655
M18 = 20;656
Return;657
N21000;658
M18 = 21;659
Return;660
N40000;661
M14 = 40;662
Return;663
N41000;664
M14 = 41;665
Return;666
N42000;667
M14 = 42;668
Return;669
N43000;670
M14 = 43;671
Return;672
N44000;673
M14 = 44;674
Return;675
N50000;676
GOSUB 41;677
Read(A,B,C,U,V,W,X,Y,Z);678
GOSUB 42;679
Return;680
N51000;681
GOSUB 41;682
Read(A,B,C,U,V,W,X,Y,Z);683
GOSUB 42;684
Return;685
N52000;686
GOSUB 41;687
Read(A,B,C,U,V,W,X,Y,Z);688
GOSUB 42;689
Return;690
N53000;691
M21 = 53;692
Return;693
N54000;695
M21 = 54;696
Read(A,B,C,U,V,W,X,Y,Z);697
Return;698
N55000;699
M21 = 55;700
Read(A,B,C,U,V,W,X,Y,Z);701
Return;702
N56000;703
M21 = 56;704
Read(A,B,C,U,V,W,X,Y,Z);705
Return;706
N57000;707
M21 = 57;708
Read(A,B,C,U,V,W,X,Y,Z);709
Return;710
N58000;711
M21 = 58;712
Read(A,B,C,U,V,W,X,Y,Z);713
Return;714
N59000;715
M21 = 59;716
Read(A,B,C,U,V,W,X,Y,Z);717
Return;718
N61000;719
M19 = 61;720
Return;721
N64000;723
M19 = 64;724
Return;725
N90000;727
ABS;728
M15 = 90;729
Return;730
N91000;731
INC;732
M15 = 91;733
Return;734
N92000;735
GOSUB 41;736
Read(A,B,C,U,V,W,X,Y,Z);737
GOSUB 42;738
Return;739
N93000;741
M16 = 93;742
Return;743
N94000;744
M16 = 94;745
Return;746
N95000;747
M16 = 95;748
Return;749
N96000;750
M17 = 96;751
Return;752
N97000;753
M17 = 97;754
Return;755
Close;756
OPEN PROG 1001 CLEAR;757
Q10=0;758
GOSUB 10;759
dwell0;760
M40 = 1;761
STOP;762
M40 = 0;763
Return;764
N00005;765
  WHILE (M60 != 0);766
  ENDWHILE;767
  M7=Q10;768
  WHILE (M7!=0);769
  ENDWHILE;770
  WHILE (M60 != 0);771
  ENDWHILE;772
M40 = 1;773
while(M50 != 0);774
endwhile;775
dwell0;776
M40 = 0;777
RETURN;778
N00010;780
  DWELL0;781
  GOSUB 5;782
RET;783
N1000;784
  Q10=1;785
  GOSUB 10;786
M40 = 1;787
  IF(M54 != 0);788
    STOP;789
  ENDIF;790
  DWELL0;791
M40 = 0;792
RET;793
N2000;795
  Q10=2;796
  GOSUB 10;797
RET;798
N3000;800
  Q10=3;801
  GOSUB 10;802
RET;803
N4000;805
  Q10=4;806
  GOSUB 10;807
RET;808
N5000;810
  Q10=5;811
  GOSUB 10;812
RET;813
N6000;815
  Q10=6;816
  GOSUB 10;817
RET;818
N7000;820
  Q10=7;821
  GOSUB 10;822
RET;823
N8000;825
  Q10=8;826
  GOSUB 10;827
RET;828
N9000;830
  Q10=9;831
  GOSUB 10;832
RET;833
N10000;835
  Q10=10;836
  GOSUB 10;837
RET;838
N11000;840
  Q10=11;841
  GOSUB 10;842
RET;843
N12000;845
  Q10=12;846
  GOSUB 10;847
RET;848
N13000;850
  Q10=13;851
  GOSUB 10;852
RET;853
N14000;855
  Q10=14;856
  GOSUB 10;857
RET;858
N15000;860
  Q10=15;861
  GOSUB 10;862
RET;863
N16000;865
  Q10=16;866
  GOSUB 10;867
RET;868
N17000;870
  Q10=17;871
  GOSUB 10;872
RET;873
N18000;875
  Q10=18;876
  GOSUB 10;877
RET;878
N19000;880
  Q10=19;881
  GOSUB 10;882
RET;883
N20000;885
  Q10=20;886
  GOSUB 10;887
RET;888
N21000;890
  Q10=21;891
  GOSUB 10;892
RET;893
N22000;895
  Q10=22;896
  GOSUB 10;897
RET;898
N23000;900
  Q10=23;901
  GOSUB 10;902
RET;903
N24000;905
  Q10=24;906
  GOSUB 10;907
RET;908
N25000;910
  Q10=25;911
  GOSUB 10;912
RET;913
N26000;915
  Q10=26;916
  GOSUB 10;917
RET;918
N27000;920
  Q10=27;921
  GOSUB 10;922
RET;923
N28000;925
  Q10=28;926
  GOSUB 10;927
RET;928
N29000;930
  Q10=29;931
  GOSUB 10;932
RET;933
N30000;935
  Q10=30;936
  GOSUB 10;937
M42 = 1;938
STOP;939
RET;940
N31000;942
  Q10=31;943
  GOSUB 10;944
RET;945
N32000;947
  Q10=32;948
  GOSUB 10;949
RET;950
N33000;952
  Q10=33;953
  GOSUB 10;954
RET;955
N34000;957
  Q10=34;958
  GOSUB 10;959
RET;960
N35000;962
  Q10=35;963
  GOSUB 10;964
RET;965
N36000;967
  Q10=36;968
  GOSUB 10;969
RET;970
N37000;972
  Q10=37;973
  GOSUB 10;974
RET;975
N38000;977
  Q10=38;978
  GOSUB 10;979
RET;980
N39000;982
  Q10=39;983
  GOSUB 10;984
RET;985
N40000;987
  Q10=40;988
  GOSUB 10;989
RET;990
N41000;992
  Q10=41;993
  GOSUB 10;994
RET;995
N42000;997
  Q10=42;998
  GOSUB 10;999
RET;1000
N43000;1002
  Q10=43;1003
  GOSUB 10;1004
RET;1005
N44000;1007
  Q10=44;1008
  GOSUB 10;1009
RET;1010
N45000;1012
  Q10=45;1013
  GOSUB 10;1014
RET;1015
N46000;1017
  Q10=46;1018
  GOSUB 10;1019
RET;1020
N47000;1022
  Q10=47;1023
  GOSUB 10;1024
RET;1025
N48000;1027
  Q10=48;1028
  GOSUB 10;1029
RET;1030
N49000;1032
  Q10=49;1033
  GOSUB 10;1034
RET;1035
N50000;1037
  Q10=50;1038
  GOSUB 10;1039
RET;1040
N51000;1042
  Q10=51;1043
  GOSUB 10;1044
RET;1045
N52000;1047
  Q10=52;1048
  GOSUB 10;1049
RET;1050
N53000;1052
  Q10=53;1053
  GOSUB 10;1054
RET;1055
N54000;1057
  Q10=54;1058
  GOSUB 10;1059
RET;1060
N55000;1062
  Q10=55;1063
  GOSUB 10;1064
RET;1065
N56000;1067
  Q10=56;1068
  GOSUB 10;1069
RET;1070
N57000;1072
  Q10=57;1073
  GOSUB 10;1074
RET;1075
N58000;1077
  Q10=58;1078
  GOSUB 10;1079
RET;1080
N59000;1082
  Q10=59;1083
  GOSUB 10;1084
RET;1085
N60000;1087
  Q10=60;1088
  GOSUB 10;1089
RET;1090
N61000;1092
  Q10=61;1093
  GOSUB 10;1094
RET;1095
N62000;1097
  Q10=62;1098
  GOSUB 10;1099
RET;1100
N63000;1102
  Q10=63;1103
  GOSUB 10;1104
RET;1105
N64000;1107
  Q10=64;1108
  GOSUB 10;1109
RET;1110
N65000;1112
  Q10=65;1113
  GOSUB 10;1114
RET;1115
N66000;1117
  Q10=66;1118
  GOSUB 10;1119
RET;1120
N67000;1122
  Q10=67;1123
  GOSUB 10;1124
RET;1125
N68000;1127
  Q10=68;1128
  GOSUB 10;1129
RET;1130
N69000;1132
  Q10=69;1133
  GOSUB 10;1134
RET;1135
N70000;1137
  Q10=70;1138
  GOSUB 10;1139
RET;1140
N71000;1142
  Q10=71;1143
  GOSUB 10;1144
RET;1145
N72000;1147
  Q10=72;1148
  GOSUB 10;1149
RET;1150
N73000;1152
  Q10=73;1153
  GOSUB 10;1154
RET;1155
N74000;1157
  Q10=74;1158
  GOSUB 10;1159
RET;1160
N75000;1162
  Q10=75;1163
  GOSUB 10;1164
RET;1165
N76000;1167
  Q10=76;1168
  GOSUB 10;1169
RET;1170
N77000;1172
  Q10=77;1173
  GOSUB 10;1174
RET;1175
N78000;1177
  Q10=78;1178
  GOSUB 10;1179
RET;1180
N79000;1182
  Q10=79;1183
  GOSUB 10;1184
RET;1185
N80000;1187
  Q10=80;1188
  GOSUB 10;1189
RET;1190
N81000;1192
  Q10=81;1193
  GOSUB 10;1194
RET;1195
N82000;1197
  Q10=82;1198
  GOSUB 10;1199
RET;1200
N83000;1202
  Q10=83;1203
  GOSUB 10;1204
RET;1205
N84000;1207
  Q10=84;1208
  GOSUB 10;1209
RET;1210
N85000;1212
  Q10=85;1213
  GOSUB 10;1214
RET;1215
N86000;1217
  Q10=86;1218
  GOSUB 10;1219
RET;1220
N87000;1222
  Q10=87;1223
  GOSUB 10;1224
RET;1225
N88000;1227
  Q10=88;1228
  GOSUB 10;1229
RET;1230
N89000;1232
  Q10=89;1233
  GOSUB 10;1234
RET;1235
N90000;1237
  Q10=90;1238
  GOSUB 10;1239
RET;1240
N91000;1242
  Q10=91;1243
  GOSUB 10;1244
RET;1245
N92000;1247
  Q10=92;1248
  GOSUB 10;1249
RET;1250
N93000;1252
  Q10=93;1253
  GOSUB 10;1254
RET;1255
N94000;1257
  Q10=94;1258
  GOSUB 10;1259
RET;1260
N95000;1262
  Q10=95;1263
  GOSUB 10;1264
RET;1265
N96000;1267
  Q10=96;1268
  GOSUB 10;1269
RET;1270
N97000;1272
  Q10=97;1273
  GOSUB 10;1274
RET;1275
N98000;1277
  Q10=98;1278
  GOSUB 10;1279
RET;1280
N99000;1282
  Q10=99;1283
  GOSUB 10;1284
RET;1285
Close;1287
OPEN PROG 1011 CLEAR;1289
Q10=0;1290
GOSUB 10;1291
dwell0;1292
M40 = 1;1293
STOP;1294
M40 = 0;1295
Return;1296
N00005;1297
  WHILE (M60 != 0);1298
  ENDWHILE;1299
  M7=Q10;1300
  WHILE (M7!=0);1301
  ENDWHILE;1302
  WHILE (M60 != 0);1303
  ENDWHILE;1304
M40 = 1;1305
while(M50 != 0);1306
endwhile;1307
dwell0;1308
M40 = 0;1309
RETURN;1310
N00010;1312
  DWELL0;1313
  GOSUB 5;1314
RET;1315
N1000;1316
  Q10=101;1317
  GOSUB 10;1318
RET;1319
N2000;1321
  Q10=102;1322
  GOSUB 10;1323
RET;1324
N3000;1326
  Q10=103;1327
  GOSUB 10;1328
RET;1329
N4000;1331
  Q10=104;1332
  GOSUB 10;1333
RET;1334
N5000;1336
  Q10=105;1337
  GOSUB 10;1338
RET;1339
N6000;1341
  Q10=106;1342
  GOSUB 10;1343
RET;1344
N7000;1346
  Q10=107;1347
  GOSUB 10;1348
RET;1349
N8000;1351
  Q10=108;1352
  GOSUB 10;1353
RET;1354
N9000;1356
  Q10=109;1357
  GOSUB 10;1358
RET;1359
N10000;1361
  Q10=110;1362
  GOSUB 10;1363
RET;1364
N11000;1366
  Q10=111;1367
  GOSUB 10;1368
RET;1369
N12000;1371
  Q10=112;1372
  GOSUB 10;1373
RET;1374
N13000;1376
  Q10=113;1377
  GOSUB 10;1378
RET;1379
N14000;1381
  Q10=114;1382
  GOSUB 10;1383
RET;1384
N15000;1386
  Q10=115;1387
  GOSUB 10;1388
RET;1389
N16000;1391
  Q10=116;1392
  GOSUB 10;1393
RET;1394
N17000;1396
  Q10=117;1397
  GOSUB 10;1398
RET;1399
N18000;1401
  Q10=118;1402
  GOSUB 10;1403
RET;1404
N19000;1406
  Q10=119;1407
  GOSUB 10;1408
RET;1409
N20000;1411
  Q10=120;1412
  GOSUB 10;1413
RET;1414
N21000;1416
  Q10=121;1417
  GOSUB 10;1418
RET;1419
N22000;1421
  Q10=122;1422
  GOSUB 10;1423
RET;1424
N23000;1426
  Q10=123;1427
  GOSUB 10;1428
RET;1429
N24000;1431
  Q10=124;1432
  GOSUB 10;1433
RET;1434
N25000;1436
  Q10=125;1437
  GOSUB 10;1438
RET;1439
N26000;1441
  Q10=126;1442
  GOSUB 10;1443
RET;1444
N27000;1446
  Q10=127;1447
  GOSUB 10;1448
RET;1449
N28000;1451
  Q10=128;1452
  GOSUB 10;1453
RET;1454
N29000;1456
  Q10=129;1457
  GOSUB 10;1458
RET;1459
N30000;1461
  Q10=130;1462
  GOSUB 10;1463
RET;1464
N31000;1466
  Q10=131;1467
  GOSUB 10;1468
RET;1469
N32000;1471
  Q10=132;1472
  GOSUB 10;1473
RET;1474
N33000;1476
  Q10=133;1477
  GOSUB 10;1478
RET;1479
N34000;1481
  Q10=134;1482
  GOSUB 10;1483
RET;1484
N35000;1486
  Q10=135;1487
  GOSUB 10;1488
RET;1489
N36000;1491
  Q10=136;1492
  GOSUB 10;1493
RET;1494
N37000;1496
  Q10=137;1497
  GOSUB 10;1498
RET;1499
N38000;1501
  Q10=138;1502
  GOSUB 10;1503
RET;1504
N39000;1506
  Q10=139;1507
  GOSUB 10;1508
RET;1509
N40000;1511
  Q10=140;1512
  GOSUB 10;1513
RET;1514
N41000;1516
  Q10=141;1517
  GOSUB 10;1518
RET;1519
N42000;1521
  Q10=142;1522
  GOSUB 10;1523
RET;1524
N43000;1526
  Q10=143;1527
  GOSUB 10;1528
RET;1529
N44000;1531
  Q10=144;1532
  GOSUB 10;1533
RET;1534
N45000;1536
  Q10=145;1537
  GOSUB 10;1538
RET;1539
N46000;1541
  Q10=146;1542
  GOSUB 10;1543
RET;1544
N47000;1546
  Q10=147;1547
  GOSUB 10;1548
RET;1549
N48000;1551
  Q10=148;1552
  GOSUB 10;1553
RET;1554
N49000;1556
  Q10=149;1557
  GOSUB 10;1558
RET;1559
N50000;1561
  Q10=150;1562
  GOSUB 10;1563
RET;1564
N51000;1566
  Q10=151;1567
  GOSUB 10;1568
RET;1569
N52000;1571
  Q10=152;1572
  GOSUB 10;1573
RET;1574
N53000;1576
  Q10=153;1577
  GOSUB 10;1578
RET;1579
N54000;1581
  Q10=154;1582
  GOSUB 10;1583
RET;1584
N55000;1586
  Q10=155;1587
  GOSUB 10;1588
RET;1589
N56000;1591
  Q10=156;1592
  GOSUB 10;1593
RET;1594
N57000;1596
  Q10=157;1597
  GOSUB 10;1598
RET;1599
N58000;1601
  Q10=158;1602
  GOSUB 10;1603
RET;1604
N59000;1606
  Q10=159;1607
  GOSUB 10;1608
RET;1609
N60000;1611
  Q10=160;1612
  GOSUB 10;1613
RET;1614
N61000;1616
  Q10=161;1617
  GOSUB 10;1618
RET;1619
N62000;1621
  Q10=162;1622
  GOSUB 10;1623
RET;1624
N63000;1626
  Q10=163;1627
  GOSUB 10;1628
RET;1629
N64000;1631
  Q10=164;1632
  GOSUB 10;1633
RET;1634
N65000;1636
  Q10=165;1637
  GOSUB 10;1638
RET;1639
N66000;1641
  Q10=166;1642
  GOSUB 10;1643
RET;1644
N67000;1646
  Q10=167;1647
  GOSUB 10;1648
RET;1649
N68000;1651
  Q10=168;1652
  GOSUB 10;1653
RET;1654
N69000;1656
  Q10=169;1657
  GOSUB 10;1658
RET;1659
N70000;1661
  Q10=170;1662
  GOSUB 10;1663
RET;1664
N71000;1666
  Q10=171;1667
  GOSUB 10;1668
RET;1669
N72000;1671
  Q10=172;1672
  GOSUB 10;1673
RET;1674
N73000;1676
  Q10=173;1677
  GOSUB 10;1678
RET;1679
N74000;1681
  Q10=174;1682
  GOSUB 10;1683
RET;1684
N75000;1686
  Q10=175;1687
  GOSUB 10;1688
RET;1689
N76000;1691
  Q10=176;1692
  GOSUB 10;1693
RET;1694
N77000;1696
  Q10=177;1697
  GOSUB 10;1698
RET;1699
N78000;1701
  Q10=178;1702
  GOSUB 10;1703
RET;1704
N79000;1706
  Q10=179;1707
  GOSUB 10;1708
RET;1709
N80000;1711
  Q10=180;1712
  GOSUB 10;1713
RET;1714
N81000;1716
  Q10=181;1717
  GOSUB 10;1718
RET;1719
N82000;1721
  Q10=182;1722
  GOSUB 10;1723
RET;1724
N83000;1726
  Q10=183;1727
  GOSUB 10;1728
RET;1729
N84000;1731
  Q10=184;1732
  GOSUB 10;1733
RET;1734
N85000;1736
  Q10=185;1737
  GOSUB 10;1738
RET;1739
N86000;1741
  Q10=186;1742
  GOSUB 10;1743
RET;1744
N87000;1746
  Q10=187;1747
  GOSUB 10;1748
RET;1749
N88000;1751
  Q10=188;1752
  GOSUB 10;1753
RET;1754
N89000;1756
  Q10=189;1757
  GOSUB 10;1758
RET;1759
N90000;1761
  Q10=190;1762
  GOSUB 10;1763
RET;1764
N91000;1766
  Q10=191;1767
  GOSUB 10;1768
RET;1769
N92000;1771
  Q10=192;1772
  GOSUB 10;1773
RET;1774
N93000;1776
  Q10=193;1777
  GOSUB 10;1778
RET;1779
N94000;1781
  Q10=194;1782
  GOSUB 10;1783
RET;1784
N95000;1786
  Q10=195;1787
  GOSUB 10;1788
RET;1789
N96000;1791
  Q10=196;1792
  GOSUB 10;1793
RET;1794
N97000;1796
  Q10=197;1797
  GOSUB 10;1798
RET;1799
N98000;1801
  Q10=198;1802
  GOSUB 10;1803
RET;1804
N99000;1806
  Q10=199;1807
  GOSUB 10;1808
RET;1809
Close;1811
M29=0;1812
Open Plcc 1;1813
M170 = M70;1814
M171 = M71;1815
M172 = M72;1816
M173 = M73;1817
M174 = M74;1818
M175 = M75;1819
M176 = M76;1820
while (M52 != 0);1821
M3 = 0;1822
M4 = M6;1823
M5 = M6;1824
M7 = 0;1825
M8 = 0;1826
M9 = 0;1827
M11 = 1;1828
M12 = 13;1829
M13 = 17;1830
M14 = 40;1831
M15 = 90;1832
M16 = 94;1833
M17 = 96;1834
I116=227.56;1835
I216=227.56;1836
I316=227.56;1837
I416=48.00;1838
I516=48.00;1839
I616=48.00;1840
I716=10.42;1841
M18 = 21;1842
M19 = 61;1843
M20 = 0;1844
M21 = 53;1845
M43 = 0;1846
;C:\hsd6GT.V3\profile\NCPmacCode\app_reset.txt
I111 = 11.50 * 1365.33 * 16;3
I211 = 11.50 * 1365.33 * 16;4
I311 = 11.50 * 1365.33 * 16;5
I115=4;6
I215=4;7
I315=4;8
I117=1.5;9
I217=1.5;10
I5194=10000;11
I724=$a08001 ;12
;C:\hsd6GT.V3\profile\NCPmacCode\NC.Txt
M41 = 1;1848
M42 = 0;1849
  M1002=M1002+1;1850
M40 = 0;1851
endwhile;1852
M41 = 0;1853
if (M51 != 0);1854
M7 = 0;1855
M8 = 0;1856
M8 = 0;1857
endif;1858
if (M50 != 1);1860
endif;1861
if (M60 != 0);1863
M7 = 0;1864
endif;1865
close;1866
open prog 101 clear;1867
I113=0;1868
I114=0;1869
M110 = M110 & (M110 ^  1024);1870
while(M100 &  65536 =  65536);1871
F550 LIN;1872
INC X9.00;1873
endw;1874
while(M100 &  65536 !=  65536);1875
F300 LIN;1876
INC X-1.50;1877
Dwell0;1878
endw;1879
P10 = M150;1880
I123=-3.00;1881
I126=0;1882
I7213=0;1883
I7212=1;1884
Dwell0;1885
M80 = M90 / (1365.33 * 2);1886
HOME1;1887
Dwell0;1888
P10 = M150;1889
M80 = M80 - (M90 / (1365.33 * 2));1890
close;1891
open prog 102 clear;1893
I213=0;1894
I214=0;1895
M111 = M111 & (M111 ^  1024);1896
while(M101 &  65536 =  65536);1897
F550 LIN;1898
INC Y3.00;1899
endw;1900
while(M101 &  65536 !=  65536);1901
F300 LIN;1902
INC Y-0.50;1903
Dwell0;1904
endw;1905
P11 = M151;1906
I223=-3.00;1907
I226=0;1908
I7223=0;1909
I7222=1;1910
Dwell0;1911
M81 = M91 / (1365.33 * 2);1912
HOME2;1913
Dwell0;1914
P11 = M151;1915
M81 = M81 - (M91 / (1365.33 * 2));1916
close;1917
open prog 103 clear;1919
I313=0;1920
I314=0;1921
M112 = M112 & (M112 ^  1024);1922
while(M102 &  65536 =  65536);1923
F550 LIN;1924
INC Z3.00;1925
endw;1926
while(M102 &  65536 !=  65536);1927
F300 LIN;1928
INC Z-0.50;1929
Dwell0;1930
endw;1931
P12 = M152;1932
I323=-3.00;1933
I326=0;1934
I7233=0;1935
I7232=1;1936
Dwell0;1937
M82 = M92 / (1365.33 * 2);1938
HOME3;1939
Dwell0;1940
P12 = M152;1941
M82 = M82 - (M92 / (1365.33 * 2));1942
close;1943
open prog 104 clear;1945
I413=0;1946
I414=0;1947
M113 = M113 & (M113 ^  1024);1948
while(M103 &  65536 =  65536);1949
F550 LIN;1950
INC A0.60;1951
endw;1952
while(M103 &  65536 !=  65536);1953
F300 LIN;1954
INC A-0.10;1955
Dwell0;1956
endw;1957
P13 = M153;1958
I423=-5.00;1959
I426=0;1960
I7243=0;1961
I7242=1;1962
Dwell0;1963
M83 = M93 / (1000.00 * 2);1964
HOME4;1965
Dwell0;1966
P13 = M153;1967
M83 = M83 - (M93 / (1000.00 * 2));1968
close;1969
open prog 105 clear;1971
I513=0;1972
I514=0;1973
M114 = M114 & (M114 ^  1024);1974
while(M104 &  65536 =  65536);1975
F550 LIN;1976
INC B-1.20;1977
endw;1978
while(M104 &  65536 !=  65536);1979
F300 LIN;1980
INC B0.20;1981
Dwell0;1982
endw;1983
P14 = M154;1984
I523=3.00;1985
I526=0;1986
I7313=0;1987
I7312=1;1988
Dwell0;1989
M84 = M94 / (1000.00 * 2);1990
HOME5;1991
Dwell0;1992
P14 = M154;1993
M84 = M84 - (M94 / (1000.00 * 2));1994
close;1995
open prog 106 clear;1997
I613=0;1998
I614=0;1999
M115 = M115 & (M115 ^  1024);2000
while(M105 &  65536 =  65536);2001
F550 LIN;2002
INC C1.20;2003
endw;2004
while(M105 &  65536 !=  65536);2005
F300 LIN;2006
INC C-0.20;2007
Dwell0;2008
endw;2009
P15 = M155;2010
I623=-6.00;2011
I626=0;2012
I7323=0;2013
I7322=1;2014
Dwell0;2015
M85 = M95 / (1000.00 * 2);2016
HOME6;2017
Dwell0;2018
P15 = M155;2019
M85 = M85 - (M95 / (1000.00 * 2));2020
close;2021
open prog 107 clear;2023
I713=0;2024
I714=0;2025
M116 = M116 & (M116 ^  1024);2026
while(M106 &  65536 !=  65536);2027
F550 LIN;2028
INC U6.00;2029
endw;2030
while(M106 &  65536 =  65536);2031
F300 LIN;2032
INC U-1.00;2033
Dwell0;2034
endw;2035
P16 = M156;2036
I723=1.00;2037
I726=0;2038
I7333=0;2039
I7332=1;2040
Dwell0;2041
M86 = M96 / (312.50 * 2);2042
HOME7;2043
Dwell0;2044
P16 = M156;2045
M86 = M86 - (M96 / (312.50 * 2));2046
close;2047
;C:\hsd6GT.V3\profile\NCPmacCode\HSD6_2post.Plc
;..\..\machspec\compfile.txt
DELETE GATHER;7
DELETE ROTARY;8
#1 DELETE BLCOMP;9
#2 DELETE BLCOMP;10
#3 DELETE BLCOMP;11
#4 DELETE BLCOMP;12
#5 DELETE BLCOMP;13
#6 DELETE BLCOMP;14
#1 DELETE COMP;15
I186 = 0            ;16
#2 DELETE COMP;17
I286 = 0            ;18
#3 DELETE COMP;19
I386 = 0            ;20
#4 DELETE COMP;21
I486 = 0            ;22
#5 DELETE COMP;23
I586 = 0            ;24
#6 DELETE COMP;25
I686 = 0            ;26
#5;33
DEFINE COMP 35,350000;34
32       ;35
32       ;36
48       ;37
48       ;38
64       ;39
48       ;40
32       ;41
32       ;42
32       ;43
32       ;44
0        ;45
-32      ;46
-80      ;47
-80      ;48
-96      ;49
-128     ;50
-128     ;51
-160     ;52
-160     ;53
-176     ;54
-192     ;55
-192     ;56
-192     ;57
-192     ;58
-128     ;59
-128     ;60
-128     ;61
-128     ;62
-128     ;63
-128     ;64
-96      ;65
-64      ;66
-48      ;67
-32      ;68
0        ;69
#4;79
DEFINE COMP 26,260000;80
35       ;81
53       ;82
56       ;83
125      ;84
93       ;85
74       ;86
58       ;87
29       ;88
-3       ;89
-22      ;90
-65      ;91
-86      ;92
-115     ;93
-134     ;94
-163     ;95
-168     ;96
-182     ;97
-184     ;98
-184     ;99
-171     ;100
-155     ;101
-139     ;102
-109     ;103
-77      ;104
-45      ;105
0        ;106
#3;116
DEFINE COMP 84,1031940;117
-11      ;118
-18      ;119
-18      ;120
-26      ;121
-47      ;122
-62      ;123
-62      ;124
-54      ;125
-32      ;126
-22      ;127
-33      ;128
-40      ;129
-40      ;130
18       ;131
-4       ;132
-26      ;133
-47      ;134
-62      ;135
-62      ;136
-50      ;137
-18      ;138
0        ;139
-11      ;140
-18      ;141
-18      ;142
-26      ;143
-47      ;144
-62      ;145
-62      ;146
-73      ;147
-106     ;148
-124     ;149
-113     ;150
-94      ;151
-61      ;152
-36      ;153
-25      ;154
-22      ;155
-33      ;156
-44      ;157
-55      ;158
-66      ;159
-76      ;160
-80      ;161
-69      ;162
-54      ;163
-32      ;164
-18      ;165
-18      ;166
-26      ;167
-47      ;168
-73      ;169
-106     ;170
-124     ;171
-113     ;172
-98      ;173
-76      ;174
-58      ;175
-47      ;176
-40      ;177
-40      ;178
-40      ;179
-40      ;180
-51      ;181
-84      ;182
-113     ;183
-135     ;184
-142     ;185
-120     ;186
-102     ;187
-91      ;188
-80      ;189
-69      ;190
-62      ;191
-62      ;192
-69      ;193
-91      ;194
-102     ;195
-91      ;196
-76      ;197
-54      ;198
-32      ;199
-11      ;200
0        ;201
#2;211
DEFINE COMP 44,750750;212
11       ;213
26       ;214
48       ;215
52       ;216
31       ;217
17       ;218
17       ;219
454      ;220
454      ;221
454      ;222
454      ;223
450      ;224
439      ;225
411      ;226
356      ;227
315      ;228
293      ;229
288      ;230
310      ;231
332      ;232
354      ;233
367      ;234
367      ;235
371      ;236
382      ;237
389      ;238
389      ;239
384      ;240
374      ;241
345      ;242
291      ;243
236      ;244
181      ;245
140      ;246
118      ;247
114      ;248
135      ;249
131      ;250
87       ;251
52       ;252
31       ;253
13       ;254
2        ;255
0        ;256
#1;266
DEFINE COMP 88,1501500;267
33       ;268
46       ;269
46       ;270
53       ;271
64       ;272
94       ;273
138      ;274
168      ;275
190      ;276
199      ;277
199      ;278
485      ;279
453      ;280
420      ;281
387      ;282
380      ;283
391      ;284
396      ;285
396      ;286
376      ;287
343      ;288
337      ;289
347      ;290
345      ;291
335      ;292
311      ;293
278      ;294
258      ;295
247      ;296
236      ;297
225      ;298
195      ;299
151      ;300
114      ;301
81       ;302
49       ;303
16       ;304
-23      ;305
-67      ;306
-104     ;307
-137     ;308
-163     ;309
-185     ;310
-213     ;311
-246     ;312
-273     ;313
-294     ;314
-303     ;315
-303     ;316
-303     ;317
-303     ;318
-303     ;319
-303     ;320
-297     ;321
-286     ;322
-281     ;323
-281     ;324
-288     ;325
-299     ;326
-310     ;327
-321     ;328
-325     ;329
-325     ;330
-319     ;331
-308     ;332
-310     ;333
-321     ;334
-312     ;335
-290     ;336
-275     ;337
-264     ;338
-260     ;339
-260     ;340
-247     ;341
-225     ;342
-203     ;343
-181     ;344
-166     ;345
-155     ;346
-144     ;347
-133     ;348
-109     ;349
-76      ;350
-63      ;351
-63      ;352
-50      ;353
-28      ;354
0        ;355
#5;365
I586 = 32            ;366
DEFINE BLCOMP 35,350000;367
0        ;368
16       ;369
16       ;370
16       ;371
0        ;372
-16      ;373
0        ;374
-16      ;375
-32      ;376
-64      ;377
-48      ;378
-48      ;379
-32      ;380
-64      ;381
-64      ;382
-64      ;383
-96      ;384
-64      ;385
-80      ;386
-80      ;387
-64      ;388
-64      ;389
-48      ;390
-48      ;391
-64      ;392
-64      ;393
-64      ;394
-48      ;395
-32      ;396
-16      ;397
-16      ;398
-16      ;399
0        ;400
16       ;401
0        ;402
I585 = 32;403
#4;413
I486 = -29            ;414
DEFINE BLCOMP 26,260000;415
-3       ;416
10       ;417
13       ;418
-6       ;419
10       ;420
13       ;421
0        ;422
-3       ;423
10       ;424
0        ;425
10       ;426
0        ;427
10       ;428
0        ;429
24       ;430
16       ;431
26       ;432
29       ;433
29       ;434
16       ;435
13       ;436
26       ;437
16       ;438
0        ;439
10       ;440
0        ;441
I485 = 32;442
#3;452
I386 = 164            ;453
DEFINE BLCOMP 84,1031940;454
33       ;455
51       ;456
40       ;457
33       ;458
33       ;459
40       ;460
62       ;461
72       ;462
62       ;463
47       ;464
25       ;465
11       ;466
11       ;467
-25      ;468
-4       ;469
18       ;470
40       ;471
54       ;472
54       ;473
47       ;474
25       ;475
14       ;476
25       ;477
33       ;478
33       ;479
36       ;480
47       ;481
51       ;482
40       ;483
36       ;484
47       ;485
51       ;486
40       ;487
33       ;488
33       ;489
29       ;490
18       ;491
11       ;492
11       ;493
-1       ;494
-33      ;495
-36      ;496
19       ;497
36       ;498
-19      ;499
-47      ;500
-25      ;501
-4       ;502
18       ;503
33       ;504
33       ;505
36       ;506
47       ;507
51       ;508
40       ;509
33       ;510
33       ;511
36       ;512
47       ;513
54       ;514
54       ;515
51       ;516
40       ;517
33       ;518
33       ;519
33       ;520
33       ;521
33       ;522
33       ;523
33       ;524
33       ;525
29       ;526
18       ;527
14       ;528
25       ;529
33       ;530
33       ;531
33       ;532
33       ;533
29       ;534
18       ;535
7        ;536
-4       ;537
0        ;538
I385 = 32;539
#2;549
I286 = 66            ;550
DEFINE BLCOMP 44,750750;551
0        ;552
0        ;553
0        ;554
0        ;555
0        ;556
0        ;557
0        ;558
-66      ;559
-66      ;560
-66      ;561
-66      ;562
-62      ;563
-51      ;564
-44      ;565
-44      ;566
-40      ;567
-29      ;568
-27      ;569
-38      ;570
-44      ;571
-44      ;572
-40      ;573
-29      ;574
-22      ;575
-22      ;576
-22      ;577
-22      ;578
-27      ;579
-38      ;580
-40      ;581
-29      ;582
-22      ;583
-22      ;584
-18      ;585
-7       ;586
-5       ;587
-16      ;588
-18      ;589
-7       ;590
-5       ;591
-16      ;592
-18      ;593
-7       ;594
0        ;595
I285 = 32;596
#1;606
I186 = 44            ;607
DEFINE BLCOMP 88,1501500;608
0        ;609
6        ;610
17       ;611
22       ;612
22       ;613
22       ;614
22       ;615
15       ;616
4        ;617
0        ;618
0        ;619
6        ;620
17       ;621
28       ;622
39       ;623
43       ;624
43       ;625
43       ;626
43       ;627
43       ;628
43       ;629
43       ;630
43       ;631
43       ;632
43       ;633
43       ;634
43       ;635
43       ;636
43       ;637
37       ;638
26       ;639
28       ;640
39       ;641
43       ;642
43       ;643
43       ;644
43       ;645
43       ;646
43       ;647
37       ;648
26       ;649
22       ;650
22       ;651
28       ;652
39       ;653
43       ;654
43       ;655
43       ;656
43       ;657
43       ;658
43       ;659
43       ;660
43       ;661
37       ;662
26       ;663
28       ;664
39       ;665
43       ;666
43       ;667
43       ;668
43       ;669
43       ;670
43       ;671
37       ;672
26       ;673
28       ;674
39       ;675
37       ;676
26       ;677
28       ;678
39       ;679
43       ;680
43       ;681
37       ;682
26       ;683
22       ;684
22       ;685
15       ;686
4        ;687
6        ;688
17       ;689
22       ;690
22       ;691
22       ;692
22       ;693
15       ;694
4        ;695
0        ;696
I185 = 32;697
I51 = 1;701
;C:\hsd6GT.V3\profile\NCPmacCode\HSD6_2post.Plc
;C:\hsd6GT.V3\profile\NCPmacCode\PRegister.txt
;C:\hsd6GT.V3\profile\NCPmacCode\HSD6_2post.Plc
;C:\hsd6GT.V3\profile\NCPmacCode\PlcMapping.txt
M444->X:$06001A,0,16;111
M400->Y:$60DB7,0,16;116
M401->X:$60DB7,0,16;117
M402->Y:$60DB8,0,16;118
M403->X:$60DB8,0,16;119
M404->Y:$60DB9,0,8;120
M405->Y:$60DB9,8,8;121
M406->X:$60DB9,0,8;122
M407->X:$60DB9,8,8;123
M408->Y:$60DBA,0,8;124
M409->Y:$60DBA,8,8;125
M410->X:$60DBA,0,8;126
M411->X:$60DBA,8,8;127
M412->Y:$60DBB,0,16,s ;128
M413->X:$60DBB,0,16;129
M414->Y:$60DBC,0,16;130
M415->X:$60DBC,0,16;131
M416->Y:$60DBD,0,16;132
M417->X:$60DBD,0,16;133
M418->Y:$60DBE,0,16;134
M419->X:$60DBE,0,16;135
M420->Y:$60DBF,0,16;136
M421->X:$60DBF,0,16;137
M422->Y:$60D8E,0,16;142
M423->X:$60D8E,0,16;143
M424->Y:$60D8F,0,16;144
M425->X:$60D8F,0,16;145
M426->Y:$60D90,0,8;147
M427->Y:$60D90,8,8;148
M428->X:$60D90,0,8;149
M429->X:$60D90,8,8;150
M430->Y:$60D91,0,8;151
M431->Y:$60D91,8,8;152
M432->X:$60D91,0,8;153
M433->X:$60D91,8,8;154
M434->Y:$60D92,0,16;155
M435->X:$60D92,0,16;156
M436->Y:$60D93,0,16;157
M437->X:$60D93,0,16;158
M438->Y:$60D94,0,16,s;159
M439->X:$60D94,0,16;160
M440->Y:$60D95,0,16;161
M441->X:$60D95,0,16;162
M442->Y:$60D96,0,16;163
M443->X:$60D96,0,16;164
M660->D:$90;180
M661->D:$110;181
M662->D:$190;182
M663->D:$210;183
M664->D:$290;184
M665->D:$310;185
M666->D:$390;186
M667->D:$410;187
;C:\hsd6GT.V3\profile\NCPmacCode\HSD6_2post.Plc
;C:\hsd6GT.V3\profile\NCPmacCode\edm.txt
M450->dp:$60DAF;133
M451->Y:$60DB0,0,16;134
M452->X:$60DB0,0,16;135
M453->Y:$60DB1,0,8;136
M454->Y:$60DB1,8,8;137
M455->X:$60DB1,0,8;138
M456->X:$60DB1,8,8;139
M457->Y:$60DB2,0,8;140
M458->Y:$60DB2,8,8;141
M459->X:$60DB2,0,16;142
M460->dp:$60DB3;143
M461->Y:$60DB4,0,16;144
M462->X:$60DB4,0,8;145
M463->X:$60DB4,8,8;146
M464->dp:$60DB5;147
M465->dp:$60DB6;148
M468->dp:$60D86;202
M469->dp:$60D87;203
M470->dp:$60D88;204
M471->Y:$60D89,0,16;205
M472->X:$60D89,0,16;206
M473->Y:$60D8A,0,8;207
M474->Y:$60D8A,8,8;208
M475->X:$60D8A,0,16;209
M476->dp:$60D8B;210
M477->dp:$60D8C;211
M478->dp:$60D8D;212
M481->X:$078312,0,24,s ;228
M482->X:$078310,0,24,u ;229
M484->Y:$003400,12,12,u ;231
M483->Y:$003402,12,12,u ;232
M486->Y:$003404,12,12,u ;233
M487->Y:$003406,12,12,s ;234
M485->D:$10f0;235
I8011 = $6010f0;257
I8012 = $18000;258
I8013 = 0;259
I703=@I8011 ;261
M490->D:$0388;266
M491->D:$038b;267
M492->Y:$07831A,8,16,S;271
;C:\hsd6GT.V3\profile\NCPmacCode\HSD6_2post.Plc
i5=3;8
i8=1;9
;..\..\machspec\cnc.ivr
I7210=7                  ;19
I7216=3                  ;20
I7220=3                  ;22
I7226=3                  ;23
I7230=7                  ;25
I7236=3                  ;26
I7240=7                  ;28
I7246=3                  ;29
I7310=7                  ;31
I7316=3                  ;32
I7320=3                  ;34
I7326=3                  ;35
I7330=3                  ;37
I7336=3                  ;38
I7340=7                  ;40
I7346=3                  ;41
I7410=3                  ;43
I7416=3                  ;44
;C:\hsd6GT.V3\profile\NCPmacCode\HSD6_2post.Plc
;C:\hsd6GT.V3\profile\NCPmacCode\HSD6IIIServo.plc
open plcc 0;1
  ;2
  P101   = (M481 - P104) * 2.44140625;3
  P102 = ((M483 * 10 / M453) + 0);4
  P103 = M451 / 10;5
  M470 = P104 * 2.44140625;6
  M428 = M458     ;7
  M429 = M463;8
  M430 = (M486 - 392) / 10.16;9
  ;11
  if (P102 < 0);13
    P102 = 0;14
  endif;15
  M473 = P102;16
  ;18
  if (P111 - P100 < M450);19
    P128 = P128 + 1;20
    if(P128 > 112);21
      M474 = (M484 / 3.792) ;22
    endif;23
  else;24
    P128 = 0;25
  endif;26
  ;28
  P108 = (M452 / 1125)*2;29
  ;30
  P127 = (M462 * 1000) / 1125;31
  P109= P102 - P103;32
  if (M461 > 0);34
    P126 = M461;35
  else;36
    P126 = 1000000;37
  endif;38
  if (M459 &  128 !=  128);40
  IF (M459 &  1 !=  1);41
    IF(P110 = 1);43
      P110 = 0;44
      M475 = M475 & (M475 ^  2);45
      M475 = M475 & (M475 ^  1024);46
      P112 = M460;48
      if(M459 &  2048 =  2048);50
        if ((P111 - P100) > P112);51
          P106 = ((P111 - P112) / 2.44140625) / (P100 / 500);52
        else;53
          P106 = 0;54
        endif;55
      else;56
        if(M459 &  4096 =  4096) ;57
          if (P112 > P100);58
            P106 = ((P100 - P112) / 2.44140625) / (P100 / 500);59
          else;60
            P106 = 0;61
          endif;62
        else;63
          P106 = 0;64
        endif ;65
      endif;66
      P107 = 0;68
      P113 = 0 ;69
      if(M459 &  32768 =  32768);70
        P106 = 0 - P106;71
      endif;72
    endif;73
    IF(P100 < 0);74
      P100 = P100 + 500;75
      P104 = P104 + P106;76
    ENDIF  ;77
    IF(P100 > 0);79
      P100 = P100 - 500;80
    ENDIF;81
    IF(ABS(P100) < 500 + 2);83
      P100 = 0;84
    ENDIF;85
    IF(P100 = 0) ;93
      if(P104 != 0);94
        M475 = M475 |  512;95
        if(M459 &  8192 =  8192);96
          if(P104 > 0);97
            P104 = P104 - 500;98
          endif;99
          if(P104 < 0);101
            P104 = P104 + 500;102
          endif;103
          if(ABS(P104) < 500);105
            P104 = 0;106
          endif;107
        endif  ;108
      else;109
        M475 = M475 & (M475 ^  512);110
      endif;111
      P100 = 0;113
      M475 = M475 |  4;114
    ENDIF ;115
    ;116
  ELSE ;117
    if(P110 < 1);119
      P111 = 0;120
      if(M459 &  512 =  512);121
        P111 = P121;122
        M475 = M475 |  2;123
      endif;124
     P105 = P100;125
    endif;126
    P110 = 1;128
    M475 = M475 & (M475 ^  4);129
    if(P102 < P103);132
    ;133
    ;134
      if (P102 < (M455));135
        P107 = P107 + 1;136
        P122 = 1        ;137
        if (P107 > M457);138
        ;139
          if(M475 &  2 !=  2);140
            if(M459 &  512 !=  512);141
              P111 = P100;142
              if (M459 &  256 =  256);144
                P121 = P111;145
              endif;146
            endif;147
            M475 = M475 |  2;148
          endif         ;149
          P100 = P100 + M456;150
          P107 = 0;151
        endif ;152
      else;153
      ;154
      ;155
      ;156
        P100 = P100 - (P108 / 15);157
        ;159
        P114 = 1/15;160
      endif ;161
    else ;163
      P107 = 0;164
      if(P122 != 0) ;171
        P122 = 0;172
        ;173
      endif;174
      if(P100 > (P113 + P126));179
        P108 = P127;180
      endif;181
      IF(P102 > (P103 + M454));184
      ;185
       P100 = P100 - P108;186
       P114 = 1;187
      else;188
      ;189
       P114 = (P109 / M454);190
       P100 = P100 - ((P109 / M454) * P108);191
      endif;192
    endif;193
    ;194
   ;196
    if(M475 &  2 =  2);197
      if (M459 &  2 =  2);198
      ;199
        if (P100 < P105);200
          ;201
          P100 = P105;202
        endif;203
      else;204
        P105 = P100 ;205
      endif;206
    else;207
      P105 = P100 ;208
    endif;209
    if(M475 &  2 =  2);212
      if (P111 - P100 > M450 + 500);213
        P100 = P100 + 500;214
        ;215
        P118 = P118 - 1 ;216
      endif;217
    endif;218
    if(P100 > 8000);220
      M475 = M475 |  1024;221
      P100 = 8001;222
    else;223
      M475 = M475 & (M475 ^  1024);224
    endif;225
    ;227
    if(P100 < P113);228
      P115 = P115 + 1;229
      P116 = P116 + P114;230
      P113 = P100;231
      if(M475 &  2 !=  2);237
        M476 = 0 - P100;238
      else;239
        M476 = P111 - P100;240
      endif;241
      if(P115  > 20);244
        P117 = P116 / P115;245
        M471 = P117 * 10000 ;246
        P115 = 0;247
        P116 = 0;248
      endif;249
    endif;250
    ;252
    if(P118 > 20 - 1);253
      ;254
      ;255
      M472 = (P119 - P113 ) / ((1/1125) * 20);256
      P119 = P113;257
      P118 = 0;258
    endif;259
  endif;261
  else;262
    M472 = 0 ;263
  endif ;264
  ;266
  ;267
  P123 = ((M490 - M491) / (96 * 16)) * 2.44140625;268
  ;270
  if (M459 &  1024 =  1024);271
     P111 = P100;272
     M475 = M475 |  2;273
  endif;274
  M469 = P100;276
  if(M444 &  1 !=  1);277
    M468 = P111 - P100;278
  endif;279
  if(M459 &  32768 !=  32768);281
    M485 = P101 + P100;282
  else;283
    M485 = P101 - P100;284
  endif;285
  P118 = P118 + 1;287
close;288
;C:\hsd6GT.V3\profile\NCPmacCode\HSD6_2post.Plc
;C:\hsd6GT.V3\profile\NCPmacCode\axis7home.txt
open prog 107 clear;2
I713=0;3
I714=0;4
M116 = M116 & (M116 ^  1024);5
DWELL0;6
while(M106 &  65536 =  65536);7
F1000 LIN;8
INC U-0.5;9
endw;10
DWELL0;11
while(M106 &  65536 !=  65536);12
F1000 LIN;13
INC U0.50;14
endw;15
DWELL0;16
while(M106 &  65536 =  65536);17
F1000 LIN;18
INC U-0.02;19
DWELL0;20
endw;21
DWELL0;22
I723=1.00;23
I726=0;24
I7333=0;25
I7332=1;26
DWELL0;27
M86 = M96 / (312.50 * 2);28
HOMEZ7 ;29
DWELL0;30
M86 = M86 - (M96 / (312.50 * 2));31
DWELL1500;32
close;33
;C:\hsd6GT.V3\profile\NCPmacCode\HSD6_2post.Plc
;C:\hsd6GT.V3\profile\NCPmacCode\homex.txt
open prog 101 clear;1
I113=0;2
I114=0;3
M110 = M110 & (M110 ^  1024);4
while(M100 &  65536 =  65536);5
F1000 LIN;6
INC X5.00;7
endw;8
while(M100 &  65536 !=  65536);9
F300 LIN;10
INC X-1.50;11
Dwell0;12
endw;13
P10 = M150;14
I123=-3.00;15
I126=0;16
I7213=0;17
I7212=1;18
Dwell0;19
M80 = M90 / (1365.33 * 2);20
HOME1;21
Dwell0;22
P10 = M150;23
M80 = M80 - (M90 / (1365.33 * 2));24
close;25
;C:\hsd6GT.V3\profile\NCPmacCode\HSD6_2post.Plc
;C:\hsd6GT.V3\profile\NCPmacCode\HomeAll.txt
open prog 201 clear;1
M110 = M110 & (M110 ^  1024)  ;3
M111 = M111 & (M111 ^  1024);4
M112 = M112 & (M112 ^  1024);5
M113 = M113 & (M113 ^  1024);6
M114 = M114 & (M114 ^  1024);7
M115 = M115 & (M115 ^  1024);8
M116 = M116 & (M116 ^  1024);9
  dwell 1000;10
  call 103;11
  dwell 1000;12
  call 102;13
  dwell 1000;14
  call 101;15
  dwell 1000;16
  call 105;17
  dwell 1000;18
  call 104;19
  dwell 1000;20
  call 106;21
  dwell 1000;22
  call 107;23
  dwell 2000;24
  return;25
close;26
;C:\hsd6GT.V3\profile\NCPmacCode\HSD6_2post.Plc
;C:\hsd6GT.V3\profile\NCPmacCode\electrode.txt
M402 =0;5
M423 =0;6
M650->X:$2100,24,s;10
open plcc 11 clear;13
while(1<2);15
  M438 = M487;17
  P173 = M402;19
  ;21
  ;22
  if(P173 &  1 =  1 AND P172 &  1 !=  1);23
    P171 = (M481 * 2.44140625) / 10000;24
  endif;25
  ;27
  if(P173 &  1 !=  1 AND P172 &  1 =  1);28
    M139 = M139 + P171 - ((M481 * 2.44140625) / 10000);29
  endif;30
  if(P173 &  2 =  2);32
    P171 = (M481 * 2.44140625) / 10000;33
    M139 = 0;34
    M424 = M424 |  2;35
  else;36
    M424 = M424 & (M424 ^  2);37
  endif;38
  if(P173 &  1 =  1);40
    M424 = M424 |  1;41
  else;42
    M424 = M424 & (M424 ^  1);43
  endif;44
  P172 = P173;47
  M31=M27*I10/10000;49
  M650=M27*I10/10000;50
endwhile;52
close;54
;C:\hsd6GT.V3\profile\NCPmacCode\HSD6_2post.Plc
;C:\hsd6GT.V3\profile\NCPmacCode\probe.txt
open plcc 2;1
  WHILE (1<2);3
    IF(M100 &  524288 !=  524288);4
      M424 = M424 |  4;5
      M424 = M424 |  8;6
    else;7
      M424 = M424 & (M424 ^  4);8
      if(M402 &  4 =  4);9
        M424 = M424 & (M424 ^  8);10
      endif;11
    endif;12
  endwhile;13
close;14
;C:\hsd6GT.V3\profile\NCPmacCode\HSD6_2post.Plc
;C:\hsd6GT.V3\profile\NCPmacCode\ToolChanger.txt
&2;5
#8->8738.1333333333333C;9
I800=1;11
I808=96;12
I809=96;13
I811=1*16*8738.1333333333333;15
I812=0;16
I815=0.3;17
I816=220.00;18
I817=0.7;19
I819=0.7;20
I821=2;21
I822=20;22
I827=8738.1333333333333 * 360;23
I828=160;24
I830=20000;25
I831=0.00;26
I833=1280.00;27
M620->X:$430,0,24;61
M629->Y:$440,0,24;62
M622->X:$2140,0,24;64
M631->X:$07831A,0,24,s ;66
M623->D:$0040B ;67
M625->D:$44C;69
M627->X:$78318,0,24;71
P200 = 0.4;73
P212 = 0;75
P213 = 0;76
open plcc 6;78
  while(1 = 1);80
    P211 = M400;82
    if(P211 &  1024 !=  1024);84
      if(P214 &  1024 =  1024);85
        COMMAND "&2A";86
      endif;87
    else;88
      if(P214 &  1024 !=  1024);89
        COMMAND "#8K";90
      endif;91
    endif;92
    ;94
    if(P211 &  2048 !=  2048);95
      P212 = P212 & (P212 ^  128);97
      ;99
      if(M620 &  262144 =  262144);100
        P212 = P212 |  4096;101
        P212 = P212 |  128;102
                               ;103
      else;104
        P212 = P212 & (P212 ^  4096);105
      endif;106
    ;107
      if(M620 &  2097152 =  2097152);108
        P212 = P212 |  1024;109
        P212 = P212 |  128;110
      else;111
        P212 = P212 & (P212 ^  1024);112
      endif;113
      if(M620 &  4194304 =  4194304);115
        P212 = P212 |  2048;116
        P212 = P212 |  128;117
      else;118
        P212 = P212 & (P212 ^  2048);119
      endif;120
      if(M629 &  1024 =  1024);122
        P212 = P212 |  256;123
      else;124
        P212 = P212 & (P212 ^  256);125
      endif;126
      if(M622 &  1 =  1);128
        P212 = P212 |  512;129
      else;130
        P212 = P212 & (P212 ^  512);131
      endif;132
      if(P212 &  128 =  128);135
        ;136
        P213 = P213 & $FF70;137
      endif;138
      P205 = M623 / (96 * 32 * 8738.1333333333333);140
      P205 = P205 - P200;141
      P205 = P205 % 360.0;142
      if(ABS(P205) < 0.2);143
        P209 = 1;144
      else;145
        if(ABS(P205 - 45) < 0.2);146
          P209 = 2;147
        else;148
          if(ABS(P205 - 90) < 0.2);149
            P209 = 3;150
          else;151
            if(ABS(P205 - 135) < 0.2);152
              P209 = 4;153
            else;154
              if(ABS(P205 - 180) < 0.2);155
                P209 = 5;156
              else;157
                if(ABS(P205 - 225) < 0.2);158
                  P209 = 6;159
                else;160
                  if(ABS(P205 - 270) < 0.2);161
                    P209 = 7;162
                  else;163
                    if(ABS(P205 - 315) < 0.2);164
                      P209 = 8;165
                    else;166
                      if(ABS(P205 - 360) < 0.2);167
                        P209 = 1;168
                      else;169
                        P209 = 0;170
                      endif;171
                    endif;172
                  endif;173
                endif;174
              endif;175
            endif;176
          endif;177
        endif;178
      endif;179
    endif ;180
    ;182
    ;183
    ;184
    P203 = M623 / (96 * 32 * 8738.1333333333333);185
    if(P203 < 0);186
      P203 = P203 * -1;187
      P213 = P213 |  32;188
    else;189
      P213 = P213 & (P213 ^  32);190
    endif;191
    M434 = P203 - 0.5;193
    M435 = (P203 * 1000) % 1000;194
    if(P211 &  128 =  128);197
      if(P214 &  128 !=  128);198
        M440= M440 + 1;199
        COMMAND "&2A";200
      endif;201
    endif;202
    ;204
    ;205
    ;206
    ;207
    ;208
    ;209
    ;210
    ;211
    if(P212 &  128 !=  128);212
      if(P212 &  512 !=  512);213
        if(P211 & 512 = 512);214
  if(P214 &  512 !=  512);215
            if(P211 &  256 =  256);216
              COMMAND "&2B1500R";217
            endif;218
            P204 = P211 & $1f;219
            if(P204 > 0);220
              P213 = P213 & $FF70;221
              P213 = P213 | P204;222
              P206 = ((P204 - 1) * 45) + P200;223
              ;226
              ;227
              ;228
              ;229
              ;230
              ;231
              ;232
              COMMAND "&2B1501R";235
            endif;236
          endif;237
        endif;238
      endif;239
    endif;240
    P212 = P212 & $FF70;242
    P212 = P212 | P209;243
    M422 = P212;245
    M423 = P213;246
    P214 = P211;247
  endw;248
close;250
open prog 1500 clear;253
  I813=0;254
  I814=0;255
  M620 = M620 & (M620 ^  1024);257
  while(M627 &  65536 !=  65536);259
    F600 LIN;260
    INC C-1.0;261
  endw;262
  while(M627 &  65536 =  65536);263
    F300 LIN;264
    INC C0.05;265
    Dwell0;266
  endw;267
  I823=-1.0;268
  I826=0;269
  I897=1;270
  Dwell0;271
  P215 = M631 / (8738.1333333333333 * 2);272
  HOME8;273
  Dwell0;274
  P215 = P215 - (M631 / (8738.1333333333333 * 2));275
  ;277
  F300 LIN;278
  ABS C(P200);279
  WHILE (M629 &  1 !=  1);280
    ;281
  ENDWHILE;282
Dwell0;284
close;286
open prog 1501 clear;290
  ;291
  ABS C(P206)F6000;292
  DWELL(10);293
  WHILE (M620 &  8192 !=  8192);294
    ;295
  ENDWHILE;296
  DWELL(0);297
close;298
;C:\hsd6GT.V3\profile\NCPmacCode\HSD6_2post.Plc
;C:\hsd6GT.V3\profile\NCPmacCode\MPG.txt
I105 = I1004;15
I205 = I1004;16
I305 = I1004;17
I405 = I1004;18
I505 = I1004;19
I605 = I1004;20
I705 = I1004;21
I805 = I1004;22
open plcc 4;24
  ;25
  if(M402 &  8 =  8);26
    P167 = 1;27
  else;28
    P167 = 0;29
  endif;30
  if (P160 != M24 or P161 != M23 or P163 != M22 or P164 != M28 or P167 != P166);33
    P161 = M23;34
    P160 = M24;35
    P163 = M22;36
    P164 =M28;37
    P166 = P167;38
    I106 = 0;40
    I206 = 0;41
    I306 = 0;42
    I406 = 0;43
    I506 = 0;44
    I606 = 0;45
    I706 = 0;46
    I806 = 0;47
 ;48
    I140 = 0;49
    I240 = 0;50
    I340 = 0;51
    I440 = 0;52
    I540 = 0;53
    I640 = 0;54
    I740 = 0;55
    I840 = 0;56
    I132 = FEED_FORWARD_X;58
    I232 = FEED_FORWARD_Y;59
    I332 = FEED_FORWARD_Z;60
    I432 = FEED_FORWARD_A;61
    I532 = FEED_FORWARD_B;62
    I632 = FEED_FORWARD_C;63
    P165 = M28 * 0.0001 * (96 / 2);76
    if (1 < P165);77
      P165 = 1;78
    endif;79
    ;80
    if (M24 == 1 and M23 == 4 and P166 != 0);82
      if (M22 == 0);83
        I107 = 1365.33 * P165;84
        I106 = 1;85
        I140 = 0.99;86
        I132 = 0;87
      endif;88
      if (M22 == 1);89
        I207 = 1365.33 * P165;90
        I206 = 1;91
        I240 = 0.99;92
        I232 = 0;93
      endif;94
      if (M22 == 2);95
        I307 = 1365.33 * P165;96
        I306 = 1;97
        I340 = 0.99;98
        I332 = 0;99
      endif;100
      if (M22 == 3);101
        I407 = 1000.00 * P165;102
        I406 = 1;103
        I440 = 0.99;104
        I432 = 0;105
      endif;106
      if (M22 == 4);107
        I507 = 1000.00 * P165;108
        I506 = 1;109
        I540 = 0.99;110
        I532 = 0;111
      endif;112
      if (M22 == 5);113
        I607 = 1000.00 * P165;114
        I606 = 1;115
        I640 = 0.99;116
        I632 = 0;117
      endif;118
      if (M22 == 6);119
        I707 = 312.50 * P165;120
        I706 = 0;121
        I740 = 0.99;122
        I732 = 0;123
      endif;124
    endif;125
  endif;126
close;127
i5=3;129
i8=1;130
;C:\hsd6GT.V3\profile\NCPmacCode\HSD6_2post.Plc
I124=$a08001 ;22
I224=$a08001 ;23
I324=$a08001 ;24
I424=$a08001 ;25
I524=$a08001 ;26
I624=$a08001 ;27
I724=$a08001 ;28
I824=$a08001 ;29
I924=$a08001 ;30
M110 = M110 & (M110 ^  1024);35
M111 = M111 & (M111 ^  1024);36
M112 = M112 & (M112 ^  1024);37
M114 = M114 & (M114 ^  1024);38
M115 = M115 & (M115 ^  1024);39
M113 = M113 & (M113 ^  1024);40
M116 = M116 & (M116 ^  1024);41
I190=1;46
I290=1;47
I390=1;48
I490=1;49
I590=1;50
I690=1;51
I790=1;52
I169=29490;61
I269=29490;62
I369=29490;63
I469=29490;64
I569=29490;65
I669=29490;66
I769=29490;67
I121=1;69
I221=1;70
I321=1;71
I421=1;72
I521=1;73
I621=1;74
I721=1;75
I169 = 32767;77
I269 = 32767;78
I369 = 32767;79
I469 = 32767;80
I569 = 32767;81
I669 = 32767;82
I769 = 32767;83
I869 = 32767;84
I464 = -8;87
I465 = 32;88
I564 = -8;89
I565 = 32;90
I664 = -8;91
I665 = 32;92
I132 = 10000;102
I232 = 10000;103
I332 = 10000;104
I432 = 18400;105
I532 = 18400;106
I632 = 30000;107
I232 = 10000;110
I332 = 10000;111
I432 = 18400;112
I532 = 18400;113
I632 = 30000;114
open prog 999 clear;117
  homez 1..7;118
close;119
;C:\hsd6GT.V3\profile\NCPmacCode\NC.Txt
CLOSE
