feature,status,rework,X,Y,Z,I,J,K,Solution,AlignVector,AlignC,Xoff,Yoff,Zoff,Probe
R1_TR1,0,,-312.05047,0,254.76612,-323.59367,0,257.43107,1,180,,,,,
R1_TR2,0,,-312.0293467,-3.630790162,254.76612,-323.5717653,-3.765098362,257.43107,1,180,,,,,
R1_TR3,2,,-311.9659796,-7.261088773,254.76612,-323.5060542,-7.52968699,257.43107,1,180,,,,,
R1_TR4,0,,-311.8603773,-10.89040435,254.76612,-323.3965455,-11.29325622,257.43107,1,180,,,,,
R1_TR5,2,,-311.7125541,-14.51824554,254.76612,-323.2432541,-15.05529652,257.43107,1,180,,,,,
R1_TR6,0,,-311.52253,-18.14412119,254.76612,-323.0462007,-18.81529858,257.43107,1,180,,,,,
R1_TR7,2,,-311.2903307,-21.76754042,254.76612,-322.8054121,-22.57275335,257.43107,1,180,,,,,
R1_TR8,0,,-311.0159878,-25.38801267,254.76612,-322.5209208,-26.32715212,257.43107,1,180,,,,,
R1_TR9,2,,-310.6995382,-29.00504779,254.76612,-322.1927653,-30.07798662,257.43107,1,180,,,,,
R1_TR10,0,,-310.3410249,-32.61815609,254.76612,-321.82099,-33.82474905,257.43107,1,180,,,,,
R1_TR11,2,,-309.9404964,-36.22684842,254.76612,-321.4056454,-37.56693214,257.43107,1,180,,,,,
R1_TR12,0,,-309.4980069,-39.83063621,254.76612,-320.9467875,-41.30402928,257.43107,1,180,,,,,
R1_TR13,2,,-309.0136163,-43.42903157,254.76612,-320.4444786,-45.0355345,257.43107,1,180,,,,,
R1_TR14,0,,-308.4873902,-47.02154733,254.76612,-319.8987867,-48.76094264,257.43107,1,180,,,,,
R1_TR15,2,,-307.9193999,-50.60769713,254.76612,-319.3097856,-52.47974933,257.43107,1,180,,,,,
R1_TR16,0,,-307.3097222,-54.18699546,254.76612,-318.677555,-56.1914511,257.43107,1,180,,,0,,
R1_TR17,2,,-306.6584397,-57.75895773,254.76612,-318.0021807,-59.89554545,257.43107,1,180,,,,,
R1_TR18,0,,-305.9656405,-61.32310037,254.76612,-317.2837539,-63.59153089,257.43107,1,180,,,,,
R1_TR19,2,,-305.2314185,-64.87894084,254.76612,-316.5223719,-67.27890707,257.43107,1,180,,,,,
R1_TR20,0,,-304.4558731,-68.42599774,254.76612,-315.7181379,-70.95717475,257.43107,1,180,,,,,
R1_TR21,2,,-303.6391092,-71.96379085,254.76612,-314.8711607,-74.62583597,257.43107,1,180,,,,,
R1_TR22,0,,-302.7812374,-75.49184123,254.76612,-313.9815551,-78.28439405,257.43107,1,180,,,,,
R1_TR23,2,,-301.8823739,-79.00967121,254.76612,-313.0494413,-81.93235367,257.43107,1,180,,,,,
R1_TR24,0,,-300.9426404,-82.51680455,254.76612,-312.0749456,-85.56922097,257.43107,1,180,,,,,
R1_TR25,2,,-299.962164,-86.01276643,254.76612,-311.0582,-89.19450356,257.43107,1,180,,,,,
R1_TR26,0,,-298.9410776,-89.49708357,254.76612,-309.9993421,-92.80771064,257.43107,1,180,,,,,
R1_TR27,2,,-297.8795193,-92.96928423,254.76612,-308.8985153,-96.40835305,257.43107,1,180,,,,,
R1_TR28,0,,-296.7776329,-96.42889833,254.76612,-307.7558685,-99.9959433,257.43107,1,180,,,,,
R1_TR29,2,,-295.6355676,-99.87545751,254.76612,-306.5715565,-103.5699957,257.43107,1,180,,,,,
R1_TR30,0,,-294.4534779,-103.3084952,254.76612,-305.3457396,-107.1300264,257.43107,1,180,,,,,
R1_TR31,2,,-293.231524,-106.7275465,254.76612,-304.0785838,-110.6755534,257.43107,1,180,,,,,
R1_TR32,0,,-291.9698712,-110.1321486,254.76612,-302.7702607,-114.2060967,257.43107,1,180,,,,,
R1_TR33,2,,-290.6686903,-113.5218406,254.76612,-301.4209472,-117.7211783,257.43107,1,180,,,,,
R1_TR34,0,,-289.3281576,-116.8961635,254.76612,-300.0308263,-121.2203224,257.43107,1,180,,,,,
R1_TR35,2,,-287.9484545,-120.2546606,254.76612,-298.6000859,-124.7030551,257.43107,1,180,,,,,
R1_TR36,0,,-286.5297677,-123.5968772,254.76612,-297.1289199,-128.1689051,257.43107,1,180,,,,,
R1_TR37,2,,-285.0722894,-126.9223606,254.76612,-295.6175274,-131.6174031,257.43107,1,180,,,,,
R1_TR38,0,,-283.5762169,-130.2306609,254.76612,-294.0661129,-135.0480821,257.43107,1,180,,,,,
R1_TR39,2,,-282.0417527,-133.52133,254.76612,-292.4748867,-138.4604778,257.43107,1,180,,,,,
R1_TR40,0,,-280.4691046,-136.7939224,254.76612,-290.844064,-141.8541282,257.43107,1,180,,,,,
R1_TR41,2,,-278.8584854,-140.0479951,254.76612,-289.1738657,-145.2285738,257.43107,1,180,,,,,
R1_TR42,0,,-277.2101133,-143.2831076,254.76612,-287.4645179,-148.5833578,257.43107,1,180,,,,,
R1_TR43,2,,-275.5242113,-146.4988218,254.76612,-285.716252,-151.918026,257.43107,1,180,,,,,
R1_TR44,0,,-273.8010078,-149.6947025,254.76612,-283.9293047,-155.2321269,257.43107,1,180,,,,,
R1_TR45,2,,-272.040736,-152.8703168,254.76612,-282.1039179,-158.5252118,257.43107,1,180,,,,,
R1_TR46,0,,-270.2436343,-156.025235,254.76612,-280.2403387,-161.796835,257.43107,1,180,,,,,
R1_TR47,2,,-268.4099459,-159.1590299,254.76612,-278.3388195,-165.0465535,257.43107,1,180,,,,,
R1_TR48,0,,-266.539919,-162.2712771,254.76612,-276.3996177,-168.2739273,257.43107,1,180,,,,,
R1_TR49,2,,-264.633807,-165.3615555,254.76612,-274.4229958,-171.4785195,257.43107,1,180,,,,,
R1_TR50,0,,-262.6918677,-168.4294465,254.76612,-272.4092214,-174.6598963,257.43107,1,180,,,,,
R1_TR51,2,,-260.7143642,-171.4745349,254.76612,-270.3585671,-177.8176269,257.43107,1,180,,,,,
R1_TR52,0,,-258.7015642,-174.4964083,254.76612,-268.2713107,-180.9512839,257.43107,1,180,,,,,
R1_TR53,2,,-256.65374,-177.4946578,254.76612,-266.1477346,-184.0604429,257.43107,1,180,,,,,
R1_TR54,0,,-254.5711691,-180.4688773,254.76612,-263.9881263,-187.1446831,257.43107,1,180,,,,,
R1_TR55,2,,-252.4541333,-183.4186642,254.76612,-261.7927783,-190.203587,257.43107,1,180,,,,,
R1_TR56,0,,-250.3029193,-186.3436192,254.76612,-259.5619877,-193.2367403,257.43107,1,180,,,,,
R1_TR57,2,,-248.1178183,-189.2433462,254.76612,-257.2960566,-196.2437324,257.43107,1,180,,,,,
R1_TR58,0,,-245.899126,-192.1174527,254.76612,-254.9952918,-199.2241563,257.43107,1,180,,,,,
R1_TR59,2,,-243.647143,-194.9655496,254.76612,-252.6600046,-202.1776084,257.43107,1,180,,,,,
R1_TR60,0,,-241.362174,-197.7872513,254.76612,-250.2905113,-205.1036889,257.43107,1,180,,,,,
R1_TR61,2,,-239.0445285,-200.5821757,254.76612,-247.8871327,-208.0020016,257.43107,1,180,,,0,,
R1_TR62,0,,-236.6945202,-203.3499445,254.76612,-245.4501942,-210.8721543,257.43107,1,180,,,,,
R1_TR63,2,,-234.3124672,-206.090183,254.76612,-242.9800256,-213.7137581,257.43107,1,180,,,,,
R1_TR64,0,,-231.8986921,-208.8025202,254.76612,-240.4769614,-216.5264286,257.43107,1,180,,,,,
R1_TR65,2,,-229.4535216,-211.4865889,254.76612,-237.9413405,-219.3097849,257.43107,1,180,,,,,
R1_TR66,0,,-226.9772867,-214.1420256,254.76612,-235.3735061,-222.0634501,257.43107,1,180,,,,,
R1_TR67,2,,-224.4703228,-216.768471,254.76612,-232.773806,-224.7870515,257.43107,1,180,,,,,
R1_TR68,0,,-221.9329692,-219.3655694,254.76612,-230.142592,-227.4802203,257.43107,1,180,,,,,
R1_TR69,2,,-219.3655694,-221.9329692,254.76612,-227.4802203,-230.142592,257.43107,1,180,,,,,
R1_TR70,0,,-216.768471,-224.4703228,254.76612,-224.7870515,-232.773806,257.43107,1,180,,,,,
R1_TR71,2,,-214.1420256,-226.9772867,254.76612,-222.0634501,-235.3735061,257.43107,1,180,,,,,
R1_TR72,0,,-211.4865889,-229.4535216,254.76612,-219.3097849,-237.9413405,257.43107,1,180,,,,,
R1_TR73,2,,-208.8025202,-231.8986921,254.76612,-216.5264286,-240.4769614,257.43107,1,180,,,,,
R1_TR74,0,,-206.090183,-234.3124672,254.76612,-213.7137581,-242.9800256,257.43107,1,180,,,,,
R1_TR75,2,,-203.3499445,-236.6945202,254.76612,-210.8721543,-245.4501942,257.43107,1,180,,,,,
R1_TR76,0,,-200.5821757,-239.0445285,254.76612,-208.0020016,-247.8871327,257.43107,1,180,,,,,
R1_TR77,2,,-197.7872513,-241.362174,254.76612,-205.1036889,-250.2905113,257.43107,1,180,,,,,
R1_TR78,0,,-194.9655496,-243.647143,254.76612,-202.1776084,-252.6600046,257.43107,1,180,,,,,
R1_TR79,2,,-192.1174527,-245.899126,254.76612,-199.2241563,-254.9952918,257.43107,1,180,,,,,
R1_TR80,0,,-189.2433462,-248.1178183,254.76612,-196.2437324,-257.2960566,257.43107,1,180,,,,,
R1_TR81,2,,-186.3436192,-250.3029193,254.76612,-193.2367403,-259.5619877,257.43107,1,180,,,,,
R1_TR82,0,,-183.4186642,-252.4541333,254.76612,-190.203587,-261.7927783,257.43107,1,180,,,,,
R1_TR83,2,,-180.4688773,-254.5711691,254.76612,-187.1446831,-263.9881263,257.43107,1,180,,,,,
R1_TR84,0,,-177.4946578,-256.65374,254.76612,-184.0604429,-266.1477346,257.43107,1,180,,,,,
R1_TR85,2,,-174.4964083,-258.7015642,254.76612,-180.9512839,-268.2713107,257.43107,1,180,,,,,
R1_TR86,0,,-171.4745349,-260.7143642,254.76612,-177.8176269,-270.3585671,257.43107,1,180,,,,,
R1_TR87,2,,-168.4294465,-262.6918677,254.76612,-174.6598963,-272.4092214,257.43107,1,180,,,,,
R1_TR88,0,,-165.3615555,-264.633807,254.76612,-171.4785195,-274.4229958,257.43107,1,180,,,,,
R1_TR89,2,,-162.2712771,-266.539919,254.76612,-168.2739273,-276.3996177,257.43107,1,180,,,,,
R1_TR90,0,,-159.1590299,-268.4099459,254.76612,-165.0465535,-278.3388195,257.43107,1,180,,,,,
R1_TR91,2,,-156.025235,-270.2436343,254.76612,-161.796835,-280.2403387,257.43107,1,180,,,,,
R1_TR92,0,,-152.8703168,-272.040736,254.76612,-158.5252118,-282.1039179,257.43107,1,180,,,,,
R1_TR93,2,,-149.6947025,-273.8010078,254.76612,-155.2321269,-283.9293047,257.43107,1,180,,,,,
R1_TR94,0,,-146.4988218,-275.5242113,254.76612,-151.918026,-285.716252,257.43107,1,180,,,,,
R1_TR95,2,,-143.2831076,-277.2101133,254.76612,-148.5833578,-287.4645179,257.43107,1,180,,,,,
R1_TR96,0,,-140.0479951,-278.8584854,254.76612,-145.2285738,-289.1738657,257.43107,1,180,,,,,
R1_TR97,2,,-136.7939224,-280.4691046,254.76612,-141.8541282,-290.844064,257.43107,1,180,,,,,
R1_TR98,0,,-133.52133,-282.0417527,254.76612,-138.4604778,-292.4748867,257.43107,1,180,,,,,
R1_TR99,2,,-130.2306609,-283.5762169,254.76612,-135.0480821,-294.0661129,257.43107,1,180,,,,,
R1_TR100,0,,-126.9223606,-285.0722894,254.76612,-131.6174031,-295.6175274,257.43107,1,180,,,,,
R1_TR101,2,,-123.5968772,-286.5297677,254.76612,-128.1689051,-297.1289199,257.43107,1,180,,,,,
R1_TR102,0,,-120.2546606,-287.9484545,254.76612,-124.7030551,-298.6000859,257.43107,1,180,,,,,
R1_TR103,2,,-116.8961635,-289.3281576,254.76612,-121.2203224,-300.0308263,257.43107,1,180,,,,,
R1_TR104,0,,-113.5218406,-290.6686903,254.76612,-117.7211783,-301.4209472,257.43107,1,180,,,,,
R1_TR105,2,,-110.1321486,-291.9698712,254.76612,-114.2060967,-302.7702607,257.43107,1,180,,,,,
R1_TR106,0,,-106.7275465,-293.231524,254.76612,-110.6755534,-304.0785838,257.43107,1,180,,,0,,
R1_TR107,2,,-103.3084952,-294.4534779,254.76612,-107.1300264,-305.3457396,257.43107,1,180,,,,,
R1_TR108,0,,-99.87545751,-295.6355676,254.76612,-103.5699957,-306.5715565,257.43107,1,180,,,,,
R1_TR109,2,,-96.42889833,-296.7776329,254.76612,-99.9959433,-307.7558685,257.43107,1,180,,,,,
R1_TR110,0,,-92.96928423,-297.8795193,254.76612,-96.40835305,-308.8985153,257.43107,1,180,,,,,
R1_TR111,2,,-89.49708357,-298.9410776,254.76612,-92.80771064,-309.9993421,257.43107,1,180,,,,,
R1_TR112,0,,-86.01276643,-299.962164,254.76612,-89.19450356,-311.0582,257.43107,1,180,,,,,
R1_TR113,2,,-82.51680455,-300.9426404,254.76612,-85.56922097,-312.0749456,257.43107,1,180,,,,,
R1_TR114,0,,-79.00967121,-301.8823739,254.76612,-81.93235367,-313.0494413,257.43107,1,180,,,,,
R1_TR115,2,,-75.49184123,-302.7812374,254.76612,-78.28439405,-313.9815551,257.43107,1,180,,,,,
R1_TR116,0,,-71.96379085,-303.6391092,254.76612,-74.62583597,-314.8711607,257.43107,1,180,,,,,
R1_TR117,2,,-68.42599774,-304.4558731,254.76612,-70.95717475,-315.7181379,257.43107,1,180,,,,,
R1_TR118,0,,-64.87894084,-305.2314185,254.76612,-67.27890707,-316.5223719,257.43107,1,180,,,,,
R1_TR119,2,,-61.32310037,-305.9656405,254.76612,-63.59153089,-317.2837539,257.43107,1,180,,,,,
R1_TR120,0,,-57.75895773,-306.6584397,254.76612,-59.89554545,-318.0021807,257.43107,1,180,,,,,
R1_TR121,2,,-54.18699546,-307.3097222,254.76612,-56.1914511,-318.677555,257.43107,1,180,,,,,
R1_TR122,0,,-50.60769713,-307.9193999,254.76612,-52.47974933,-319.3097856,257.43107,1,180,,,,,
R1_TR123,2,,-47.02154733,-308.4873902,254.76612,-48.76094264,-319.8987867,257.43107,1,180,,,,,
R1_TR124,0,,-43.42903157,-309.0136163,254.76612,-45.0355345,-320.4444786,257.43107,1,180,,,,,
R1_TR125,2,,-39.83063621,-309.4980069,254.76612,-41.30402928,-320.9467875,257.43107,1,180,,,,,
R1_TR126,0,,-36.22684842,-309.9404964,254.76612,-37.56693214,-321.4056454,257.43107,1,180,,,,,
R1_TR127,2,,-32.61815609,-310.3410249,254.76612,-33.82474905,-321.82099,257.43107,1,180,,,,,
R1_TR128,0,,-29.00504779,-310.6995382,254.76612,-30.07798662,-322.1927653,257.43107,1,180,,,,,
R1_TR129,2,,-25.38801267,-311.0159878,254.76612,-26.32715212,-322.5209208,257.43107,1,180,,,,,
R1_TR130,0,,-21.76754042,-311.2903307,254.76612,-22.57275335,-322.8054121,257.43107,1,180,,,,,
R1_TR131,2,,-18.14412119,-311.52253,254.76612,-18.81529858,-323.0462007,257.43107,1,180,,,,,
R1_TR132,0,,-14.51824554,-311.7125541,254.76612,-15.05529652,-323.2432541,257.43107,1,180,,,,,
R1_TR133,2,,-10.89040435,-311.8603773,254.76612,-11.29325622,-323.3965455,257.43107,1,180,,,,,
R1_TR134,0,,-7.261088773,-311.9659796,254.76612,-7.52968699,-323.5060542,257.43107,1,180,,,,,
R1_TR135,2,,-3.630790162,-312.0293467,254.76612,-3.765098362,-323.5717653,257.43107,1,180,,,,,
R1_TR136,0,,4.66E-13,-312.05047,254.76612,4.83E-13,-323.59367,257.43107,1,180,,,,,
R1_TR137,2,,3.630790162,-312.0293467,254.76612,3.765098362,-323.5717653,257.43107,1,180,,,,,
R1_TR138,0,,7.261088773,-311.9659796,254.76612,7.52968699,-323.5060542,257.43107,1,180,,,,,
R1_TR139,2,,10.89040435,-311.8603773,254.76612,11.29325622,-323.3965455,257.43107,1,180,,,,,
R1_TR140,0,,14.51824554,-311.7125541,254.76612,15.05529652,-323.2432541,257.43107,1,180,,,,,
R1_TR141,2,,18.14412119,-311.52253,254.76612,18.81529858,-323.0462007,257.43107,1,180,,,,,
R1_TR142,0,,21.76754042,-311.2903307,254.76612,22.57275335,-322.8054121,257.43107,1,180,,,,,
R1_TR143,2,,25.38801267,-311.0159878,254.76612,26.32715212,-322.5209208,257.43107,1,180,,,,,
R1_TR144,0,,29.00504779,-310.6995382,254.76612,30.07798662,-322.1927653,257.43107,1,180,,,,,
R1_TR145,2,,32.61815609,-310.3410249,254.76612,33.82474905,-321.82099,257.43107,1,180,,,,,
R1_TR146,0,,36.22684842,-309.9404964,254.76612,37.56693214,-321.4056454,257.43107,1,180,,,,,
R1_TR147,2,,39.83063621,-309.4980069,254.76612,41.30402928,-320.9467875,257.43107,1,180,,,,,
R1_TR148,0,,43.42903157,-309.0136163,254.76612,45.0355345,-320.4444786,257.43107,1,180,,,,,
R1_TR149,2,,47.02154733,-308.4873902,254.76612,48.76094264,-319.8987867,257.43107,1,180,,,,,
R1_TR150,0,,50.60769713,-307.9193999,254.76612,52.47974933,-319.3097856,257.43107,1,180,,,,,
R1_TR151,2,,54.18699546,-307.3097222,254.76612,56.1914511,-318.677555,257.43107,1,180,,,0,,
R1_TR152,0,,57.75895773,-306.6584397,254.76612,59.89554545,-318.0021807,257.43107,1,180,,,,,
R1_TR153,2,,61.32310037,-305.9656405,254.76612,63.59153089,-317.2837539,257.43107,1,180,,,,,
R1_TR154,0,,64.87894084,-305.2314185,254.76612,67.27890707,-316.5223719,257.43107,1,180,,,,,
R1_TR155,2,,68.42599774,-304.4558731,254.76612,70.95717475,-315.7181379,257.43107,1,180,,,,,
R1_TR156,0,,71.96379085,-303.6391092,254.76612,74.62583597,-314.8711607,257.43107,1,180,,,,,
R1_TR157,2,,75.49184123,-302.7812374,254.76612,78.28439405,-313.9815551,257.43107,1,180,,,,,
R1_TR158,0,,79.00967121,-301.8823739,254.76612,81.93235367,-313.0494413,257.43107,1,180,,,,,
R1_TR159,2,,82.51680455,-300.9426404,254.76612,85.56922097,-312.0749456,257.43107,1,180,,,,,
R1_TR160,0,,86.01276643,-299.962164,254.76612,89.19450356,-311.0582,257.43107,1,180,,,,,
R1_TR161,2,,89.49708357,-298.9410776,254.76612,92.80771064,-309.9993421,257.43107,1,180,,,,,
R1_TR162,0,,92.96928423,-297.8795193,254.76612,96.40835305,-308.8985153,257.43107,1,180,,,,,
R1_TR163,2,,96.42889833,-296.7776329,254.76612,99.9959433,-307.7558685,257.43107,1,180,,,,,
R1_TR164,0,,99.87545751,-295.6355676,254.76612,103.5699957,-306.5715565,257.43107,1,180,,,,,
R1_TR165,2,,103.3084952,-294.4534779,254.76612,107.1300264,-305.3457396,257.43107,1,180,,,,,
R1_TR166,0,,106.7275465,-293.231524,254.76612,110.6755534,-304.0785838,257.43107,1,180,,,,,
R1_TR167,2,,110.1321486,-291.9698712,254.76612,114.2060967,-302.7702607,257.43107,1,180,,,,,
R1_TR168,0,,113.5218406,-290.6686903,254.76612,117.7211783,-301.4209472,257.43107,1,180,,,,,
R1_TR169,2,,116.8961635,-289.3281576,254.76612,121.2203224,-300.0308263,257.43107,1,180,,,,,
R1_TR170,0,,120.2546606,-287.9484545,254.76612,124.7030551,-298.6000859,257.43107,1,180,,,,,
R1_TR171,2,,123.5968772,-286.5297677,254.76612,128.1689051,-297.1289199,257.43107,1,180,,,,,
R1_TR172,0,,126.9223606,-285.0722894,254.76612,131.6174031,-295.6175274,257.43107,1,180,,,,,
R1_TR173,2,,130.2306609,-283.5762169,254.76612,135.0480821,-294.0661129,257.43107,1,180,,,,,
R1_TR174,0,,133.52133,-282.0417527,254.76612,138.4604778,-292.4748867,257.43107,1,180,,,,,
R1_TR175,2,,136.7939224,-280.4691046,254.76612,141.8541282,-290.844064,257.43107,1,180,,,,,
R1_TR176,0,,140.0479951,-278.8584854,254.76612,145.2285738,-289.1738657,257.43107,1,180,,,,,
R1_TR177,2,,143.2831076,-277.2101133,254.76612,148.5833578,-287.4645179,257.43107,1,180,,,,,
R1_TR178,0,,146.4988218,-275.5242113,254.76612,151.918026,-285.716252,257.43107,1,180,,,,,
R1_TR179,2,,149.6947025,-273.8010078,254.76612,155.2321269,-283.9293047,257.43107,1,180,,,,,
R1_TR180,0,,152.8703168,-272.040736,254.76612,158.5252118,-282.1039179,257.43107,1,180,,,,,
R1_TR181,2,,156.025235,-270.2436343,254.76612,161.796835,-280.2403387,257.43107,1,180,,,,,
R1_TR182,0,,159.1590299,-268.4099459,254.76612,165.0465535,-278.3388195,257.43107,1,180,,,,,
R1_TR183,2,,162.2712771,-266.539919,254.76612,168.2739273,-276.3996177,257.43107,1,180,,,,,
R1_TR184,0,,165.3615555,-264.633807,254.76612,171.4785195,-274.4229958,257.43107,1,180,,,,,
R1_TR185,2,,168.4294465,-262.6918677,254.76612,174.6598963,-272.4092214,257.43107,1,180,,,,,
R1_TR186,0,,171.4745349,-260.7143642,254.76612,177.8176269,-270.3585671,257.43107,1,180,,,,,
R1_TR187,2,,174.4964083,-258.7015642,254.76612,180.9512839,-268.2713107,257.43107,1,180,,,,,
R1_TR188,0,,177.4946578,-256.65374,254.76612,184.0604429,-266.1477346,257.43107,1,180,,,,,
R1_TR189,2,,180.4688773,-254.5711691,254.76612,187.1446831,-263.9881263,257.43107,1,180,,,,,
R1_TR190,0,,183.4186642,-252.4541333,254.76612,190.203587,-261.7927783,257.43107,1,180,,,,,
R1_TR191,2,,186.3436192,-250.3029193,254.76612,193.2367403,-259.5619877,257.43107,1,180,,,,,
R1_TR192,0,,189.2433462,-248.1178183,254.76612,196.2437324,-257.2960566,257.43107,1,180,,,,,
R1_TR193,2,,192.1174527,-245.899126,254.76612,199.2241563,-254.9952918,257.43107,1,180,,,,,
R1_TR194,0,,194.9655496,-243.647143,254.76612,202.1776084,-252.6600046,257.43107,1,180,,,,,
R1_TR195,2,,197.7872513,-241.362174,254.76612,205.1036889,-250.2905113,257.43107,1,180,,,,,
R1_TR196,0,,200.5821757,-239.0445285,254.76612,208.0020016,-247.8871327,257.43107,1,180,,,0,,
R1_TR197,2,,203.3499445,-236.6945202,254.76612,210.8721543,-245.4501942,257.43107,1,180,,,,,
R1_TR198,0,,206.090183,-234.3124672,254.76612,213.7137581,-242.9800256,257.43107,1,180,,,,,
R1_TR199,2,,208.8025202,-231.8986921,254.76612,216.5264286,-240.4769614,257.43107,1,180,,,,,
R1_TR200,0,,211.4865889,-229.4535216,254.76612,219.3097849,-237.9413405,257.43107,1,180,,,,,
R1_TR201,2,,214.1420256,-226.9772867,254.76612,222.0634501,-235.3735061,257.43107,1,180,,,,,
R1_TR202,0,,216.768471,-224.4703228,254.76612,224.7870515,-232.773806,257.43107,1,180,,,,,
R1_TR203,2,,219.3655694,-221.9329692,254.76612,227.4802203,-230.142592,257.43107,1,180,,,,,
R1_TR204,0,,221.9329692,-219.3655694,254.76612,230.142592,-227.4802203,257.43107,1,180,,,,,
R1_TR205,2,,224.4703228,-216.768471,254.76612,232.773806,-224.7870515,257.43107,1,180,,,,,
R1_TR206,0,,226.9772867,-214.1420256,254.76612,235.3735061,-222.0634501,257.43107,1,180,,,,,
R1_TR207,2,,229.4535216,-211.4865889,254.76612,237.9413405,-219.3097849,257.43107,1,180,,,,,
R1_TR208,0,,231.8986921,-208.8025202,254.76612,240.4769614,-216.5264286,257.43107,1,180,,,,,
R1_TR209,2,,234.3124672,-206.090183,254.76612,242.9800256,-213.7137581,257.43107,1,180,,,,,
R1_TR210,0,,236.6945202,-203.3499445,254.76612,245.4501942,-210.8721543,257.43107,1,180,,,,,
R1_TR211,2,,239.0445285,-200.5821757,254.76612,247.8871327,-208.0020016,257.43107,1,180,,,,,
R1_TR212,0,,241.362174,-197.7872513,254.76612,250.2905113,-205.1036889,257.43107,1,180,,,,,
R1_TR213,2,,243.647143,-194.9655496,254.76612,252.6600046,-202.1776084,257.43107,1,180,,,,,
R1_TR214,0,,245.899126,-192.1174527,254.76612,254.9952918,-199.2241563,257.43107,1,180,,,,,
R1_TR215,2,,248.1178183,-189.2433462,254.76612,257.2960566,-196.2437324,257.43107,1,180,,,,,
R1_TR216,0,,250.3029193,-186.3436192,254.76612,259.5619877,-193.2367403,257.43107,1,180,,,,,
R1_TR217,2,,252.4541333,-183.4186642,254.76612,261.7927783,-190.203587,257.43107,1,180,,,,,
R1_TR218,0,,254.5711691,-180.4688773,254.76612,263.9881263,-187.1446831,257.43107,1,180,,,,,
R1_TR219,2,,256.65374,-177.4946578,254.76612,266.1477346,-184.0604429,257.43107,1,180,,,,,
R1_TR220,0,,258.7015642,-174.4964083,254.76612,268.2713107,-180.9512839,257.43107,1,180,,,,,
R1_TR221,2,,260.7143642,-171.4745349,254.76612,270.3585671,-177.8176269,257.43107,1,180,,,,,
R1_TR222,0,,262.6918677,-168.4294465,254.76612,272.4092214,-174.6598963,257.43107,1,180,,,,,
R1_TR223,2,,264.633807,-165.3615555,254.76612,274.4229958,-171.4785195,257.43107,1,180,,,,,
R1_TR224,0,,266.539919,-162.2712771,254.76612,276.3996177,-168.2739273,257.43107,1,180,,,,,
R1_TR225,2,,268.4099459,-159.1590299,254.76612,278.3388195,-165.0465535,257.43107,1,180,,,,,
R1_TR226,0,,270.2436343,-156.025235,254.76612,280.2403387,-161.796835,257.43107,1,180,,,,,
R1_TR227,2,,272.040736,-152.8703168,254.76612,282.1039179,-158.5252118,257.43107,1,180,,,,,
R1_TR228,0,,273.8010078,-149.6947025,254.76612,283.9293047,-155.2321269,257.43107,1,180,,,,,
R1_TR229,2,,275.5242113,-146.4988218,254.76612,285.716252,-151.918026,257.43107,1,180,,,,,
R1_TR230,0,,277.2101133,-143.2831076,254.76612,287.4645179,-148.5833578,257.43107,1,180,,,,,
R1_TR231,2,,278.8584854,-140.0479951,254.76612,289.1738657,-145.2285738,257.43107,1,180,,,,,
R1_TR232,0,,280.4691046,-136.7939224,254.76612,290.844064,-141.8541282,257.43107,1,180,,,,,
R1_TR233,2,,282.0417527,-133.52133,254.76612,292.4748867,-138.4604778,257.43107,1,180,,,,,
R1_TR234,0,,283.5762169,-130.2306609,254.76612,294.0661129,-135.0480821,257.43107,1,180,,,,,
R1_TR235,2,,285.0722894,-126.9223606,254.76612,295.6175274,-131.6174031,257.43107,1,180,,,,,
R1_TR236,0,,286.5297677,-123.5968772,254.76612,297.1289199,-128.1689051,257.43107,1,180,,,,,
R1_TR237,2,,287.9484545,-120.2546606,254.76612,298.6000859,-124.7030551,257.43107,1,180,,,,,
R1_TR238,0,,289.3281576,-116.8961635,254.76612,300.0308263,-121.2203224,257.43107,1,180,,,,,
R1_TR239,2,,290.6686903,-113.5218406,254.76612,301.4209472,-117.7211783,257.43107,1,180,,,,,
R1_TR240,0,,291.9698712,-110.1321486,254.76612,302.7702607,-114.2060967,257.43107,1,180,,,,,
R1_TR241,2,,293.231524,-106.7275465,254.76612,304.0785838,-110.6755534,257.43107,1,180,,,0,,
R1_TR242,0,,294.4534779,-103.3084952,254.76612,305.3457396,-107.1300264,257.43107,1,180,,,,,
R1_TR243,2,,295.6355676,-99.87545751,254.76612,306.5715565,-103.5699957,257.43107,1,180,,,,,
R1_TR244,0,,296.7776329,-96.42889833,254.76612,307.7558685,-99.9959433,257.43107,1,180,,,,,
R1_TR245,2,,297.8795193,-92.96928423,254.76612,308.8985153,-96.40835305,257.43107,1,180,,,,,
R1_TR246,0,,298.9410776,-89.49708357,254.76612,309.9993421,-92.80771064,257.43107,1,180,,,,,
R1_TR247,2,,299.962164,-86.01276643,254.76612,311.0582,-89.19450356,257.43107,1,180,,,,,
R1_TR248,0,,300.9426404,-82.51680455,254.76612,312.0749456,-85.56922097,257.43107,1,180,,,,,
R1_TR249,2,,301.8823739,-79.00967121,254.76612,313.0494413,-81.93235367,257.43107,1,180,,,,,
R1_TR250,0,,302.7812374,-75.49184123,254.76612,313.9815551,-78.28439405,257.43107,1,180,,,,,
R1_TR251,2,,303.6391092,-71.96379085,254.76612,314.8711607,-74.62583597,257.43107,1,180,,,,,
R1_TR252,0,,304.4558731,-68.42599774,254.76612,315.7181379,-70.95717475,257.43107,1,180,,,,,
R1_TR253,2,,305.2314185,-64.87894084,254.76612,316.5223719,-67.27890707,257.43107,1,180,,,,,
R1_TR254,0,,305.9656405,-61.32310037,254.76612,317.2837539,-63.59153089,257.43107,1,180,,,,,
R1_TR255,2,,306.6584397,-57.75895773,254.76612,318.0021807,-59.89554545,257.43107,1,180,,,,,
R1_TR256,0,,307.3097222,-54.18699546,254.76612,318.677555,-56.1914511,257.43107,1,180,,,,,
R1_TR257,2,,307.9193999,-50.60769713,254.76612,319.3097856,-52.47974933,257.43107,1,180,,,,,
R1_TR258,0,,308.4873902,-47.02154733,254.76612,319.8987867,-48.76094264,257.43107,1,180,,,,,
R1_TR259,2,,309.0136163,-43.42903157,254.76612,320.4444786,-45.0355345,257.43107,1,180,,,,,
R1_TR260,0,,309.4980069,-39.83063621,254.76612,320.9467875,-41.30402928,257.43107,1,180,,,,,
R1_TR261,2,,309.9404964,-36.22684842,254.76612,321.4056454,-37.56693214,257.43107,1,180,,,,,
R1_TR262,0,,310.3410249,-32.61815609,254.76612,321.82099,-33.82474905,257.43107,1,180,,,,,
R1_TR263,2,,310.6995382,-29.00504779,254.76612,322.1927653,-30.07798662,257.43107,1,180,,,,,
R1_TR264,0,,311.0159878,-25.38801267,254.76612,322.5209208,-26.32715212,257.43107,1,180,,,,,
R1_TR265,2,,311.2903307,-21.76754042,254.76612,322.8054121,-22.57275335,257.43107,1,180,,,,,
R1_TR266,0,,311.52253,-18.14412119,254.76612,323.0462007,-18.81529858,257.43107,1,180,,,,,
R1_TR267,2,,311.7125541,-14.51824554,254.76612,323.2432541,-15.05529652,257.43107,1,180,,,,,
R1_TR268,0,,311.8603773,-10.89040435,254.76612,323.3965455,-11.29325622,257.43107,1,180,,,,,
R1_TR269,2,,311.9659796,-7.261088773,254.76612,323.5060542,-7.52968699,257.43107,1,180,,,,,
R1_TR270,0,,312.0293467,-3.630790162,254.76612,323.5717653,-3.765098362,257.43107,1,180,,,,,
R1_TR271,2,,312.05047,-2.12E-12,254.76612,323.59367,-2.20E-12,257.43107,1,180,,,,,
R1_TR272,0,,312.0293467,3.630790162,254.76612,323.5717653,3.765098362,257.43107,1,180,,,,,
R1_TR273,2,,311.9659796,7.261088773,254.76612,323.5060542,7.52968699,257.43107,1,180,,,,,
R1_TR274,0,,311.8603773,10.89040435,254.76612,323.3965455,11.29325622,257.43107,1,180,,,,,
R1_TR275,2,,311.7125541,14.51824554,254.76612,323.2432541,15.05529652,257.43107,1,180,,,,,
R1_TR276,0,,311.52253,18.14412119,254.76612,323.0462007,18.81529858,257.43107,1,180,,,,,
R1_TR277,2,,311.2903307,21.76754042,254.76612,322.8054121,22.57275335,257.43107,1,180,,,,,
R1_TR278,0,,311.0159878,25.38801267,254.76612,322.5209208,26.32715212,257.43107,1,180,,,,,
R1_TR279,2,,310.6995382,29.00504779,254.76612,322.1927653,30.07798662,257.43107,1,180,,,,,
R1_TR280,0,,310.3410249,32.61815609,254.76612,321.82099,33.82474905,257.43107,1,180,,,,,
R1_TR281,2,,309.9404964,36.22684842,254.76612,321.4056454,37.56693214,257.43107,1,180,,,,,
R1_TR282,0,,309.4980069,39.83063621,254.76612,320.9467875,41.30402928,257.43107,1,180,,,,,
R1_TR283,2,,309.0136163,43.42903157,254.76612,320.4444786,45.0355345,257.43107,1,180,,,,,
R1_TR284,0,,308.4873902,47.02154733,254.76612,319.8987867,48.76094264,257.43107,1,180,,,,,
R1_TR285,2,,307.9193999,50.60769713,254.76612,319.3097856,52.47974933,257.43107,1,180,,,,,
R1_TR286,0,,307.3097222,54.18699546,254.76612,318.677555,56.1914511,257.43107,1,180,,,0,,
R1_TR287,2,,306.6584397,57.75895773,254.76612,318.0021807,59.89554545,257.43107,1,180,,,,,
R1_TR288,0,,305.9656405,61.32310037,254.76612,317.2837539,63.59153089,257.43107,1,180,,,,,
R1_TR289,2,,305.2314185,64.87894084,254.76612,316.5223719,67.27890707,257.43107,1,180,,,,,
R1_TR290,0,,304.4558731,68.42599774,254.76612,315.7181379,70.95717475,257.43107,1,180,,,,,
R1_TR291,2,,303.6391092,71.96379085,254.76612,314.8711607,74.62583597,257.43107,1,180,,,,,
R1_TR292,0,,302.7812374,75.49184123,254.76612,313.9815551,78.28439405,257.43107,1,180,,,,,
R1_TR293,2,,301.8823739,79.00967121,254.76612,313.0494413,81.93235367,257.43107,1,180,,,,,
R1_TR294,0,,300.9426404,82.51680455,254.76612,312.0749456,85.56922097,257.43107,1,180,,,,,
R1_TR295,2,,299.962164,86.01276643,254.76612,311.0582,89.19450356,257.43107,1,180,,,,,
R1_TR296,0,,298.9410776,89.49708357,254.76612,309.9993421,92.80771064,257.43107,1,180,,,,,
R1_TR297,2,,297.8795193,92.96928423,254.76612,308.8985153,96.40835305,257.43107,1,180,,,,,
R1_TR298,0,,296.7776329,96.42889833,254.76612,307.7558685,99.9959433,257.43107,1,180,,,,,
R1_TR299,2,,295.6355676,99.87545751,254.76612,306.5715565,103.5699957,257.43107,1,180,,,,,
R1_TR300,0,,294.4534779,103.3084952,254.76612,305.3457396,107.1300264,257.43107,1,180,,,,,
R1_TR301,2,,293.231524,106.7275465,254.76612,304.0785838,110.6755534,257.43107,1,180,,,,,
R1_TR302,0,,291.9698712,110.1321486,254.76612,302.7702607,114.2060967,257.43107,1,180,,,,,
R1_TR303,2,,290.6686903,113.5218406,254.76612,301.4209472,117.7211783,257.43107,1,180,,,,,
R1_TR304,0,,289.3281576,116.8961635,254.76612,300.0308263,121.2203224,257.43107,1,180,,,,,
R1_TR305,2,,287.9484545,120.2546606,254.76612,298.6000859,124.7030551,257.43107,1,180,,,,,
R1_TR306,0,,286.5297677,123.5968772,254.76612,297.1289199,128.1689051,257.43107,1,180,,,,,
R1_TR307,2,,285.0722894,126.9223606,254.76612,295.6175274,131.6174031,257.43107,1,180,,,,,
R1_TR308,0,,283.5762169,130.2306609,254.76612,294.0661129,135.0480821,257.43107,1,180,,,,,
R1_TR309,2,,282.0417527,133.52133,254.76612,292.4748867,138.4604778,257.43107,1,180,,,,,
R1_TR310,0,,280.4691046,136.7939224,254.76612,290.844064,141.8541282,257.43107,1,180,,,,,
R1_TR311,2,,278.8584854,140.0479951,254.76612,289.1738657,145.2285738,257.43107,1,180,,,,,
R1_TR312,0,,277.2101133,143.2831076,254.76612,287.4645179,148.5833578,257.43107,1,180,,,,,
R1_TR313,2,,275.5242113,146.4988218,254.76612,285.716252,151.918026,257.43107,1,180,,,,,
R1_TR314,0,,273.8010078,149.6947025,254.76612,283.9293047,155.2321269,257.43107,1,180,,,,,
R1_TR315,2,,272.040736,152.8703168,254.76612,282.1039179,158.5252118,257.43107,1,180,,,,,
R1_TR316,0,,270.2436343,156.025235,254.76612,280.2403387,161.796835,257.43107,1,180,,,,,
R1_TR317,2,,268.4099459,159.1590299,254.76612,278.3388195,165.0465535,257.43107,1,180,,,,,
R1_TR318,0,,266.539919,162.2712771,254.76612,276.3996177,168.2739273,257.43107,1,180,,,,,
R1_TR319,2,,264.633807,165.3615555,254.76612,274.4229958,171.4785195,257.43107,1,180,,,,,
R1_TR320,0,,262.6918677,168.4294465,254.76612,272.4092214,174.6598963,257.43107,1,180,,,,,
R1_TR321,2,,260.7143642,171.4745349,254.76612,270.3585671,177.8176269,257.43107,1,180,,,,,
R1_TR322,0,,258.7015642,174.4964083,254.76612,268.2713107,180.9512839,257.43107,1,180,,,,,
R1_TR323,2,,256.65374,177.4946578,254.76612,266.1477346,184.0604429,257.43107,1,180,,,,,
R1_TR324,0,,254.5711691,180.4688773,254.76612,263.9881263,187.1446831,257.43107,1,180,,,,,
R1_TR325,2,,252.4541333,183.4186642,254.76612,261.7927783,190.203587,257.43107,1,180,,,,,
R1_TR326,0,,250.3029193,186.3436192,254.76612,259.5619877,193.2367403,257.43107,1,180,,,,,
R1_TR327,2,,248.1178183,189.2433462,254.76612,257.2960566,196.2437324,257.43107,1,180,,,,,
R1_TR328,0,,245.899126,192.1174527,254.76612,254.9952918,199.2241563,257.43107,1,180,,,,,
R1_TR329,2,,243.647143,194.9655496,254.76612,252.6600046,202.1776084,257.43107,1,180,,,,,
R1_TR330,0,,241.362174,197.7872513,254.76612,250.2905113,205.1036889,257.43107,1,180,,,,,
R1_TR331,2,,239.0445285,200.5821757,254.76612,247.8871327,208.0020016,257.43107,1,180,,,0,,
R1_TR332,0,,236.6945202,203.3499445,254.76612,245.4501942,210.8721543,257.43107,1,180,,,,,
R1_TR333,2,,234.3124672,206.090183,254.76612,242.9800256,213.7137581,257.43107,1,180,,,,,
R1_TR334,0,,231.8986921,208.8025202,254.76612,240.4769614,216.5264286,257.43107,1,180,,,,,
R1_TR335,2,,229.4535216,211.4865889,254.76612,237.9413405,219.3097849,257.43107,1,180,,,,,
R1_TR336,0,,226.9772867,214.1420256,254.76612,235.3735061,222.0634501,257.43107,1,180,,,,,
R1_TR337,2,,224.4703228,216.768471,254.76612,232.773806,224.7870515,257.43107,1,180,,,,,
R1_TR338,0,,221.9329692,219.3655694,254.76612,230.142592,227.4802203,257.43107,1,180,,,,,
R1_TR339,2,,219.3655694,221.9329692,254.76612,227.4802203,230.142592,257.43107,1,180,,,,,
R1_TR340,0,,216.768471,224.4703228,254.76612,224.7870515,232.773806,257.43107,1,180,,,,,
R1_TR341,2,,214.1420256,226.9772867,254.76612,222.0634501,235.3735061,257.43107,1,180,,,,,
R1_TR342,0,,211.4865889,229.4535216,254.76612,219.3097849,237.9413405,257.43107,1,180,,,,,
R1_TR343,2,,208.8025202,231.8986921,254.76612,216.5264286,240.4769614,257.43107,1,180,,,,,
R1_TR344,0,,206.090183,234.3124672,254.76612,213.7137581,242.9800256,257.43107,1,180,,,,,
R1_TR345,2,,203.3499445,236.6945202,254.76612,210.8721543,245.4501942,257.43107,1,180,,,,,
R1_TR346,0,,200.5821757,239.0445285,254.76612,208.0020016,247.8871327,257.43107,1,180,,,,,
R1_TR347,2,,197.7872513,241.362174,254.76612,205.1036889,250.2905113,257.43107,1,180,,,,,
R1_TR348,0,,194.9655496,243.647143,254.76612,202.1776084,252.6600046,257.43107,1,180,,,,,
R1_TR349,2,,192.1174527,245.899126,254.76612,199.2241563,254.9952918,257.43107,1,180,,,,,
R1_TR350,0,,189.2433462,248.1178183,254.76612,196.2437324,257.2960566,257.43107,1,180,,,,,
R1_TR351,2,,186.3436192,250.3029193,254.76612,193.2367403,259.5619877,257.43107,1,180,,,,,
R1_TR352,0,,183.4186642,252.4541333,254.76612,190.203587,261.7927783,257.43107,1,180,,,,,
R1_TR353,2,,180.4688773,254.5711691,254.76612,187.1446831,263.9881263,257.43107,1,180,,,,,
R1_TR354,0,,177.4946578,256.65374,254.76612,184.0604429,266.1477346,257.43107,1,180,,,,,
R1_TR355,2,,174.4964083,258.7015642,254.76612,180.9512839,268.2713107,257.43107,1,180,,,,,
R1_TR356,0,,171.4745349,260.7143642,254.76612,177.8176269,270.3585671,257.43107,1,180,,,,,
R1_TR357,2,,168.4294465,262.6918677,254.76612,174.6598963,272.4092214,257.43107,1,180,,,,,
R1_TR358,0,,165.3615555,264.633807,254.76612,171.4785195,274.4229958,257.43107,1,180,,,,,
R1_TR359,2,,162.2712771,266.539919,254.76612,168.2739273,276.3996177,257.43107,1,180,,,,,
R1_TR360,0,,159.1590299,268.4099459,254.76612,165.0465535,278.3388195,257.43107,1,180,,,,,
R1_TR361,2,,156.025235,270.2436343,254.76612,161.796835,280.2403387,257.43107,1,180,,,,,
R1_TR362,0,,152.8703168,272.040736,254.76612,158.5252118,282.1039179,257.43107,1,180,,,,,
R1_TR363,2,,149.6947025,273.8010078,254.76612,155.2321269,283.9293047,257.43107,1,180,,,,,
R1_TR364,0,,146.4988218,275.5242113,254.76612,151.918026,285.716252,257.43107,1,180,,,,,
R1_TR365,2,,143.2831076,277.2101133,254.76612,148.5833578,287.4645179,257.43107,1,180,,,,,
R1_TR366,0,,140.0479951,278.8584854,254.76612,145.2285738,289.1738657,257.43107,1,180,,,,,
R1_TR367,2,,136.7939224,280.4691046,254.76612,141.8541282,290.844064,257.43107,1,180,,,,,
R1_TR368,0,,133.52133,282.0417527,254.76612,138.4604778,292.4748867,257.43107,1,180,,,,,
R1_TR369,2,,130.2306609,283.5762169,254.76612,135.0480821,294.0661129,257.43107,1,180,,,,,
R1_TR370,0,,126.9223606,285.0722894,254.76612,131.6174031,295.6175274,257.43107,1,180,,,,,
R1_TR371,2,,123.5968772,286.5297677,254.76612,128.1689051,297.1289199,257.43107,1,180,,,,,
R1_TR372,0,,120.2546606,287.9484545,254.76612,124.7030551,298.6000859,257.43107,1,180,,,,,
R1_TR373,2,,116.8961635,289.3281576,254.76612,121.2203224,300.0308263,257.43107,1,180,,,,,
R1_TR374,0,,113.5218406,290.6686903,254.76612,117.7211783,301.4209472,257.43107,1,180,,,,,
R1_TR375,2,,110.1321486,291.9698712,254.76612,114.2060967,302.7702607,257.43107,1,180,,,,,
R1_TR376,0,,106.7275465,293.231524,254.76612,110.6755534,304.0785838,257.43107,1,180,,,0,,
R1_TR377,2,,103.3084952,294.4534779,254.76612,107.1300264,305.3457396,257.43107,1,180,,,,,
R1_TR378,0,,99.87545751,295.6355676,254.76612,103.5699957,306.5715565,257.43107,1,180,,,,,
R1_TR379,2,,96.42889833,296.7776329,254.76612,99.9959433,307.7558685,257.43107,1,180,,,,,
R1_TR380,0,,92.96928423,297.8795193,254.76612,96.40835305,308.8985153,257.43107,1,180,,,,,
R1_TR381,2,,89.49708357,298.9410776,254.76612,92.80771064,309.9993421,257.43107,1,180,,,,,
R1_TR382,0,,86.01276643,299.962164,254.76612,89.19450356,311.0582,257.43107,1,180,,,,,
R1_TR383,2,,82.51680455,300.9426404,254.76612,85.56922097,312.0749456,257.43107,1,180,,,,,
R1_TR384,0,,79.00967121,301.8823739,254.76612,81.93235367,313.0494413,257.43107,1,180,,,,,
R1_TR385,2,,75.49184123,302.7812374,254.76612,78.28439405,313.9815551,257.43107,1,180,,,,,
R1_TR386,0,,71.96379085,303.6391092,254.76612,74.62583597,314.8711607,257.43107,1,180,,,,,
R1_TR387,2,,68.42599774,304.4558731,254.76612,70.95717475,315.7181379,257.43107,1,180,,,,,
R1_TR388,0,,64.87894084,305.2314185,254.76612,67.27890707,316.5223719,257.43107,1,180,,,,,
R1_TR389,2,,61.32310037,305.9656405,254.76612,63.59153089,317.2837539,257.43107,1,180,,,,,
R1_TR390,0,,57.75895773,306.6584397,254.76612,59.89554545,318.0021807,257.43107,1,180,,,,,
R1_TR391,2,,54.18699546,307.3097222,254.76612,56.1914511,318.677555,257.43107,1,180,,,,,
R1_TR392,0,,50.60769713,307.9193999,254.76612,52.47974933,319.3097856,257.43107,1,180,,,,,
R1_TR393,2,,47.02154733,308.4873902,254.76612,48.76094264,319.8987867,257.43107,1,180,,,,,
R1_TR394,0,,43.42903157,309.0136163,254.76612,45.0355345,320.4444786,257.43107,1,180,,,,,
R1_TR395,2,,39.83063621,309.4980069,254.76612,41.30402928,320.9467875,257.43107,1,180,,,,,
R1_TR396,0,,36.22684842,309.9404964,254.76612,37.56693214,321.4056454,257.43107,1,180,,,,,
R1_TR397,2,,32.61815609,310.3410249,254.76612,33.82474905,321.82099,257.43107,1,180,,,,,
R1_TR398,0,,29.00504779,310.6995382,254.76612,30.07798662,322.1927653,257.43107,1,180,,,,,
R1_TR399,2,,25.38801267,311.0159878,254.76612,26.32715212,322.5209208,257.43107,1,180,,,,,
R1_TR400,0,,21.76754042,311.2903307,254.76612,22.57275335,322.8054121,257.43107,1,180,,,,,
R1_TR401,2,,18.14412119,311.52253,254.76612,18.81529858,323.0462007,257.43107,1,180,,,,,
R1_TR402,0,,14.51824554,311.7125541,254.76612,15.05529652,323.2432541,257.43107,1,180,,,,,
R1_TR403,2,,10.89040435,311.8603773,254.76612,11.29325622,323.3965455,257.43107,1,180,,,,,
R1_TR404,0,,7.261088773,311.9659796,254.76612,7.52968699,323.5060542,257.43107,1,180,,,,,
R1_TR405,2,,3.630790162,312.0293467,254.76612,3.765098362,323.5717653,257.43107,1,180,,,,,
R1_TR406,0,,5.88E-12,312.05047,254.76612,6.10E-12,323.59367,257.43107,1,180,,,,,
R1_TR407,2,,-3.630790162,312.0293467,254.76612,-3.765098362,323.5717653,257.43107,1,180,,,,,
R1_TR408,0,,-7.261088773,311.9659796,254.76612,-7.52968699,323.5060542,257.43107,1,180,,,,,
R1_TR409,2,,-10.89040435,311.8603773,254.76612,-11.29325622,323.3965455,257.43107,1,180,,,,,
R1_TR410,0,,-14.51824554,311.7125541,254.76612,-15.05529652,323.2432541,257.43107,1,180,,,,,
R1_TR411,2,,-18.14412119,311.52253,254.76612,-18.81529858,323.0462007,257.43107,1,180,,,,,
R1_TR412,0,,-21.76754042,311.2903307,254.76612,-22.57275335,322.8054121,257.43107,1,180,,,,,
R1_TR413,2,,-25.38801267,311.0159878,254.76612,-26.32715212,322.5209208,257.43107,1,180,,,,,
R1_TR414,0,,-29.00504779,310.6995382,254.76612,-30.07798662,322.1927653,257.43107,1,180,,,,,
R1_TR415,2,,-32.61815609,310.3410249,254.76612,-33.82474905,321.82099,257.43107,1,180,,,,,
R1_TR416,0,,-36.22684842,309.9404964,254.76612,-37.56693214,321.4056454,257.43107,1,180,,,,,
R1_TR417,2,,-39.83063621,309.4980069,254.76612,-41.30402928,320.9467875,257.43107,1,180,,,,,
R1_TR418,0,,-43.42903157,309.0136163,254.76612,-45.0355345,320.4444786,257.43107,1,180,,,,,
R1_TR419,2,,-47.02154733,308.4873902,254.76612,-48.76094264,319.8987867,257.43107,1,180,,,,,
R1_TR420,0,,-50.60769713,307.9193999,254.76612,-52.47974933,319.3097856,257.43107,1,180,,,,,
R1_TR421,2,,-54.18699546,307.3097222,254.76612,-56.1914511,318.677555,257.43107,1,180,,,0,,
R1_TR422,0,,-57.75895773,306.6584397,254.76612,-59.89554545,318.0021807,257.43107,1,180,,,,,
R1_TR423,2,,-61.32310037,305.9656405,254.76612,-63.59153089,317.2837539,257.43107,1,180,,,,,
R1_TR424,0,,-64.87894084,305.2314185,254.76612,-67.27890707,316.5223719,257.43107,1,180,,,,,
R1_TR425,2,,-68.42599774,304.4558731,254.76612,-70.95717475,315.7181379,257.43107,1,180,,,,,
R1_TR426,0,,-71.96379085,303.6391092,254.76612,-74.62583597,314.8711607,257.43107,1,180,,,,,
R1_TR427,2,,-75.49184123,302.7812374,254.76612,-78.28439405,313.9815551,257.43107,1,180,,,,,
R1_TR428,0,,-79.00967121,301.8823739,254.76612,-81.93235367,313.0494413,257.43107,1,180,,,,,
R1_TR429,2,,-82.51680455,300.9426404,254.76612,-85.56922097,312.0749456,257.43107,1,180,,,,,
R1_TR430,0,,-86.01276643,299.962164,254.76612,-89.19450356,311.0582,257.43107,1,180,,,,,
R1_TR431,2,,-89.49708357,298.9410776,254.76612,-92.80771064,309.9993421,257.43107,1,180,,,,,
R1_TR432,0,,-92.96928423,297.8795193,254.76612,-96.40835305,308.8985153,257.43107,1,180,,,,,
R1_TR433,2,,-96.42889833,296.7776329,254.76612,-99.9959433,307.7558685,257.43107,1,180,,,,,
R1_TR434,0,,-99.87545751,295.6355676,254.76612,-103.5699957,306.5715565,257.43107,1,180,,,,,
R1_TR435,2,,-103.3084952,294.4534779,254.76612,-107.1300264,305.3457396,257.43107,1,180,,,,,
R1_TR436,0,,-106.7275465,293.231524,254.76612,-110.6755534,304.0785838,257.43107,1,180,,,,,
R1_TR437,2,,-110.1321486,291.9698712,254.76612,-114.2060967,302.7702607,257.43107,1,180,,,,,
R1_TR438,0,,-113.5218406,290.6686903,254.76612,-117.7211783,301.4209472,257.43107,1,180,,,,,
R1_TR439,2,,-116.8961635,289.3281576,254.76612,-121.2203224,300.0308263,257.43107,1,180,,,,,
R1_TR440,0,,-120.2546606,287.9484545,254.76612,-124.7030551,298.6000859,257.43107,1,180,,,,,
R1_TR441,2,,-123.5968772,286.5297677,254.76612,-128.1689051,297.1289199,257.43107,1,180,,,,,
R1_TR442,0,,-126.9223606,285.0722894,254.76612,-131.6174031,295.6175274,257.43107,1,180,,,,,
R1_TR443,2,,-130.2306609,283.5762169,254.76612,-135.0480821,294.0661129,257.43107,1,180,,,,,
R1_TR444,0,,-133.52133,282.0417527,254.76612,-138.4604778,292.4748867,257.43107,1,180,,,,,
R1_TR445,2,,-136.7939224,280.4691046,254.76612,-141.8541282,290.844064,257.43107,1,180,,,,,
R1_TR446,0,,-140.0479951,278.8584854,254.76612,-145.2285738,289.1738657,257.43107,1,180,,,,,
R1_TR447,2,,-143.2831076,277.2101133,254.76612,-148.5833578,287.4645179,257.43107,1,180,,,,,
R1_TR448,0,,-146.4988218,275.5242113,254.76612,-151.918026,285.716252,257.43107,1,180,,,,,
R1_TR449,2,,-149.6947025,273.8010078,254.76612,-155.2321269,283.9293047,257.43107,1,180,,,,,
R1_TR450,0,,-152.8703168,272.040736,254.76612,-158.5252118,282.1039179,257.43107,1,180,,,,,
R1_TR451,2,,-156.025235,270.2436343,254.76612,-161.796835,280.2403387,257.43107,1,180,,,,,
R1_TR452,0,,-159.1590299,268.4099459,254.76612,-165.0465535,278.3388195,257.43107,1,180,,,,,
R1_TR453,2,,-162.2712771,266.539919,254.76612,-168.2739273,276.3996177,257.43107,1,180,,,,,
R1_TR454,0,,-165.3615555,264.633807,254.76612,-171.4785195,274.4229958,257.43107,1,180,,,,,
R1_TR455,2,,-168.4294465,262.6918677,254.76612,-174.6598963,272.4092214,257.43107,1,180,,,,,
R1_TR456,0,,-171.4745349,260.7143642,254.76612,-177.8176269,270.3585671,257.43107,1,180,,,,,
R1_TR457,2,,-174.4964083,258.7015642,254.76612,-180.9512839,268.2713107,257.43107,1,180,,,,,
R1_TR458,0,,-177.4946578,256.65374,254.76612,-184.0604429,266.1477346,257.43107,1,180,,,,,
R1_TR459,2,,-180.4688773,254.5711691,254.76612,-187.1446831,263.9881263,257.43107,1,180,,,,,
R1_TR460,0,,-183.4186642,252.4541333,254.76612,-190.203587,261.7927783,257.43107,1,180,,,,,
R1_TR461,2,,-186.3436192,250.3029193,254.76612,-193.2367403,259.5619877,257.43107,1,180,,,,,
R1_TR462,0,,-189.2433462,248.1178183,254.76612,-196.2437324,257.2960566,257.43107,1,180,,,,,
R1_TR463,2,,-192.1174527,245.899126,254.76612,-199.2241563,254.9952918,257.43107,1,180,,,,,
R1_TR464,0,,-194.9655496,243.647143,254.76612,-202.1776084,252.6600046,257.43107,1,180,,,,,
R1_TR465,2,,-197.7872513,241.362174,254.76612,-205.1036889,250.2905113,257.43107,1,180,,,,,
R1_TR466,0,,-200.5821757,239.0445285,254.76612,-208.0020016,247.8871327,257.43107,1,180,,,0,,
R1_TR467,2,,-203.3499445,236.6945202,254.76612,-210.8721543,245.4501942,257.43107,1,180,,,,,
R1_TR468,0,,-206.090183,234.3124672,254.76612,-213.7137581,242.9800256,257.43107,1,180,,,,,
R1_TR469,2,,-208.8025202,231.8986921,254.76612,-216.5264286,240.4769614,257.43107,1,180,,,,,
R1_TR470,0,,-211.4865889,229.4535216,254.76612,-219.3097849,237.9413405,257.43107,1,180,,,,,
R1_TR471,2,,-214.1420256,226.9772867,254.76612,-222.0634501,235.3735061,257.43107,1,180,,,,,
R1_TR472,0,,-216.768471,224.4703228,254.76612,-224.7870515,232.773806,257.43107,1,180,,,,,
R1_TR473,2,,-219.3655694,221.9329692,254.76612,-227.4802203,230.142592,257.43107,1,180,,,,,
R1_TR474,0,,-221.9329692,219.3655694,254.76612,-230.142592,227.4802203,257.43107,1,180,,,,,
R1_TR475,2,,-224.4703228,216.768471,254.76612,-232.773806,224.7870515,257.43107,1,180,,,,,
R1_TR476,0,,-226.9772867,214.1420256,254.76612,-235.3735061,222.0634501,257.43107,1,180,,,,,
R1_TR477,2,,-229.4535216,211.4865889,254.76612,-237.9413405,219.3097849,257.43107,1,180,,,,,
R1_TR478,0,,-231.8986921,208.8025202,254.76612,-240.4769614,216.5264286,257.43107,1,180,,,,,
R1_TR479,2,,-234.3124672,206.090183,254.76612,-242.9800256,213.7137581,257.43107,1,180,,,,,
R1_TR480,0,,-236.6945202,203.3499445,254.76612,-245.4501942,210.8721543,257.43107,1,180,,,,,
R1_TR481,2,,-239.0445285,200.5821757,254.76612,-247.8871327,208.0020016,257.43107,1,180,,,,,
R1_TR482,0,,-241.362174,197.7872513,254.76612,-250.2905113,205.1036889,257.43107,1,180,,,,,
R1_TR483,2,,-243.647143,194.9655496,254.76612,-252.6600046,202.1776084,257.43107,1,180,,,,,
R1_TR484,0,,-245.899126,192.1174527,254.76612,-254.9952918,199.2241563,257.43107,1,180,,,,,
R1_TR485,2,,-248.1178183,189.2433462,254.76612,-257.2960566,196.2437324,257.43107,1,180,,,,,
R1_TR486,0,,-250.3029193,186.3436192,254.76612,-259.5619877,193.2367403,257.43107,1,180,,,,,
R1_TR487,2,,-252.4541333,183.4186642,254.76612,-261.7927783,190.203587,257.43107,1,180,,,,,
R1_TR488,0,,-254.5711691,180.4688773,254.76612,-263.9881263,187.1446831,257.43107,1,180,,,,,
R1_TR489,2,,-256.65374,177.4946578,254.76612,-266.1477346,184.0604429,257.43107,1,180,,,,,
R1_TR490,0,,-258.7015642,174.4964083,254.76612,-268.2713107,180.9512839,257.43107,1,180,,,,,
R1_TR491,2,,-260.7143642,171.4745349,254.76612,-270.3585671,177.8176269,257.43107,1,180,,,,,
R1_TR492,0,,-262.6918677,168.4294465,254.76612,-272.4092214,174.6598963,257.43107,1,180,,,,,
R1_TR493,2,,-264.633807,165.3615555,254.76612,-274.4229958,171.4785195,257.43107,1,180,,,,,
R1_TR494,0,,-266.539919,162.2712771,254.76612,-276.3996177,168.2739273,257.43107,1,180,,,,,
R1_TR495,2,,-268.4099459,159.1590299,254.76612,-278.3388195,165.0465535,257.43107,1,180,,,,,
R1_TR496,0,,-270.2436343,156.025235,254.76612,-280.2403387,161.796835,257.43107,1,180,,,,,
R1_TR497,2,,-272.040736,152.8703168,254.76612,-282.1039179,158.5252118,257.43107,1,180,,,,,
R1_TR498,0,,-273.8010078,149.6947025,254.76612,-283.9293047,155.2321269,257.43107,1,180,,,,,
R1_TR499,2,,-275.5242113,146.4988218,254.76612,-285.716252,151.918026,257.43107,1,180,,,,,
R1_TR500,0,,-277.2101133,143.2831076,254.76612,-287.4645179,148.5833578,257.43107,1,180,,,,,
R1_TR501,2,,-278.8584854,140.0479951,254.76612,-289.1738657,145.2285738,257.43107,1,180,,,,,
R1_TR502,0,,-280.4691046,136.7939224,254.76612,-290.844064,141.8541282,257.43107,1,180,,,,,
R1_TR503,2,,-282.0417527,133.52133,254.76612,-292.4748867,138.4604778,257.43107,1,180,,,,,
R1_TR504,0,,-283.5762169,130.2306609,254.76612,-294.0661129,135.0480821,257.43107,1,180,,,,,
R1_TR505,2,,-285.0722894,126.9223606,254.76612,-295.6175274,131.6174031,257.43107,1,180,,,,,
R1_TR506,0,,-286.5297677,123.5968772,254.76612,-297.1289199,128.1689051,257.43107,1,180,,,,,
R1_TR507,2,,-287.9484545,120.2546606,254.76612,-298.6000859,124.7030551,257.43107,1,180,,,,,
R1_TR508,0,,-289.3281576,116.8961635,254.76612,-300.0308263,121.2203224,257.43107,1,180,,,,,
R1_TR509,2,,-290.6686903,113.5218406,254.76612,-301.4209472,117.7211783,257.43107,1,180,,,,,
R1_TR510,0,,-291.9698712,110.1321486,254.76612,-302.7702607,114.2060967,257.43107,1,180,,,,,
R1_TR511,2,,-293.231524,106.7275465,254.76612,-304.0785838,110.6755534,257.43107,1,180,,,0,,
R1_TR512,0,,-294.4534779,103.3084952,254.76612,-305.3457396,107.1300264,257.43107,1,180,,,,,
R1_TR513,2,,-295.6355676,99.87545751,254.76612,-306.5715565,103.5699957,257.43107,1,180,,,,,
R1_TR514,0,,-296.7776329,96.42889833,254.76612,-307.7558685,99.9959433,257.43107,1,180,,,,,
R1_TR515,2,,-297.8795193,92.96928423,254.76612,-308.8985153,96.40835305,257.43107,1,180,,,,,
R1_TR516,0,,-298.9410776,89.49708357,254.76612,-309.9993421,92.80771064,257.43107,1,180,,,,,
R1_TR517,2,,-299.962164,86.01276643,254.76612,-311.0582,89.19450356,257.43107,1,180,,,,,
R1_TR518,0,,-300.9426404,82.51680455,254.76612,-312.0749456,85.56922097,257.43107,1,180,,,,,
R1_TR519,2,,-301.8823739,79.00967121,254.76612,-313.0494413,81.93235367,257.43107,1,180,,,,,
R1_TR520,0,,-302.7812374,75.49184123,254.76612,-313.9815551,78.28439405,257.43107,1,180,,,,,
R1_TR521,2,,-303.6391092,71.96379085,254.76612,-314.8711607,74.62583597,257.43107,1,180,,,,,
R1_TR522,0,,-304.4558731,68.42599774,254.76612,-315.7181379,70.95717475,257.43107,1,180,,,,,
R1_TR523,2,,-305.2314185,64.87894084,254.76612,-316.5223719,67.27890707,257.43107,1,180,,,,,
R1_TR524,0,,-305.9656405,61.32310037,254.76612,-317.2837539,63.59153089,257.43107,1,180,,,,,
R1_TR525,2,,-306.6584397,57.75895773,254.76612,-318.0021807,59.89554545,257.43107,1,180,,,,,
R1_TR526,0,,-307.3097222,54.18699546,254.76612,-318.677555,56.1914511,257.43107,1,180,,,,,
R1_TR527,2,,-307.9193999,50.60769713,254.76612,-319.3097856,52.47974933,257.43107,1,180,,,,,
R1_TR528,0,,-308.4873902,47.02154733,254.76612,-319.8987867,48.76094264,257.43107,1,180,,,,,
R1_TR529,2,,-309.0136163,43.42903157,254.76612,-320.4444786,45.0355345,257.43107,1,180,,,,,
R1_TR530,0,,-309.4980069,39.83063621,254.76612,-320.9467875,41.30402928,257.43107,1,180,,,,,
R1_TR531,2,,-309.9404964,36.22684842,254.76612,-321.4056454,37.56693214,257.43107,1,180,,,,,
R1_TR532,0,,-310.3410249,32.61815609,254.76612,-321.82099,33.82474905,257.43107,1,180,,,,,
R1_TR533,2,,-310.6995382,29.00504779,254.76612,-322.1927653,30.07798662,257.43107,1,180,,,,,
R1_TR534,0,,-311.0159878,25.38801267,254.76612,-322.5209208,26.32715212,257.43107,1,180,,,,,
R1_TR535,2,,-311.2903307,21.76754042,254.76612,-322.8054121,22.57275335,257.43107,1,180,,,,,
R1_TR536,0,,-311.52253,18.14412119,254.76612,-323.0462007,18.81529858,257.43107,1,180,,,,,
R1_TR537,2,,-311.7125541,14.51824554,254.76612,-323.2432541,15.05529652,257.43107,1,180,,,,,
R1_TR538,0,,-311.8603773,10.89040435,254.76612,-323.3965455,11.29325622,257.43107,1,180,,,,,
R1_TR539,2,,-311.9659796,7.261088773,254.76612,-323.5060542,7.52968699,257.43107,1,180,,,,,
R1_TR540,0,,-312.0293467,3.630790162,254.76612,-323.5717653,3.765098362,257.43107,1,180,,,,,
R2_TR1,2,,-334.1751,0,278.6417,-339.753,0,273.9613,1,180,,,,,
R2_TR2,0,,-334.152479,-3.888216113,278.6417,-339.7300014,-3.953116462,273.9613,1,180,,,,,
R2_TR3,2,,-334.0846191,-7.775905823,278.6417,-339.6610089,-7.905697735,273.9613,1,180,,,,,
R2_TR4,0,,-333.9715296,-11.6625428,278.6417,-339.5460317,-11.8572087,273.9613,1,180,,,,,
R2_TR5,2,,-333.8132256,-15.54760086,278.6417,-339.3850853,-15.8071144,273.9613,1,180,,,,,
R2_TR6,0,,-333.6097286,-19.43055402,278.6417,-339.1781917,-19.75488006,273.9613,1,180,,,,,
R2_TR7,2,,-333.3610663,-23.31087659,278.6417,-338.9253788,-23.69997122,273.9613,1,180,,,,,
R2_TR8,0,,-333.0672721,-27.18804324,278.6417,-338.6266808,-27.64185379,273.9613,1,180,,,,,
R2_TR9,2,,-332.728386,-31.06152907,278.6417,-338.2821381,-31.5799941,273.9613,1,180,,,,,
R2_TR10,0,,-332.3444538,-34.93080967,278.6417,-337.8917975,-35.51385898,273.9613,1,180,,,,,
R2_TR11,2,,-331.9155275,-38.79536119,278.6417,-337.4557118,-39.44291585,273.9613,1,180,,,,,
R2_TR12,0,,-331.4416652,-42.65466044,278.6417,-336.9739399,-43.36663279,273.9613,1,180,,,,,
R2_TR13,2,,-330.9229309,-46.50818493,278.6417,-336.4465472,-47.28447857,273.9613,1,180,,,,,
R2_TR14,0,,-330.359395,-50.35541296,278.6417,-335.8736049,-51.19592279,273.9613,1,180,,,,,
R2_TR15,2,,-329.7511337,-54.19582367,278.6417,-335.2551908,-55.10043591,273.9613,1,180,,,,,
R2_TR16,0,,-329.0982293,-58.02889714,278.6417,-334.5913885,-58.99748931,273.9613,1,180,,,,,
R2_TR17,2,,-328.4007704,-61.85411442,278.6417,-333.8822879,-62.88655539,273.9613,1,180,,,,,
R2_TR18,0,,-327.6588512,-65.67095764,278.6417,-333.1279849,-66.76710764,273.9613,1,180,,,,,
R2_TR19,2,,-326.8725723,-69.47891007,278.6417,-332.3285818,-70.63862069,273.9613,1,180,,,,,
R2_TR20,0,,-326.04204,-73.27745617,278.6417,-331.4841867,-74.5005704,273.9613,1,180,,,,,
R2_TR21,2,,-325.1673669,-77.06608167,278.6417,-330.5949139,-78.35243393,273.9613,1,180,,,,,
R2_TR22,0,,-324.2486714,-80.84427365,278.6417,-329.6608839,-82.1936898,273.9613,1,180,,,,,
R2_TR23,2,,-323.2860777,-84.61152062,278.6417,-328.6822231,-86.02381795,273.9613,1,180,,,,,
R2_TR24,0,,-322.2797163,-88.36731254,278.6417,-327.6590639,-89.84229985,273.9613,1,180,,,,,
R2_TR25,2,,-321.2297234,-92.11114094,278.6417,-326.591545,-93.64861855,273.9613,1,180,,,,,
R2_TR26,0,,-320.1362411,-95.84249897,278.6417,-325.4798108,-97.44225872,273.9613,1,180,,,,,
R2_TR27,2,,-318.9994175,-99.56088146,278.6417,-324.3240118,-101.2227068,273.9613,1,180,,,,,
R2_TR28,0,,-317.8194064,-103.265785,278.6417,-323.1243046,-104.9894509,273.9613,1,180,,,,,
R2_TR29,2,,-316.5963678,-106.956708,278.6417,-321.8808515,-108.7419811,273.9613,1,180,,,,,
R2_TR30,0,,-315.330467,-110.6331508,278.6417,-320.5938209,-112.4797894,273.9613,1,180,,,,,
R2_TR31,2,,-314.0218755,-114.2946156,278.6417,-319.263387,-116.2023698,273.9613,1,180,,,,,
R2_TR32,0,,-312.6707705,-117.9406068,278.6417,-317.88973,-119.9092182,273.9613,1,180,,,,,
R2_TR33,2,,-311.2773349,-121.5706306,278.6417,-316.4730357,-123.5998328,273.9613,1,180,,,,,
R2_TR34,0,,-309.8417573,-125.1841958,278.6417,-315.0134961,-127.2737139,273.9613,1,180,,,,,
R2_TR35,2,,-308.3642321,-128.7808131,278.6417,-313.5113088,-130.9303643,273.9613,1,180,,,,,
R2_TR36,0,,-306.8449593,-132.3599954,278.6417,-311.966677,-134.5692888,273.9613,1,180,,,,,
R2_TR37,2,,-305.2841447,-135.9212584,278.6417,-310.3798099,-138.1899947,273.9613,1,180,,,,,
R2_TR38,0,,-303.6819994,-139.4641198,278.6417,-308.7509223,-141.7919919,273.9613,1,180,,,,,
R2_TR39,2,,-302.0387405,-142.9880999,278.6417,-307.0802348,-145.3747928,273.9613,1,180,,,,,
R2_TR40,0,,-300.3545903,-146.4927218,278.6417,-305.3679736,-148.9379122,273.9613,1,180,,,,,
R2_TR41,2,,-298.6297769,-149.9775109,278.6417,-303.6143704,-152.4808679,273.9613,1,180,,,,,
R2_TR42,0,,-296.8645339,-153.4419955,278.6417,-301.8196628,-156.00318,273.9613,1,180,,,,,
R2_TR43,2,,-295.0591001,-156.8857064,278.6417,-299.9840935,-159.5043719,273.9613,1,180,,,,,
R2_TR44,0,,-293.2137201,-160.3081776,278.6417,-298.1079112,-162.9839694,273.9613,1,180,,,,,
R2_TR45,2,,-291.3286436,-163.7089456,278.6417,-296.1913699,-166.4415014,273.9613,1,180,,,,,
R2_TR46,0,,-289.4041259,-167.08755,278.6417,-294.234729,-169.8765,273.9613,1,180,,,,,
R2_TR47,2,,-287.4404275,-170.4435334,278.6417,-292.2382534,-173.2885,273.9613,1,180,,,,,
R2_TR48,0,,-285.4378143,-173.7764416,278.6417,-290.2022135,-176.6770395,273.9613,1,180,,,,,
R2_TR49,2,,-283.3965573,-177.0858231,278.6417,-288.1268848,-180.0416598,273.9613,1,180,,,,,
R2_TR50,0,,-281.316933,-180.3712301,278.6417,-286.0125484,-183.3819053,273.9613,1,180,,,,,
R2_TR51,2,,-279.1992229,-183.6322177,278.6417,-283.8594904,-186.6973238,273.9613,1,180,,,,,
R2_TR52,0,,-277.0437137,-186.8683444,278.6417,-281.6680024,-189.9874665,273.9613,1,180,,,,,
R2_TR53,2,,-274.8506972,-190.0791722,278.6417,-279.438381,-193.251888,273.9613,1,180,,,,,
R2_TR54,0,,-272.6204703,-193.2642663,278.6417,-277.1709282,-196.4901462,273.9613,1,180,,,,,
R2_TR55,2,,-270.353335,-196.4231955,278.6417,-274.8659509,-199.7018028,273.9613,1,180,,,,,
R2_TR56,0,,-268.0495982,-199.5555321,278.6417,-272.5237611,-202.886423,273.9613,1,180,,,,,
R2_TR57,2,,-265.7095717,-202.6608521,278.6417,-270.144676,-206.0435756,273.9613,1,180,,,,,
R2_TR58,0,,-263.3335724,-205.7387351,278.6417,-267.7290176,-209.1728332,273.9613,1,180,,,,,
R2_TR59,2,,-260.9219219,-208.7887643,278.6417,-265.2771129,-212.2737722,273.9613,1,180,,,,,
R2_TR60,0,,-258.4749468,-211.8105269,278.6417,-262.789294,-215.3459727,273.9613,1,180,,,,,
R2_TR61,2,,-255.9929784,-214.8036137,278.6417,-260.2658977,-218.3890188,273.9613,1,180,,,,,
R2_TR62,0,,-253.4763526,-217.7676196,278.6417,-257.7072655,-221.4024985,273.9613,1,180,,,,,
R2_TR63,2,,-250.9254101,-220.7021432,278.6417,-255.1137438,-224.3860038,273.9613,1,180,,,,,
R2_TR64,0,,-248.3404964,-223.6067873,278.6417,-252.4856839,-227.3391309,273.9613,1,180,,,,,
R2_TR65,2,,-245.7219613,-226.4811586,278.6417,-249.8234414,-230.2614799,273.9613,1,180,,,,,
R2_TR66,0,,-243.0701594,-229.324868,278.6417,-247.1273768,-233.1526552,273.9613,1,180,,,,,
R2_TR67,2,,-240.3854497,-232.1375304,278.6417,-244.3978552,-236.0122653,273.9613,1,180,,,,,
R2_TR68,0,,-237.6681957,-234.9187652,278.6417,-241.635246,-238.8399232,273.9613,1,180,,,,,
R2_TR69,2,,-234.9187652,-237.6681957,278.6417,-238.8399232,-241.635246,273.9613,1,180,,,,,
R2_TR70,0,,-232.1375304,-240.3854497,278.6417,-236.0122653,-244.3978552,273.9613,1,180,,,,,
R2_TR71,2,,-229.324868,-243.0701594,278.6417,-233.1526552,-247.1273768,273.9613,1,180,,,,,
R2_TR72,0,,-226.4811586,-245.7219613,278.6417,-230.2614799,-249.8234414,273.9613,1,180,,,,,
R2_TR73,2,,-223.6067873,-248.3404964,278.6417,-227.3391309,-252.4856839,273.9613,1,180,,,,,
R2_TR74,0,,-220.7021432,-250.9254101,278.6417,-224.3860038,-255.1137438,273.9613,1,180,,,,,
R2_TR75,2,,-217.7676196,-253.4763526,278.6417,-221.4024985,-257.7072655,273.9613,1,180,,,,,
R2_TR76,0,,-214.8036137,-255.9929784,278.6417,-218.3890188,-260.2658977,273.9613,1,180,,,,,
R2_TR77,2,,-211.8105269,-258.4749468,278.6417,-215.3459727,-262.789294,273.9613,1,180,,,,,
R2_TR78,0,,-208.7887643,-260.9219219,278.6417,-212.2737722,-265.2771129,273.9613,1,180,,,,,
R2_TR79,2,,-205.7387351,-263.3335724,278.6417,-209.1728332,-267.7290176,273.9613,1,180,,,,,
R2_TR80,0,,-202.6608521,-265.7095717,278.6417,-206.0435756,-270.144676,273.9613,1,180,,,,,
R2_TR81,2,,-199.5555321,-268.0495982,278.6417,-202.886423,-272.5237611,273.9613,1,180,,,,,
R2_TR82,0,,-196.4231955,-270.353335,278.6417,-199.7018028,-274.8659509,273.9613,1,180,,,,,
R2_TR83,2,,-193.2642663,-272.6204703,278.6417,-196.4901462,-277.1709282,273.9613,1,180,,,,,
R2_TR84,0,,-190.0791722,-274.8506972,278.6417,-193.251888,-279.438381,273.9613,1,180,,,,,
R2_TR85,2,,-186.8683444,-277.0437137,278.6417,-189.9874665,-281.6680024,273.9613,1,180,,,,,
R2_TR86,0,,-183.6322177,-279.1992229,278.6417,-186.6973238,-283.8594904,273.9613,1,180,,,,,
R2_TR87,2,,-180.3712301,-281.316933,278.6417,-183.3819053,-286.0125484,273.9613,1,180,,,,,
R2_TR88,0,,-177.0858231,-283.3965573,278.6417,-180.0416598,-288.1268848,273.9613,1,180,,,,,
R2_TR89,2,,-173.7764416,-285.4378143,278.6417,-176.6770395,-290.2022135,273.9613,1,180,,,,,
R2_TR90,0,,-170.4435334,-287.4404275,278.6417,-173.2885,-292.2382534,273.9613,1,180,,,,,
R2_TR91,2,,-167.08755,-289.4041259,278.6417,-169.8765,-294.234729,273.9613,1,180,,,,,
R2_TR92,0,,-163.7089456,-291.3286436,278.6417,-166.4415014,-296.1913699,273.9613,1,180,,,,,
R2_TR93,2,,-160.3081776,-293.2137201,278.6417,-162.9839694,-298.1079112,273.9613,1,180,,,,,
R2_TR94,0,,-156.8857064,-295.0591001,278.6417,-159.5043719,-299.9840935,273.9613,1,180,,,,,
R2_TR95,2,,-153.4419955,-296.8645339,278.6417,-156.00318,-301.8196628,273.9613,1,180,,,,,
R2_TR96,0,,-149.9775109,-298.6297769,278.6417,-152.4808679,-303.6143704,273.9613,1,180,,,,,
R2_TR97,2,,-146.4927218,-300.3545903,278.6417,-148.9379122,-305.3679736,273.9613,1,180,,,,,
R2_TR98,0,,-142.9880999,-302.0387405,278.6417,-145.3747928,-307.0802348,273.9613,1,180,,,,,
R2_TR99,2,,-139.4641198,-303.6819994,278.6417,-141.7919919,-308.7509223,273.9613,1,180,,,,,
R2_TR100,0,,-135.9212584,-305.2841447,278.6417,-138.1899947,-310.3798099,273.9613,1,180,,,,,
R2_TR101,2,,-132.3599954,-306.8449593,278.6417,-134.5692888,-311.966677,273.9613,1,180,,,,,
R2_TR102,0,,-128.7808131,-308.3642321,278.6417,-130.9303643,-313.5113088,273.9613,1,180,,,,,
R2_TR103,2,,-125.1841958,-309.8417573,278.6417,-127.2737139,-315.0134961,273.9613,1,180,,,,,
R2_TR104,0,,-121.5706306,-311.2773349,278.6417,-123.5998328,-316.4730357,273.9613,1,180,,,,,
R2_TR105,2,,-117.9406068,-312.6707705,278.6417,-119.9092182,-317.88973,273.9613,1,180,,,,,
R2_TR106,0,,-114.2946156,-314.0218755,278.6417,-116.2023698,-319.263387,273.9613,1,180,,,,,
R2_TR107,2,,-110.6331508,-315.330467,278.6417,-112.4797894,-320.5938209,273.9613,1,180,,,,,
R2_TR108,0,,-106.956708,-316.5963678,278.6417,-108.7419811,-321.8808515,273.9613,1,180,,,,,
R2_TR109,2,,-103.265785,-317.8194064,278.6417,-104.9894509,-323.1243046,273.9613,1,180,,,,,
R2_TR110,0,,-99.56088146,-318.9994175,278.6417,-101.2227068,-324.3240118,273.9613,1,180,,,,,
R2_TR111,2,,-95.84249897,-320.1362411,278.6417,-97.44225872,-325.4798108,273.9613,1,180,,,,,
R2_TR112,0,,-92.11114094,-321.2297234,278.6417,-93.64861855,-326.591545,273.9613,1,180,,,,,
R2_TR113,2,,-88.36731254,-322.2797163,278.6417,-89.84229985,-327.6590639,273.9613,1,180,,,,,
R2_TR114,0,,-84.61152062,-323.2860777,278.6417,-86.02381795,-328.6822231,273.9613,1,180,,,,,
R2_TR115,2,,-80.84427365,-324.2486714,278.6417,-82.1936898,-329.6608839,273.9613,1,180,,,,,
R2_TR116,0,,-77.06608167,-325.1673669,278.6417,-78.35243393,-330.5949139,273.9613,1,180,,,,,
R2_TR117,2,,-73.27745617,-326.04204,278.6417,-74.5005704,-331.4841867,273.9613,1,180,,,,,
R2_TR118,0,,-69.47891007,-326.8725723,278.6417,-70.63862069,-332.3285818,273.9613,1,180,,,,,
R2_TR119,2,,-65.67095764,-327.6588512,278.6417,-66.76710764,-333.1279849,273.9613,1,180,,,,,
R2_TR120,0,,-61.85411442,-328.4007704,278.6417,-62.88655539,-333.8822879,273.9613,1,180,,,,,
R2_TR121,2,,-58.02889714,-329.0982293,278.6417,-58.99748931,-334.5913885,273.9613,1,180,,,,,
R2_TR122,0,,-54.19582367,-329.7511337,278.6417,-55.10043591,-335.2551908,273.9613,1,180,,,,,
R2_TR123,2,,-50.35541296,-330.359395,278.6417,-51.19592279,-335.8736049,273.9613,1,180,,,,,
R2_TR124,0,,-46.50818493,-330.9229309,278.6417,-47.28447857,-336.4465472,273.9613,1,180,,,,,
R2_TR125,2,,-42.65466044,-331.4416652,278.6417,-43.36663279,-336.9739399,273.9613,1,180,,,,,
R2_TR126,0,,-38.79536119,-331.9155275,278.6417,-39.44291585,-337.4557118,273.9613,1,180,,,,,
R2_TR127,2,,-34.93080967,-332.3444538,278.6417,-35.51385898,-337.8917975,273.9613,1,180,,,,,
R2_TR128,0,,-31.06152907,-332.728386,278.6417,-31.5799941,-338.2821381,273.9613,1,180,,,,,
R2_TR129,2,,-27.18804324,-333.0672721,278.6417,-27.64185379,-338.6266808,273.9613,1,180,,,,,
R2_TR130,0,,-23.31087659,-333.3610663,278.6417,-23.69997122,-338.9253788,273.9613,1,180,,,,,
R2_TR131,2,,-19.43055402,-333.6097286,278.6417,-19.75488006,-339.1781917,273.9613,1,180,,,,,
R2_TR132,0,,-15.54760086,-333.8132256,278.6417,-15.8071144,-339.3850853,273.9613,1,180,,,,,
R2_TR133,2,,-11.6625428,-333.9715296,278.6417,-11.8572087,-339.5460317,273.9613,1,180,,,,,
R2_TR134,0,,-7.775905823,-334.0846191,278.6417,-7.905697735,-339.6610089,273.9613,1,180,,,,,
R2_TR135,2,,-3.888216113,-334.152479,278.6417,-3.953116462,-339.7300014,273.9613,1,180,,,,,
R2_TR136,0,,4.99E-13,-334.1751,278.6417,5.07E-13,-339.753,273.9613,1,180,,,,,
R2_TR137,2,,3.888216113,-334.152479,278.6417,3.953116462,-339.7300014,273.9613,1,180,,,,,
R2_TR138,0,,7.775905823,-334.0846191,278.6417,7.905697735,-339.6610089,273.9613,1,180,,,,,
R2_TR139,2,,11.6625428,-333.9715296,278.6417,11.8572087,-339.5460317,273.9613,1,180,,,,,
R2_TR140,0,,15.54760086,-333.8132256,278.6417,15.8071144,-339.3850853,273.9613,1,180,,,,,
R2_TR141,2,,19.43055402,-333.6097286,278.6417,19.75488006,-339.1781917,273.9613,1,180,,,,,
R2_TR142,0,,23.31087659,-333.3610663,278.6417,23.69997122,-338.9253788,273.9613,1,180,,,,,
R2_TR143,2,,27.18804324,-333.0672721,278.6417,27.64185379,-338.6266808,273.9613,1,180,,,,,
R2_TR144,0,,31.06152907,-332.728386,278.6417,31.5799941,-338.2821381,273.9613,1,180,,,,,
R2_TR145,2,,34.93080967,-332.3444538,278.6417,35.51385898,-337.8917975,273.9613,1,180,,,,,
R2_TR146,0,,38.79536119,-331.9155275,278.6417,39.44291585,-337.4557118,273.9613,1,180,,,,,
R2_TR147,2,,42.65466044,-331.4416652,278.6417,43.36663279,-336.9739399,273.9613,1,180,,,,,
R2_TR148,0,,46.50818493,-330.9229309,278.6417,47.28447857,-336.4465472,273.9613,1,180,,,,,
R2_TR149,2,,50.35541296,-330.359395,278.6417,51.19592279,-335.8736049,273.9613,1,180,,,,,
R2_TR150,0,,54.19582367,-329.7511337,278.6417,55.10043591,-335.2551908,273.9613,1,180,,,,,
R2_TR151,2,,58.02889714,-329.0982293,278.6417,58.99748931,-334.5913885,273.9613,1,180,,,,,
R2_TR152,0,,61.85411442,-328.4007704,278.6417,62.88655539,-333.8822879,273.9613,1,180,,,,,
R2_TR153,2,,65.67095764,-327.6588512,278.6417,66.76710764,-333.1279849,273.9613,1,180,,,,,
R2_TR154,0,,69.47891007,-326.8725723,278.6417,70.63862069,-332.3285818,273.9613,1,180,,,,,
R2_TR155,2,,73.27745617,-326.04204,278.6417,74.5005704,-331.4841867,273.9613,1,180,,,,,
R2_TR156,0,,77.06608167,-325.1673669,278.6417,78.35243393,-330.5949139,273.9613,1,180,,,,,
R2_TR157,2,,80.84427365,-324.2486714,278.6417,82.1936898,-329.6608839,273.9613,1,180,,,,,
R2_TR158,0,,84.61152062,-323.2860777,278.6417,86.02381795,-328.6822231,273.9613,1,180,,,,,
R2_TR159,2,,88.36731254,-322.2797163,278.6417,89.84229985,-327.6590639,273.9613,1,180,,,,,
R2_TR160,0,,92.11114094,-321.2297234,278.6417,93.64861855,-326.591545,273.9613,1,180,,,,,
R2_TR161,2,,95.84249897,-320.1362411,278.6417,97.44225872,-325.4798108,273.9613,1,180,,,,,
R2_TR162,0,,99.56088146,-318.9994175,278.6417,101.2227068,-324.3240118,273.9613,1,180,,,,,
R2_TR163,2,,103.265785,-317.8194064,278.6417,104.9894509,-323.1243046,273.9613,1,180,,,,,
R2_TR164,0,,106.956708,-316.5963678,278.6417,108.7419811,-321.8808515,273.9613,1,180,,,,,
R2_TR165,2,,110.6331508,-315.330467,278.6417,112.4797894,-320.5938209,273.9613,1,180,,,,,
R2_TR166,0,,114.2946156,-314.0218755,278.6417,116.2023698,-319.263387,273.9613,1,180,,,,,
R2_TR167,2,,117.9406068,-312.6707705,278.6417,119.9092182,-317.88973,273.9613,1,180,,,,,
R2_TR168,0,,121.5706306,-311.2773349,278.6417,123.5998328,-316.4730357,273.9613,1,180,,,,,
R2_TR169,2,,125.1841958,-309.8417573,278.6417,127.2737139,-315.0134961,273.9613,1,180,,,,,
R2_TR170,0,,128.7808131,-308.3642321,278.6417,130.9303643,-313.5113088,273.9613,1,180,,,,,
R2_TR171,2,,132.3599954,-306.8449593,278.6417,134.5692888,-311.966677,273.9613,1,180,,,,,
R2_TR172,0,,135.9212584,-305.2841447,278.6417,138.1899947,-310.3798099,273.9613,1,180,,,,,
R2_TR173,2,,139.4641198,-303.6819994,278.6417,141.7919919,-308.7509223,273.9613,1,180,,,,,
R2_TR174,0,,142.9880999,-302.0387405,278.6417,145.3747928,-307.0802348,273.9613,1,180,,,,,
R2_TR175,2,,146.4927218,-300.3545903,278.6417,148.9379122,-305.3679736,273.9613,1,180,,,,,
R2_TR176,0,,149.9775109,-298.6297769,278.6417,152.4808679,-303.6143704,273.9613,1,180,,,,,
R2_TR177,2,,153.4419955,-296.8645339,278.6417,156.00318,-301.8196628,273.9613,1,180,,,,,
R2_TR178,0,,156.8857064,-295.0591001,278.6417,159.5043719,-299.9840935,273.9613,1,180,,,,,
R2_TR179,2,,160.3081776,-293.2137201,278.6417,162.9839694,-298.1079112,273.9613,1,180,,,,,
R2_TR180,0,,163.7089456,-291.3286436,278.6417,166.4415014,-296.1913699,273.9613,1,180,,,,,
R2_TR181,2,,167.08755,-289.4041259,278.6417,169.8765,-294.234729,273.9613,1,180,,,,,
R2_TR182,0,,170.4435334,-287.4404275,278.6417,173.2885,-292.2382534,273.9613,1,180,,,,,
R2_TR183,2,,173.7764416,-285.4378143,278.6417,176.6770395,-290.2022135,273.9613,1,180,,,,,
R2_TR184,0,,177.0858231,-283.3965573,278.6417,180.0416598,-288.1268848,273.9613,1,180,,,,,
R2_TR185,2,,180.3712301,-281.316933,278.6417,183.3819053,-286.0125484,273.9613,1,180,,,,,
R2_TR186,0,,183.6322177,-279.1992229,278.6417,186.6973238,-283.8594904,273.9613,1,180,,,,,
R2_TR187,2,,186.8683444,-277.0437137,278.6417,189.9874665,-281.6680024,273.9613,1,180,,,,,
R2_TR188,0,,190.0791722,-274.8506972,278.6417,193.251888,-279.438381,273.9613,1,180,,,,,
R2_TR189,2,,193.2642663,-272.6204703,278.6417,196.4901462,-277.1709282,273.9613,1,180,,,,,
R2_TR190,0,,196.4231955,-270.353335,278.6417,199.7018028,-274.8659509,273.9613,1,180,,,,,
R2_TR191,2,,199.5555321,-268.0495982,278.6417,202.886423,-272.5237611,273.9613,1,180,,,,,
R2_TR192,0,,202.6608521,-265.7095717,278.6417,206.0435756,-270.144676,273.9613,1,180,,,,,
R2_TR193,2,,205.7387351,-263.3335724,278.6417,209.1728332,-267.7290176,273.9613,1,180,,,,,
R2_TR194,0,,208.7887643,-260.9219219,278.6417,212.2737722,-265.2771129,273.9613,1,180,,,,,
R2_TR195,2,,211.8105269,-258.4749468,278.6417,215.3459727,-262.789294,273.9613,1,180,,,,,
R2_TR196,0,,214.8036137,-255.9929784,278.6417,218.3890188,-260.2658977,273.9613,1,180,,,,,
R2_TR197,2,,217.7676196,-253.4763526,278.6417,221.4024985,-257.7072655,273.9613,1,180,,,,,
R2_TR198,0,,220.7021432,-250.9254101,278.6417,224.3860038,-255.1137438,273.9613,1,180,,,,,
R2_TR199,2,,223.6067873,-248.3404964,278.6417,227.3391309,-252.4856839,273.9613,1,180,,,,,
R2_TR200,0,,226.4811586,-245.7219613,278.6417,230.2614799,-249.8234414,273.9613,1,180,,,,,
R2_TR201,2,,229.324868,-243.0701594,278.6417,233.1526552,-247.1273768,273.9613,1,180,,,,,
R2_TR202,0,,232.1375304,-240.3854497,278.6417,236.0122653,-244.3978552,273.9613,1,180,,,,,
R2_TR203,2,,234.9187652,-237.6681957,278.6417,238.8399232,-241.635246,273.9613,1,180,,,,,
R2_TR204,0,,237.6681957,-234.9187652,278.6417,241.635246,-238.8399232,273.9613,1,180,,,,,
R2_TR205,2,,240.3854497,-232.1375304,278.6417,244.3978552,-236.0122653,273.9613,1,180,,,,,
R2_TR206,0,,243.0701594,-229.324868,278.6417,247.1273768,-233.1526552,273.9613,1,180,,,,,
R2_TR207,2,,245.7219613,-226.4811586,278.6417,249.8234414,-230.2614799,273.9613,1,180,,,,,
R2_TR208,0,,248.3404964,-223.6067873,278.6417,252.4856839,-227.3391309,273.9613,1,180,,,,,
R2_TR209,2,,250.9254101,-220.7021432,278.6417,255.1137438,-224.3860038,273.9613,1,180,,,,,
R2_TR210,0,,253.4763526,-217.7676196,278.6417,257.7072655,-221.4024985,273.9613,1,180,,,,,
R2_TR211,2,,255.9929784,-214.8036137,278.6417,260.2658977,-218.3890188,273.9613,1,180,,,,,
R2_TR212,0,,258.4749468,-211.8105269,278.6417,262.789294,-215.3459727,273.9613,1,180,,,,,
R2_TR213,2,,260.9219219,-208.7887643,278.6417,265.2771129,-212.2737722,273.9613,1,180,,,,,
R2_TR214,0,,263.3335724,-205.7387351,278.6417,267.7290176,-209.1728332,273.9613,1,180,,,,,
R2_TR215,2,,265.7095717,-202.6608521,278.6417,270.144676,-206.0435756,273.9613,1,180,,,,,
R2_TR216,0,,268.0495982,-199.5555321,278.6417,272.5237611,-202.886423,273.9613,1,180,,,,,
R2_TR217,2,,270.353335,-196.4231955,278.6417,274.8659509,-199.7018028,273.9613,1,180,,,,,
R2_TR218,0,,272.6204703,-193.2642663,278.6417,277.1709282,-196.4901462,273.9613,1,180,,,,,
R2_TR219,2,,274.8506972,-190.0791722,278.6417,279.438381,-193.251888,273.9613,1,180,,,,,
R2_TR220,0,,277.0437137,-186.8683444,278.6417,281.6680024,-189.9874665,273.9613,1,180,,,,,
R2_TR221,2,,279.1992229,-183.6322177,278.6417,283.8594904,-186.6973238,273.9613,1,180,,,,,
R2_TR222,0,,281.316933,-180.3712301,278.6417,286.0125484,-183.3819053,273.9613,1,180,,,,,
R2_TR223,2,,283.3965573,-177.0858231,278.6417,288.1268848,-180.0416598,273.9613,1,180,,,,,
R2_TR224,0,,285.4378143,-173.7764416,278.6417,290.2022135,-176.6770395,273.9613,1,180,,,,,
R2_TR225,2,,287.4404275,-170.4435334,278.6417,292.2382534,-173.2885,273.9613,1,180,,,,,
R2_TR226,0,,289.4041259,-167.08755,278.6417,294.234729,-169.8765,273.9613,1,180,,,,,
R2_TR227,2,,291.3286436,-163.7089456,278.6417,296.1913699,-166.4415014,273.9613,1,180,,,,,
R2_TR228,0,,293.2137201,-160.3081776,278.6417,298.1079112,-162.9839694,273.9613,1,180,,,,,
R2_TR229,2,,295.0591001,-156.8857064,278.6417,299.9840935,-159.5043719,273.9613,1,180,,,,,
R2_TR230,0,,296.8645339,-153.4419955,278.6417,301.8196628,-156.00318,273.9613,1,180,,,,,
R2_TR231,2,,298.6297769,-149.9775109,278.6417,303.6143704,-152.4808679,273.9613,1,180,,,,,
R2_TR232,0,,300.3545903,-146.4927218,278.6417,305.3679736,-148.9379122,273.9613,1,180,,,,,
R2_TR233,2,,302.0387405,-142.9880999,278.6417,307.0802348,-145.3747928,273.9613,1,180,,,,,
R2_TR234,0,,303.6819994,-139.4641198,278.6417,308.7509223,-141.7919919,273.9613,1,180,,,,,
R2_TR235,2,,305.2841447,-135.9212584,278.6417,310.3798099,-138.1899947,273.9613,1,180,,,,,
R2_TR236,0,,306.8449593,-132.3599954,278.6417,311.966677,-134.5692888,273.9613,1,180,,,,,
R2_TR237,2,,308.3642321,-128.7808131,278.6417,313.5113088,-130.9303643,273.9613,1,180,,,,,
R2_TR238,0,,309.8417573,-125.1841958,278.6417,315.0134961,-127.2737139,273.9613,1,180,,,,,
R2_TR239,2,,311.2773349,-121.5706306,278.6417,316.4730357,-123.5998328,273.9613,1,180,,,,,
R2_TR240,0,,312.6707705,-117.9406068,278.6417,317.88973,-119.9092182,273.9613,1,180,,,,,
R2_TR241,2,,314.0218755,-114.2946156,278.6417,319.263387,-116.2023698,273.9613,1,180,,,,,
R2_TR242,0,,315.330467,-110.6331508,278.6417,320.5938209,-112.4797894,273.9613,1,180,,,,,
R2_TR243,2,,316.5963678,-106.956708,278.6417,321.8808515,-108.7419811,273.9613,1,180,,,,,
R2_TR244,0,,317.8194064,-103.265785,278.6417,323.1243046,-104.9894509,273.9613,1,180,,,,,
R2_TR245,2,,318.9994175,-99.56088146,278.6417,324.3240118,-101.2227068,273.9613,1,180,,,,,
R2_TR246,0,,320.1362411,-95.84249897,278.6417,325.4798108,-97.44225872,273.9613,1,180,,,,,
R2_TR247,2,,321.2297234,-92.11114094,278.6417,326.591545,-93.64861855,273.9613,1,180,,,,,
R2_TR248,0,,322.2797163,-88.36731254,278.6417,327.6590639,-89.84229985,273.9613,1,180,,,,,
R2_TR249,2,,323.2860777,-84.61152062,278.6417,328.6822231,-86.02381795,273.9613,1,180,,,,,
R2_TR250,0,,324.2486714,-80.84427365,278.6417,329.6608839,-82.1936898,273.9613,1,180,,,,,
R2_TR251,2,,325.1673669,-77.06608167,278.6417,330.5949139,-78.35243393,273.9613,1,180,,,,,
R2_TR252,0,,326.04204,-73.27745617,278.6417,331.4841867,-74.5005704,273.9613,1,180,,,,,
R2_TR253,2,,326.8725723,-69.47891007,278.6417,332.3285818,-70.63862069,273.9613,1,180,,,,,
R2_TR254,0,,327.6588512,-65.67095764,278.6417,333.1279849,-66.76710764,273.9613,1,180,,,,,
R2_TR255,2,,328.4007704,-61.85411442,278.6417,333.8822879,-62.88655539,273.9613,1,180,,,,,
R2_TR256,0,,329.0982293,-58.02889714,278.6417,334.5913885,-58.99748931,273.9613,1,180,,,,,
R2_TR257,2,,329.7511337,-54.19582367,278.6417,335.2551908,-55.10043591,273.9613,1,180,,,,,
R2_TR258,0,,330.359395,-50.35541296,278.6417,335.8736049,-51.19592279,273.9613,1,180,,,,,
R2_TR259,2,,330.9229309,-46.50818493,278.6417,336.4465472,-47.28447857,273.9613,1,180,,,,,
R2_TR260,0,,331.4416652,-42.65466044,278.6417,336.9739399,-43.36663279,273.9613,1,180,,,,,
R2_TR261,2,,331.9155275,-38.79536119,278.6417,337.4557118,-39.44291585,273.9613,1,180,,,,,
R2_TR262,0,,332.3444538,-34.93080967,278.6417,337.8917975,-35.51385898,273.9613,1,180,,,,,
R2_TR263,2,,332.728386,-31.06152907,278.6417,338.2821381,-31.5799941,273.9613,1,180,,,,,
R2_TR264,0,,333.0672721,-27.18804324,278.6417,338.6266808,-27.64185379,273.9613,1,180,,,,,
R2_TR265,2,,333.3610663,-23.31087659,278.6417,338.9253788,-23.69997122,273.9613,1,180,,,,,
R2_TR266,0,,333.6097286,-19.43055402,278.6417,339.1781917,-19.75488006,273.9613,1,180,,,,,
R2_TR267,2,,333.8132256,-15.54760086,278.6417,339.3850853,-15.8071144,273.9613,1,180,,,,,
R2_TR268,0,,333.9715296,-11.6625428,278.6417,339.5460317,-11.8572087,273.9613,1,180,,,,,
R2_TR269,2,,334.0846191,-7.775905823,278.6417,339.6610089,-7.905697735,273.9613,1,180,,,,,
R2_TR270,0,,334.152479,-3.888216113,278.6417,339.7300014,-3.953116462,273.9613,1,180,,,,,
R2_TR271,2,,334.1751,-2.27E-12,278.6417,339.753,-2.30E-12,273.9613,1,180,,,,,
R2_TR272,0,,334.152479,3.888216113,278.6417,339.7300014,3.953116462,273.9613,1,180,,,,,
R2_TR273,2,,334.0846191,7.775905823,278.6417,339.6610089,7.905697735,273.9613,1,180,,,,,
R2_TR274,0,,333.9715296,11.6625428,278.6417,339.5460317,11.8572087,273.9613,1,180,,,,,
R2_TR275,2,,333.8132256,15.54760086,278.6417,339.3850853,15.8071144,273.9613,1,180,,,,,
R2_TR276,0,,333.6097286,19.43055402,278.6417,339.1781917,19.75488006,273.9613,1,180,,,,,
R2_TR277,2,,333.3610663,23.31087659,278.6417,338.9253788,23.69997122,273.9613,1,180,,,,,
R2_TR278,0,,333.0672721,27.18804324,278.6417,338.6266808,27.64185379,273.9613,1,180,,,,,
R2_TR279,2,,332.728386,31.06152907,278.6417,338.2821381,31.5799941,273.9613,1,180,,,,,
R2_TR280,0,,332.3444538,34.93080967,278.6417,337.8917975,35.51385898,273.9613,1,180,,,,,
R2_TR281,2,,331.9155275,38.79536119,278.6417,337.4557118,39.44291585,273.9613,1,180,,,,,
R2_TR282,0,,331.4416652,42.65466044,278.6417,336.9739399,43.36663279,273.9613,1,180,,,,,
R2_TR283,2,,330.9229309,46.50818493,278.6417,336.4465472,47.28447857,273.9613,1,180,,,,,
R2_TR284,0,,330.359395,50.35541296,278.6417,335.8736049,51.19592279,273.9613,1,180,,,,,
R2_TR285,2,,329.7511337,54.19582367,278.6417,335.2551908,55.10043591,273.9613,1,180,,,,,
R2_TR286,0,,329.0982293,58.02889714,278.6417,334.5913885,58.99748931,273.9613,1,180,,,,,
R2_TR287,2,,328.4007704,61.85411442,278.6417,333.8822879,62.88655539,273.9613,1,180,,,,,
R2_TR288,0,,327.6588512,65.67095764,278.6417,333.1279849,66.76710764,273.9613,1,180,,,,,
R2_TR289,2,,326.8725723,69.47891007,278.6417,332.3285818,70.63862069,273.9613,1,180,,,,,
R2_TR290,0,,326.04204,73.27745617,278.6417,331.4841867,74.5005704,273.9613,1,180,,,,,
R2_TR291,2,,325.1673669,77.06608167,278.6417,330.5949139,78.35243393,273.9613,1,180,,,,,
R2_TR292,0,,324.2486714,80.84427365,278.6417,329.6608839,82.1936898,273.9613,1,180,,,,,
R2_TR293,2,,323.2860777,84.61152062,278.6417,328.6822231,86.02381795,273.9613,1,180,,,,,
R2_TR294,0,,322.2797163,88.36731254,278.6417,327.6590639,89.84229985,273.9613,1,180,,,,,
R2_TR295,2,,321.2297234,92.11114094,278.6417,326.591545,93.64861855,273.9613,1,180,,,,,
R2_TR296,0,,320.1362411,95.84249897,278.6417,325.4798108,97.44225872,273.9613,1,180,,,,,
R2_TR297,2,,318.9994175,99.56088146,278.6417,324.3240118,101.2227068,273.9613,1,180,,,,,
R2_TR298,0,,317.8194064,103.265785,278.6417,323.1243046,104.9894509,273.9613,1,180,,,,,
R2_TR299,2,,316.5963678,106.956708,278.6417,321.8808515,108.7419811,273.9613,1,180,,,,,
R2_TR300,0,,315.330467,110.6331508,278.6417,320.5938209,112.4797894,273.9613,1,180,,,,,
R2_TR301,2,,314.0218755,114.2946156,278.6417,319.263387,116.2023698,273.9613,1,180,,,,,
R2_TR302,0,,312.6707705,117.9406068,278.6417,317.88973,119.9092182,273.9613,1,180,,,,,
R2_TR303,2,,311.2773349,121.5706306,278.6417,316.4730357,123.5998328,273.9613,1,180,,,,,
R2_TR304,0,,309.8417573,125.1841958,278.6417,315.0134961,127.2737139,273.9613,1,180,,,,,
R2_TR305,2,,308.3642321,128.7808131,278.6417,313.5113088,130.9303643,273.9613,1,180,,,,,
R2_TR306,0,,306.8449593,132.3599954,278.6417,311.966677,134.5692888,273.9613,1,180,,,,,
R2_TR307,2,,305.2841447,135.9212584,278.6417,310.3798099,138.1899947,273.9613,1,180,,,,,
R2_TR308,0,,303.6819994,139.4641198,278.6417,308.7509223,141.7919919,273.9613,1,180,,,,,
R2_TR309,2,,302.0387405,142.9880999,278.6417,307.0802348,145.3747928,273.9613,1,180,,,,,
R2_TR310,0,,300.3545903,146.4927218,278.6417,305.3679736,148.9379122,273.9613,1,180,,,,,
R2_TR311,2,,298.6297769,149.9775109,278.6417,303.6143704,152.4808679,273.9613,1,180,,,,,
R2_TR312,0,,296.8645339,153.4419955,278.6417,301.8196628,156.00318,273.9613,1,180,,,,,
R2_TR313,2,,295.0591001,156.8857064,278.6417,299.9840935,159.5043719,273.9613,1,180,,,,,
R2_TR314,0,,293.2137201,160.3081776,278.6417,298.1079112,162.9839694,273.9613,1,180,,,,,
R2_TR315,2,,291.3286436,163.7089456,278.6417,296.1913699,166.4415014,273.9613,1,180,,,,,
R2_TR316,0,,289.4041259,167.08755,278.6417,294.234729,169.8765,273.9613,1,180,,,,,
R2_TR317,2,,287.4404275,170.4435334,278.6417,292.2382534,173.2885,273.9613,1,180,,,,,
R2_TR318,0,,285.4378143,173.7764416,278.6417,290.2022135,176.6770395,273.9613,1,180,,,,,
R2_TR319,2,,283.3965573,177.0858231,278.6417,288.1268848,180.0416598,273.9613,1,180,,,,,
R2_TR320,0,,281.316933,180.3712301,278.6417,286.0125484,183.3819053,273.9613,1,180,,,,,
R2_TR321,2,,279.1992229,183.6322177,278.6417,283.8594904,186.6973238,273.9613,1,180,,,,,
R2_TR322,0,,277.0437137,186.8683444,278.6417,281.6680024,189.9874665,273.9613,1,180,,,,,
R2_TR323,2,,274.8506972,190.0791722,278.6417,279.438381,193.251888,273.9613,1,180,,,,,
R2_TR324,0,,272.6204703,193.2642663,278.6417,277.1709282,196.4901462,273.9613,1,180,,,,,
R2_TR325,2,,270.353335,196.4231955,278.6417,274.8659509,199.7018028,273.9613,1,180,,,,,
R2_TR326,0,,268.0495982,199.5555321,278.6417,272.5237611,202.886423,273.9613,1,180,,,,,
R2_TR327,2,,265.7095717,202.6608521,278.6417,270.144676,206.0435756,273.9613,1,180,,,,,
R2_TR328,0,,263.3335724,205.7387351,278.6417,267.7290176,209.1728332,273.9613,1,180,,,,,
R2_TR329,2,,260.9219219,208.7887643,278.6417,265.2771129,212.2737722,273.9613,1,180,,,,,
R2_TR330,0,,258.4749468,211.8105269,278.6417,262.789294,215.3459727,273.9613,1,180,,,,,
R2_TR331,2,,255.9929784,214.8036137,278.6417,260.2658977,218.3890188,273.9613,1,180,,,,,
R2_TR332,0,,253.4763526,217.7676196,278.6417,257.7072655,221.4024985,273.9613,1,180,,,,,
R2_TR333,2,,250.9254101,220.7021432,278.6417,255.1137438,224.3860038,273.9613,1,180,,,,,
R2_TR334,0,,248.3404964,223.6067873,278.6417,252.4856839,227.3391309,273.9613,1,180,,,,,
R2_TR335,2,,245.7219613,226.4811586,278.6417,249.8234414,230.2614799,273.9613,1,180,,,,,
R2_TR336,0,,243.0701594,229.324868,278.6417,247.1273768,233.1526552,273.9613,1,180,,,,,
R2_TR337,2,,240.3854497,232.1375304,278.6417,244.3978552,236.0122653,273.9613,1,180,,,,,
R2_TR338,0,,237.6681957,234.9187652,278.6417,241.635246,238.8399232,273.9613,1,180,,,,,
R2_TR339,2,,234.9187652,237.6681957,278.6417,238.8399232,241.635246,273.9613,1,180,,,,,
R2_TR340,0,,232.1375304,240.3854497,278.6417,236.0122653,244.3978552,273.9613,1,180,,,,,
R2_TR341,2,,229.324868,243.0701594,278.6417,233.1526552,247.1273768,273.9613,1,180,,,,,
R2_TR342,0,,226.4811586,245.7219613,278.6417,230.2614799,249.8234414,273.9613,1,180,,,,,
R2_TR343,2,,223.6067873,248.3404964,278.6417,227.3391309,252.4856839,273.9613,1,180,,,,,
R2_TR344,0,,220.7021432,250.9254101,278.6417,224.3860038,255.1137438,273.9613,1,180,,,,,
R2_TR345,2,,217.7676196,253.4763526,278.6417,221.4024985,257.7072655,273.9613,1,180,,,,,
R2_TR346,0,,214.8036137,255.9929784,278.6417,218.3890188,260.2658977,273.9613,1,180,,,,,
R2_TR347,2,,211.8105269,258.4749468,278.6417,215.3459727,262.789294,273.9613,1,180,,,,,
R2_TR348,0,,208.7887643,260.9219219,278.6417,212.2737722,265.2771129,273.9613,1,180,,,,,
R2_TR349,2,,205.7387351,263.3335724,278.6417,209.1728332,267.7290176,273.9613,1,180,,,,,
R2_TR350,0,,202.6608521,265.7095717,278.6417,206.0435756,270.144676,273.9613,1,180,,,,,
R2_TR351,2,,199.5555321,268.0495982,278.6417,202.886423,272.5237611,273.9613,1,180,,,,,
R2_TR352,0,,196.4231955,270.353335,278.6417,199.7018028,274.8659509,273.9613,1,180,,,,,
R2_TR353,2,,193.2642663,272.6204703,278.6417,196.4901462,277.1709282,273.9613,1,180,,,,,
R2_TR354,0,,190.0791722,274.8506972,278.6417,193.251888,279.438381,273.9613,1,180,,,,,
R2_TR355,2,,186.8683444,277.0437137,278.6417,189.9874665,281.6680024,273.9613,1,180,,,,,
R2_TR356,0,,183.6322177,279.1992229,278.6417,186.6973238,283.8594904,273.9613,1,180,,,,,
R2_TR357,2,,180.3712301,281.316933,278.6417,183.3819053,286.0125484,273.9613,1,180,,,,,
R2_TR358,0,,177.0858231,283.3965573,278.6417,180.0416598,288.1268848,273.9613,1,180,,,,,
R2_TR359,2,,173.7764416,285.4378143,278.6417,176.6770395,290.2022135,273.9613,1,180,,,,,
R2_TR360,0,,170.4435334,287.4404275,278.6417,173.2885,292.2382534,273.9613,1,180,,,,,
R2_TR361,2,,167.08755,289.4041259,278.6417,169.8765,294.234729,273.9613,1,180,,,,,
R2_TR362,0,,163.7089456,291.3286436,278.6417,166.4415014,296.1913699,273.9613,1,180,,,,,
R2_TR363,2,,160.3081776,293.2137201,278.6417,162.9839694,298.1079112,273.9613,1,180,,,,,
R2_TR364,0,,156.8857064,295.0591001,278.6417,159.5043719,299.9840935,273.9613,1,180,,,,,
R2_TR365,2,,153.4419955,296.8645339,278.6417,156.00318,301.8196628,273.9613,1,180,,,,,
R2_TR366,0,,149.9775109,298.6297769,278.6417,152.4808679,303.6143704,273.9613,1,180,,,,,
R2_TR367,2,,146.4927218,300.3545903,278.6417,148.9379122,305.3679736,273.9613,1,180,,,,,
R2_TR368,0,,142.9880999,302.0387405,278.6417,145.3747928,307.0802348,273.9613,1,180,,,,,
R2_TR369,2,,139.4641198,303.6819994,278.6417,141.7919919,308.7509223,273.9613,1,180,,,,,
R2_TR370,0,,135.9212584,305.2841447,278.6417,138.1899947,310.3798099,273.9613,1,180,,,,,
R2_TR371,2,,132.3599954,306.8449593,278.6417,134.5692888,311.966677,273.9613,1,180,,,,,
R2_TR372,0,,128.7808131,308.3642321,278.6417,130.9303643,313.5113088,273.9613,1,180,,,,,
R2_TR373,2,,125.1841958,309.8417573,278.6417,127.2737139,315.0134961,273.9613,1,180,,,,,
R2_TR374,0,,121.5706306,311.2773349,278.6417,123.5998328,316.4730357,273.9613,1,180,,,,,
R2_TR375,2,,117.9406068,312.6707705,278.6417,119.9092182,317.88973,273.9613,1,180,,,,,
R2_TR376,0,,114.2946156,314.0218755,278.6417,116.2023698,319.263387,273.9613,1,180,,,,,
R2_TR377,2,,110.6331508,315.330467,278.6417,112.4797894,320.5938209,273.9613,1,180,,,,,
R2_TR378,0,,106.956708,316.5963678,278.6417,108.7419811,321.8808515,273.9613,1,180,,,,,
R2_TR379,2,,103.265785,317.8194064,278.6417,104.9894509,323.1243046,273.9613,1,180,,,,,
R2_TR380,0,,99.56088146,318.9994175,278.6417,101.2227068,324.3240118,273.9613,1,180,,,,,
R2_TR381,2,,95.84249897,320.1362411,278.6417,97.44225872,325.4798108,273.9613,1,180,,,,,
R2_TR382,0,,92.11114094,321.2297234,278.6417,93.64861855,326.591545,273.9613,1,180,,,,,
R2_TR383,2,,88.36731254,322.2797163,278.6417,89.84229985,327.6590639,273.9613,1,180,,,,,
R2_TR384,0,,84.61152062,323.2860777,278.6417,86.02381795,328.6822231,273.9613,1,180,,,,,
R2_TR385,2,,80.84427365,324.2486714,278.6417,82.1936898,329.6608839,273.9613,1,180,,,,,
R2_TR386,0,,77.06608167,325.1673669,278.6417,78.35243393,330.5949139,273.9613,1,180,,,,,
R2_TR387,2,,73.27745617,326.04204,278.6417,74.5005704,331.4841867,273.9613,1,180,,,,,
R2_TR388,0,,69.47891007,326.8725723,278.6417,70.63862069,332.3285818,273.9613,1,180,,,,,
R2_TR389,2,,65.67095764,327.6588512,278.6417,66.76710764,333.1279849,273.9613,1,180,,,,,
R2_TR390,0,,61.85411442,328.4007704,278.6417,62.88655539,333.8822879,273.9613,1,180,,,,,
R2_TR391,2,,58.02889714,329.0982293,278.6417,58.99748931,334.5913885,273.9613,1,180,,,,,
R2_TR392,0,,54.19582367,329.7511337,278.6417,55.10043591,335.2551908,273.9613,1,180,,,,,
R2_TR393,2,,50.35541296,330.359395,278.6417,51.19592279,335.8736049,273.9613,1,180,,,,,
R2_TR394,0,,46.50818493,330.9229309,278.6417,47.28447857,336.4465472,273.9613,1,180,,,,,
R2_TR395,2,,42.65466044,331.4416652,278.6417,43.36663279,336.9739399,273.9613,1,180,,,,,
R2_TR396,0,,38.79536119,331.9155275,278.6417,39.44291585,337.4557118,273.9613,1,180,,,,,
R2_TR397,2,,34.93080967,332.3444538,278.6417,35.51385898,337.8917975,273.9613,1,180,,,,,
R2_TR398,0,,31.06152907,332.728386,278.6417,31.5799941,338.2821381,273.9613,1,180,,,,,
R2_TR399,2,,27.18804324,333.0672721,278.6417,27.64185379,338.6266808,273.9613,1,180,,,,,
R2_TR400,0,,23.31087659,333.3610663,278.6417,23.69997122,338.9253788,273.9613,1,180,,,,,
R2_TR401,2,,19.43055402,333.6097286,278.6417,19.75488006,339.1781917,273.9613,1,180,,,,,
R2_TR402,0,,15.54760086,333.8132256,278.6417,15.8071144,339.3850853,273.9613,1,180,,,,,
R2_TR403,2,,11.6625428,333.9715296,278.6417,11.8572087,339.5460317,273.9613,1,180,,,,,
R2_TR404,0,,7.775905823,334.0846191,278.6417,7.905697735,339.6610089,273.9613,1,180,,,,,
R2_TR405,2,,3.888216113,334.152479,278.6417,3.953116462,339.7300014,273.9613,1,180,,,,,
R2_TR406,0,,6.29E-12,334.1751,278.6417,6.40E-12,339.753,273.9613,1,180,,,,,
R2_TR407,2,,-3.888216113,334.152479,278.6417,-3.953116462,339.7300014,273.9613,1,180,,,,,
R2_TR408,0,,-7.775905823,334.0846191,278.6417,-7.905697735,339.6610089,273.9613,1,180,,,,,
R2_TR409,2,,-11.6625428,333.9715296,278.6417,-11.8572087,339.5460317,273.9613,1,180,,,,,
R2_TR410,0,,-15.54760086,333.8132256,278.6417,-15.8071144,339.3850853,273.9613,1,180,,,,,
R2_TR411,2,,-19.43055402,333.6097286,278.6417,-19.75488006,339.1781917,273.9613,1,180,,,,,
R2_TR412,0,,-23.31087659,333.3610663,278.6417,-23.69997122,338.9253788,273.9613,1,180,,,,,
R2_TR413,2,,-27.18804324,333.0672721,278.6417,-27.64185379,338.6266808,273.9613,1,180,,,,,
R2_TR414,0,,-31.06152907,332.728386,278.6417,-31.5799941,338.2821381,273.9613,1,180,,,,,
R2_TR415,2,,-34.93080967,332.3444538,278.6417,-35.51385898,337.8917975,273.9613,1,180,,,,,
R2_TR416,0,,-38.79536119,331.9155275,278.6417,-39.44291585,337.4557118,273.9613,1,180,,,,,
R2_TR417,2,,-42.65466044,331.4416652,278.6417,-43.36663279,336.9739399,273.9613,1,180,,,,,
R2_TR418,0,,-46.50818493,330.9229309,278.6417,-47.28447857,336.4465472,273.9613,1,180,,,,,
R2_TR419,2,,-50.35541296,330.359395,278.6417,-51.19592279,335.8736049,273.9613,1,180,,,,,
R2_TR420,0,,-54.19582367,329.7511337,278.6417,-55.10043591,335.2551908,273.9613,1,180,,,,,
R2_TR421,2,,-58.02889714,329.0982293,278.6417,-58.99748931,334.5913885,273.9613,1,180,,,,,
R2_TR422,0,,-61.85411442,328.4007704,278.6417,-62.88655539,333.8822879,273.9613,1,180,,,,,
R2_TR423,2,,-65.67095764,327.6588512,278.6417,-66.76710764,333.1279849,273.9613,1,180,,,,,
R2_TR424,0,,-69.47891007,326.8725723,278.6417,-70.63862069,332.3285818,273.9613,1,180,,,,,
R2_TR425,2,,-73.27745617,326.04204,278.6417,-74.5005704,331.4841867,273.9613,1,180,,,,,
R2_TR426,0,,-77.06608167,325.1673669,278.6417,-78.35243393,330.5949139,273.9613,1,180,,,,,
R2_TR427,2,,-80.84427365,324.2486714,278.6417,-82.1936898,329.6608839,273.9613,1,180,,,,,
R2_TR428,0,,-84.61152062,323.2860777,278.6417,-86.02381795,328.6822231,273.9613,1,180,,,,,
R2_TR429,2,,-88.36731254,322.2797163,278.6417,-89.84229985,327.6590639,273.9613,1,180,,,,,
R2_TR430,0,,-92.11114094,321.2297234,278.6417,-93.64861855,326.591545,273.9613,1,180,,,,,
R2_TR431,2,,-95.84249897,320.1362411,278.6417,-97.44225872,325.4798108,273.9613,1,180,,,,,
R2_TR432,0,,-99.56088146,318.9994175,278.6417,-101.2227068,324.3240118,273.9613,1,180,,,,,
R2_TR433,2,,-103.265785,317.8194064,278.6417,-104.9894509,323.1243046,273.9613,1,180,,,,,
R2_TR434,0,,-106.956708,316.5963678,278.6417,-108.7419811,321.8808515,273.9613,1,180,,,,,
R2_TR435,2,,-110.6331508,315.330467,278.6417,-112.4797894,320.5938209,273.9613,1,180,,,,,
R2_TR436,0,,-114.2946156,314.0218755,278.6417,-116.2023698,319.263387,273.9613,1,180,,,,,
R2_TR437,2,,-117.9406068,312.6707705,278.6417,-119.9092182,317.88973,273.9613,1,180,,,,,
R2_TR438,0,,-121.5706306,311.2773349,278.6417,-123.5998328,316.4730357,273.9613,1,180,,,,,
R2_TR439,2,,-125.1841958,309.8417573,278.6417,-127.2737139,315.0134961,273.9613,1,180,,,,,
R2_TR440,0,,-128.7808131,308.3642321,278.6417,-130.9303643,313.5113088,273.9613,1,180,,,,,
R2_TR441,2,,-132.3599954,306.8449593,278.6417,-134.5692888,311.966677,273.9613,1,180,,,,,
R2_TR442,0,,-135.9212584,305.2841447,278.6417,-138.1899947,310.3798099,273.9613,1,180,,,,,
R2_TR443,2,,-139.4641198,303.6819994,278.6417,-141.7919919,308.7509223,273.9613,1,180,,,,,
R2_TR444,0,,-142.9880999,302.0387405,278.6417,-145.3747928,307.0802348,273.9613,1,180,,,,,
R2_TR445,2,,-146.4927218,300.3545903,278.6417,-148.9379122,305.3679736,273.9613,1,180,,,,,
R2_TR446,0,,-149.9775109,298.6297769,278.6417,-152.4808679,303.6143704,273.9613,1,180,,,,,
R2_TR447,2,,-153.4419955,296.8645339,278.6417,-156.00318,301.8196628,273.9613,1,180,,,,,
R2_TR448,0,,-156.8857064,295.0591001,278.6417,-159.5043719,299.9840935,273.9613,1,180,,,,,
R2_TR449,2,,-160.3081776,293.2137201,278.6417,-162.9839694,298.1079112,273.9613,1,180,,,,,
R2_TR450,0,,-163.7089456,291.3286436,278.6417,-166.4415014,296.1913699,273.9613,1,180,,,,,
R2_TR451,2,,-167.08755,289.4041259,278.6417,-169.8765,294.234729,273.9613,1,180,,,,,
R2_TR452,0,,-170.4435334,287.4404275,278.6417,-173.2885,292.2382534,273.9613,1,180,,,,,
R2_TR453,2,,-173.7764416,285.4378143,278.6417,-176.6770395,290.2022135,273.9613,1,180,,,,,
R2_TR454,0,,-177.0858231,283.3965573,278.6417,-180.0416598,288.1268848,273.9613,1,180,,,,,
R2_TR455,2,,-180.3712301,281.316933,278.6417,-183.3819053,286.0125484,273.9613,1,180,,,,,
R2_TR456,0,,-183.6322177,279.1992229,278.6417,-186.6973238,283.8594904,273.9613,1,180,,,,,
R2_TR457,2,,-186.8683444,277.0437137,278.6417,-189.9874665,281.6680024,273.9613,1,180,,,,,
R2_TR458,0,,-190.0791722,274.8506972,278.6417,-193.251888,279.438381,273.9613,1,180,,,,,
R2_TR459,2,,-193.2642663,272.6204703,278.6417,-196.4901462,277.1709282,273.9613,1,180,,,,,
R2_TR460,0,,-196.4231955,270.353335,278.6417,-199.7018028,274.8659509,273.9613,1,180,,,,,
R2_TR461,2,,-199.5555321,268.0495982,278.6417,-202.886423,272.5237611,273.9613,1,180,,,,,
R2_TR462,0,,-202.6608521,265.7095717,278.6417,-206.0435756,270.144676,273.9613,1,180,,,,,
R2_TR463,2,,-205.7387351,263.3335724,278.6417,-209.1728332,267.7290176,273.9613,1,180,,,,,
R2_TR464,0,,-208.7887643,260.9219219,278.6417,-212.2737722,265.2771129,273.9613,1,180,,,,,
R2_TR465,2,,-211.8105269,258.4749468,278.6417,-215.3459727,262.789294,273.9613,1,180,,,,,
R2_TR466,0,,-214.8036137,255.9929784,278.6417,-218.3890188,260.2658977,273.9613,1,180,,,,,
R2_TR467,2,,-217.7676196,253.4763526,278.6417,-221.4024985,257.7072655,273.9613,1,180,,,,,
R2_TR468,0,,-220.7021432,250.9254101,278.6417,-224.3860038,255.1137438,273.9613,1,180,,,,,
R2_TR469,2,,-223.6067873,248.3404964,278.6417,-227.3391309,252.4856839,273.9613,1,180,,,,,
R2_TR470,0,,-226.4811586,245.7219613,278.6417,-230.2614799,249.8234414,273.9613,1,180,,,,,
R2_TR471,2,,-229.324868,243.0701594,278.6417,-233.1526552,247.1273768,273.9613,1,180,,,,,
R2_TR472,0,,-232.1375304,240.3854497,278.6417,-236.0122653,244.3978552,273.9613,1,180,,,,,
R2_TR473,2,,-234.9187652,237.6681957,278.6417,-238.8399232,241.635246,273.9613,1,180,,,,,
R2_TR474,0,,-237.6681957,234.9187652,278.6417,-241.635246,238.8399232,273.9613,1,180,,,,,
R2_TR475,2,,-240.3854497,232.1375304,278.6417,-244.3978552,236.0122653,273.9613,1,180,,,,,
R2_TR476,0,,-243.0701594,229.324868,278.6417,-247.1273768,233.1526552,273.9613,1,180,,,,,
R2_TR477,2,,-245.7219613,226.4811586,278.6417,-249.8234414,230.2614799,273.9613,1,180,,,,,
R2_TR478,0,,-248.3404964,223.6067873,278.6417,-252.4856839,227.3391309,273.9613,1,180,,,,,
R2_TR479,2,,-250.9254101,220.7021432,278.6417,-255.1137438,224.3860038,273.9613,1,180,,,,,
R2_TR480,0,,-253.4763526,217.7676196,278.6417,-257.7072655,221.4024985,273.9613,1,180,,,,,
R2_TR481,2,,-255.9929784,214.8036137,278.6417,-260.2658977,218.3890188,273.9613,1,180,,,,,
R2_TR482,0,,-258.4749468,211.8105269,278.6417,-262.789294,215.3459727,273.9613,1,180,,,,,
R2_TR483,2,,-260.9219219,208.7887643,278.6417,-265.2771129,212.2737722,273.9613,1,180,,,,,
R2_TR484,0,,-263.3335724,205.7387351,278.6417,-267.7290176,209.1728332,273.9613,1,180,,,,,
R2_TR485,2,,-265.7095717,202.6608521,278.6417,-270.144676,206.0435756,273.9613,1,180,,,,,
R2_TR486,0,,-268.0495982,199.5555321,278.6417,-272.5237611,202.886423,273.9613,1,180,,,,,
R2_TR487,2,,-270.353335,196.4231955,278.6417,-274.8659509,199.7018028,273.9613,1,180,,,,,
R2_TR488,0,,-272.6204703,193.2642663,278.6417,-277.1709282,196.4901462,273.9613,1,180,,,,,
R2_TR489,2,,-274.8506972,190.0791722,278.6417,-279.438381,193.251888,273.9613,1,180,,,,,
R2_TR490,0,,-277.0437137,186.8683444,278.6417,-281.6680024,189.9874665,273.9613,1,180,,,,,
R2_TR491,2,,-279.1992229,183.6322177,278.6417,-283.8594904,186.6973238,273.9613,1,180,,,,,
R2_TR492,0,,-281.316933,180.3712301,278.6417,-286.0125484,183.3819053,273.9613,1,180,,,,,
R2_TR493,2,,-283.3965573,177.0858231,278.6417,-288.1268848,180.0416598,273.9613,1,180,,,,,
R2_TR494,0,,-285.4378143,173.7764416,278.6417,-290.2022135,176.6770395,273.9613,1,180,,,,,
R2_TR495,2,,-287.4404275,170.4435334,278.6417,-292.2382534,173.2885,273.9613,1,180,,,,,
R2_TR496,0,,-289.4041259,167.08755,278.6417,-294.234729,169.8765,273.9613,1,180,,,,,
R2_TR497,2,,-291.3286436,163.7089456,278.6417,-296.1913699,166.4415014,273.9613,1,180,,,,,
R2_TR498,0,,-293.2137201,160.3081776,278.6417,-298.1079112,162.9839694,273.9613,1,180,,,,,
R2_TR499,2,,-295.0591001,156.8857064,278.6417,-299.9840935,159.5043719,273.9613,1,180,,,,,
R2_TR500,0,,-296.8645339,153.4419955,278.6417,-301.8196628,156.00318,273.9613,1,180,,,,,
R2_TR501,2,,-298.6297769,149.9775109,278.6417,-303.6143704,152.4808679,273.9613,1,180,,,,,
R2_TR502,0,,-300.3545903,146.4927218,278.6417,-305.3679736,148.9379122,273.9613,1,180,,,,,
R2_TR503,2,,-302.0387405,142.9880999,278.6417,-307.0802348,145.3747928,273.9613,1,180,,,,,
R2_TR504,0,,-303.6819994,139.4641198,278.6417,-308.7509223,141.7919919,273.9613,1,180,,,,,
R2_TR505,2,,-305.2841447,135.9212584,278.6417,-310.3798099,138.1899947,273.9613,1,180,,,,,
R2_TR506,0,,-306.8449593,132.3599954,278.6417,-311.966677,134.5692888,273.9613,1,180,,,,,
R2_TR507,2,,-308.3642321,128.7808131,278.6417,-313.5113088,130.9303643,273.9613,1,180,,,,,
R2_TR508,0,,-309.8417573,125.1841958,278.6417,-315.0134961,127.2737139,273.9613,1,180,,,,,
R2_TR509,2,,-311.2773349,121.5706306,278.6417,-316.4730357,123.5998328,273.9613,1,180,,,,,
R2_TR510,0,,-312.6707705,117.9406068,278.6417,-317.88973,119.9092182,273.9613,1,180,,,,,
R2_TR511,2,,-314.0218755,114.2946156,278.6417,-319.263387,116.2023698,273.9613,1,180,,,,,
R2_TR512,0,,-315.330467,110.6331508,278.6417,-320.5938209,112.4797894,273.9613,1,180,,,,,
R2_TR513,2,,-316.5963678,106.956708,278.6417,-321.8808515,108.7419811,273.9613,1,180,,,,,
R2_TR514,0,,-317.8194064,103.265785,278.6417,-323.1243046,104.9894509,273.9613,1,180,,,,,
R2_TR515,2,,-318.9994175,99.56088146,278.6417,-324.3240118,101.2227068,273.9613,1,180,,,,,
R2_TR516,0,,-320.1362411,95.84249897,278.6417,-325.4798108,97.44225872,273.9613,1,180,,,,,
R2_TR517,2,,-321.2297234,92.11114094,278.6417,-326.591545,93.64861855,273.9613,1,180,,,,,
R2_TR518,0,,-322.2797163,88.36731254,278.6417,-327.6590639,89.84229985,273.9613,1,180,,,,,
R2_TR519,2,,-323.2860777,84.61152062,278.6417,-328.6822231,86.02381795,273.9613,1,180,,,,,
R2_TR520,0,,-324.2486714,80.84427365,278.6417,-329.6608839,82.1936898,273.9613,1,180,,,,,
R2_TR521,2,,-325.1673669,77.06608167,278.6417,-330.5949139,78.35243393,273.9613,1,180,,,,,
R2_TR522,0,,-326.04204,73.27745617,278.6417,-331.4841867,74.5005704,273.9613,1,180,,,,,
R2_TR523,2,,-326.8725723,69.47891007,278.6417,-332.3285818,70.63862069,273.9613,1,180,,,,,
R2_TR524,0,,-327.6588512,65.67095764,278.6417,-333.1279849,66.76710764,273.9613,1,180,,,,,
R2_TR525,2,,-328.4007704,61.85411442,278.6417,-333.8822879,62.88655539,273.9613,1,180,,,,,
R2_TR526,0,,-329.0982293,58.02889714,278.6417,-334.5913885,58.99748931,273.9613,1,180,,,,,
R2_TR527,2,,-329.7511337,54.19582367,278.6417,-335.2551908,55.10043591,273.9613,1,180,,,,,
R2_TR528,0,,-330.359395,50.35541296,278.6417,-335.8736049,51.19592279,273.9613,1,180,,,,,
R2_TR529,2,,-330.9229309,46.50818493,278.6417,-336.4465472,47.28447857,273.9613,1,180,,,,,
R2_TR530,0,,-331.4416652,42.65466044,278.6417,-336.9739399,43.36663279,273.9613,1,180,,,,,
R2_TR531,2,,-331.9155275,38.79536119,278.6417,-337.4557118,39.44291585,273.9613,1,180,,,,,
R2_TR532,0,,-332.3444538,34.93080967,278.6417,-337.8917975,35.51385898,273.9613,1,180,,,,,
R2_TR533,2,,-332.728386,31.06152907,278.6417,-338.2821381,31.5799941,273.9613,1,180,,,,,
R2_TR534,0,,-333.0672721,27.18804324,278.6417,-338.6266808,27.64185379,273.9613,1,180,,,,,
R2_TR535,2,,-333.3610663,23.31087659,278.6417,-338.9253788,23.69997122,273.9613,1,180,,,,,
R2_TR536,0,,-333.6097286,19.43055402,278.6417,-339.1781917,19.75488006,273.9613,1,180,,,,,
R2_TR537,2,,-333.8132256,15.54760086,278.6417,-339.3850853,15.8071144,273.9613,1,180,,,,,
R2_TR538,0,,-333.9715296,11.6625428,278.6417,-339.5460317,11.8572087,273.9613,1,180,,,,,
R2_TR539,2,,-334.0846191,7.775905823,278.6417,-339.6610089,7.905697735,273.9613,1,180,,,,,
R2_TR540,0,,-334.152479,3.888216113,278.6417,-339.7300014,3.953116462,273.9613,1,180,,,,,
