X PROBE RADIUS ##CA30 = 1.20518
Y PROBE RADIUS ##CA31 = 1.19791
Z PROBE RADIUS ##CA32 = 1.20154
X PROBE OFFSET ##CA35 = 393.828
Y PROBE OFFSET ##CA36 = -0.36792
Z PROBE OFFSET ##CA37 = 265.905
X TOOL OFFSET ##CA20  = -49.4077
Y TOOL OFFSET ##CA21  = 0.36792
Z TOOL OFFSET ##CA22  = -175.929
MEASURED WELL ECCENTRICITY  = 0
LOWERERROW X OFFSET  = -344.42
LOWERERROW Y OFFSET  = 0
LOWERERROW Z OFFSET  = -89.976
