X PROBE RADIUS ##CA30 = -0.00256348
Y PROBE RADIUS ##CA31 = 0.00146484
Z PROBE RADIUS ##CA32 = 1.20374
X PROBE OFFSET ##CA35 = 393.971
Y PROBE OFFSET ##CA36 = -0.785056
Z PROBE OFFSET ##CA37 = 265.319
X TOOL OFFSET ##CA20  = -49.5506
Y TOOL OFFSET ##CA21  = 0.785056
Z TOOL OFFSET ##CA22  = -175.343
MEASURED WELL ECCENTRICITY  = 0.00585938
LOWERERROW X OFFSET  = -344.42
LOWERERROW Y OFFSET  = 0
LOWERERROW Z OFFSET  = -89.976
