X PROBE RADIUS ##CA30 = 1.20847
Y PROBE RADIUS ##CA31 = 1.1979
Z PROBE RADIUS ##CA32 = 1.20319
X PROBE OFFSET ##CA35 = 393.971
Y PROBE OFFSET ##CA36 = -0.784324
Z PROBE OFFSET ##CA37 = 265.32
X TOOL OFFSET ##CA20  = -49.5506
Y TOOL OFFSET ##CA21  = 0.784324
Z TOOL OFFSET ##CA22  = -175.344
MEASURED WELL ECCENTRICITY  = 0.0109863
LOWERERROW X OFFSET  = -344.42
LOWERERROW Y OFFSET  = 0
LOWERERROW Z OFFSET  = -89.976
