feature,fit,x,y,z,b,c,status,rework
PAT A R1 H1,,121.9300,-204.3700,949.2500,120.5056,-15.8221
PAT A R1 H2,,122.9200,-190.0100,949.7500,118.1979,6.6285
PAT A R1 H3,,121.0600,-178.1900,948.7800,116.9121,6.8191
PAT A R1 H4,,119.2800,-166.4200,947.8600,115.8532,6.3494
PAT A R1 H5,,117.6200,-154.6300,947.0100,114.7756,5.9876
PAT A R1 H6,,116.1100,-142.8300,946.2400,113.6964,5.3908
PAT A R1 H7,,114.7300,-130.9900,945.5300,112.7560,4.9869
PAT A R1 H8,,113.4800,-119.1400,944.8900,111.8050,4.5894
PAT A R1 H9,,112.3400,-107.2800,944.3100,110.9944,4.0638
PAT A R1 H10,,111.3300,-95.4000,943.7900,110.2856,3.6330
PAT A R1 H11,,110.4400,-83.5100,943.3400,109.5887,3.1384
PAT A R1 H12,,109.6700,-71.6000,942.9500,109.0123,2.7369
PAT A R1 H13,,109.0100,-59.6900,942.6100,108.6202,2.2026
PAT A R1 H14,,108.4800,-47.7700,942.3400,108.1642,1.7489
PAT A R1 H15,,108.0600,-35.8400,942.1300,107.8849,1.3052
PAT A R1 H16,,107.7700,-23.9000,941.9800,107.6717,0.9380
PAT A R1 H17,,107.5900,-11.9700,941.8900,107.5010,0.4319
PAT A R1 H18,,107.5300,0.0000,941.8600,107.5015,0.0000
PAT A R1 H19,,107.5900,11.9700,941.8900,107.5010,-0.4319
PAT A R1 H20,,107.7700,23.9000,941.9800,107.6717,-0.9380
PAT A R1 H21,,108.0600,35.8400,942.1300,107.8849,-1.3052
PAT A R1 H22,,108.4800,47.7700,942.3400,108.1642,-1.7489
PAT A R1 H23,,109.0100,59.6900,942.6100,108.6202,-2.2026
PAT A R1 H24,,109.6700,71.6000,942.9500,109.0123,-2.7369
PAT A R1 H25,,110.4400,83.5100,943.3400,109.5887,-3.1384
PAT A R1 H26,,111.3300,95.4000,943.7900,110.2856,-3.6330
PAT A R1 H27,,112.3400,107.2800,944.3100,110.9944,-4.0638
PAT A R1 H28,,113.4800,119.1400,944.8900,111.8050,-4.5894
PAT A R1 H29,,114.7300,130.9900,945.5300,112.7560,-4.9869
PAT A R1 H30,,116.1100,142.8300,946.2400,113.6964,-5.3908
PAT A R1 H31,,117.6200,154.6300,947.0100,114.7756,-5.9876
PAT A R1 H32,,119.2800,166.4200,947.8600,115.8532,-6.3494
PAT A R1 H33,,121.0600,178.1900,948.7800,116.9121,-6.8191
PAT A R1 H34,,122.9200,190.0100,949.7500,118.1979,-6.6285
PAT A R1 H35,,121.9300,204.3700,949.2500,120.5056,15.8221
PAT A R2 H1,,119.8500,-210.9600,942.2600,123.7768,-28.4392
PAT A R2 H2,,124.1500,-197.6100,944.3700,119.8067,-5.5936
PAT A R2 H3,,123.1100,-184.4900,943.8500,118.1967,6.6592
PAT A R2 H4,,121.3200,-172.6700,942.9600,117.0213,6.5819
PAT A R2 H5,,119.6300,-160.8800,942.1300,115.8686,6.0386
PAT A R2 H6,,118.0700,-149.0600,941.3800,114.7512,5.5156
PAT A R2 H7,,116.6500,-137.2200,940.7000,113.6318,5.0018
PAT A R2 H8,,115.3500,-125.3500,940.0800,112.5872,4.5885
PAT A R2 H9,,114.1600,-113.4700,939.5100,111.7664,4.1051
PAT A R2 H10,,113.1000,-101.5700,939.0100,110.9424,3.7176
PAT A R2 H11,,112.1500,-89.6600,938.5700,110.1198,3.2448
PAT A R2 H12,,111.3100,-77.7300,938.1800,109.5113,2.8759
PAT A R2 H13,,110.6000,-65.8000,937.8400,109.0359,2.3264
PAT A R2 H14,,110.0000,-53.8500,937.5700,108.5051,1.9626
PAT A R2 H15,,109.5300,-41.9000,937.3500,108.1349,1.5121
PAT A R2 H16,,109.1700,-29.9400,937.1800,107.8706,1.0658
PAT A R2 H17,,108.9300,-17.9800,937.0700,107.6858,0.6208
PAT A R2 H18,,108.8100,-6.0100,937.0100,107.6060,0.2661
PAT A R2 H19,,108.8100,6.0100,937.0100,107.6060,-0.2661
PAT A R2 H20,,108.9300,17.9800,937.0700,107.6858,-0.6208
PAT A R2 H21,,109.1700,29.9400,937.1800,107.8706,-1.0658
PAT A R2 H22,,109.5300,41.9000,937.3500,108.1349,-1.5121
PAT A R2 H23,,110.0000,53.8500,937.5700,108.5051,-1.9626
PAT A R2 H24,,110.6000,65.8000,937.8400,109.0359,-2.3264
PAT A R2 H25,,111.3100,77.7300,938.1800,109.5113,-2.8759
PAT A R2 H26,,112.1500,89.6600,938.5700,110.1198,-3.2448
PAT A R2 H27,,113.1000,101.5700,939.0100,110.9424,-3.7176
PAT A R2 H28,,114.1600,113.4700,939.5100,111.7664,-4.1051
PAT A R2 H29,,115.3500,125.3500,940.0800,112.5872,-4.5885
PAT A R2 H30,,116.6500,137.2200,940.7000,113.6318,-5.0018
PAT A R2 H31,,118.0700,149.0600,941.3800,114.7512,-5.5156
PAT A R2 H32,,119.6300,160.8800,942.1300,115.8686,-6.0386
PAT A R2 H33,,121.3200,172.6700,942.9600,117.0213,-6.5819
PAT A R2 H34,,123.1100,184.4900,943.8500,118.1967,-6.6592
PAT A R2 H35,,124.1500,197.6100,944.3700,119.8067,5.5936
PAT A R2 H36,,119.8500,210.9600,942.2600,123.7768,28.4392
PAT A R3 H1,,124.0200,-204.9000,937.4900,122.6705,-18.2754
PAT A R3 H2,,125.6900,-190.9200,938.2600,119.7731,4.2111
PAT A R3 H3,,124.0400,-178.9400,937.4500,118.3148,5.7010
PAT A R3 H4,,122.4000,-167.1000,936.6400,117.0698,5.4449
PAT A R3 H5,,120.8800,-155.2600,935.9000,115.9078,5.0065
PAT A R3 H6,,119.5000,-143.4100,935.2400,114.7498,4.4846
PAT A R3 H7,,118.2400,-131.5200,934.6400,113.6999,4.1647
PAT A R3 H8,,117.0900,-119.6200,934.1000,112.6867,3.7652
PAT A R3 H9,,116.0400,-107.7100,933.6200,111.7828,3.3772
PAT A R3 H10,,115.1100,-95.7800,933.1900,110.9566,2.9937
PAT A R3 H11,,114.2800,-83.8300,932.8200,110.1289,2.7049
PAT A R3 H12,,113.5600,-71.8800,932.4900,109.5989,2.3373
PAT A R3 H13,,112.9500,-59.9200,932.2200,109.0409,1.8793
PAT A R3 H14,,112.4500,-47.9500,931.9900,108.6164,1.5192
PAT A R3 H15,,112.0600,-35.9700,931.8200,108.2441,1.1582
PAT A R3 H16,,111.7800,-23.9900,931.7000,107.9784,0.8007
PAT A R3 H17,,111.6100,-12.0100,931.6200,107.8990,0.4448
PAT A R3 H18,,111.5600,0.0000,931.5900,107.8735,0.0000
PAT A R3 H19,,111.6100,12.0100,931.6200,107.8990,-0.4448
PAT A R3 H20,,111.7800,23.9900,931.7000,107.9784,-0.8007
PAT A R3 H21,,112.0600,35.9700,931.8200,108.2441,-1.1582
PAT A R3 H22,,112.4500,47.9500,931.9900,108.6164,-1.5192
PAT A R3 H23,,112.9500,59.9200,932.2200,109.0409,-1.8793
PAT A R3 H24,,113.5600,71.8800,932.4900,109.5989,-2.3373
PAT A R3 H25,,114.2800,83.8300,932.8200,110.1289,-2.7049
PAT A R3 H26,,115.1100,95.7800,933.1900,110.9566,-2.9937
PAT A R3 H27,,116.0400,107.7100,933.6200,111.7828,-3.3772
PAT A R3 H28,,117.0900,119.6200,934.1000,112.6867,-3.7652
PAT A R3 H29,,118.2400,131.5200,934.6400,113.6999,-4.1647
PAT A R3 H30,,119.5000,143.4100,935.2400,114.7498,-4.4846
PAT A R3 H31,,120.8800,155.2600,935.9000,115.9078,-5.0065
PAT A R3 H32,,122.4000,167.1000,936.6400,117.0698,-5.4449
PAT A R3 H33,,124.0400,178.9400,937.4500,118.3148,-5.7010
PAT A R3 H34,,125.6900,190.9200,938.2600,119.7731,-4.2111
PAT A R3 H35,,124.0200,204.9000,937.4900,122.6705,18.2754
