feature_name,Text,HoleDiameter,pos_tol,dia_tol,Xdev,Ydev,true_pos,dia_dev
0.6 O H1,SUCCESS,0.6,0.4,-1,0.114382,0.0412978,0.121609,
0.6 O H2,SUCCESS,0.6,0.4,-1,0.0707475,0.033419,0.0782435,
0.6 O H3,SUCCESS,0.6,0.4,-1,0.0564942,0.0400106,0.0692275,
0.6 O H4,SUCCESS,0.6,0.4,-1,0.0390649,0.0330717,0.051184,
0.6 O H5,SUCCESS,0.6,0.4,-1,0.0426738,0.0449931,0.0620115,
0.6 O H6,SUCCESS,0.6,0.4,-1,0.0504731,0.0408127,0.0649092,
0.6 O H7,SUCCESS,0.6,0.4,-1,0.0251012,0.0416481,0.0486275,
0.6 O H8,SUCCESS,0.6,0.4,-1,0.0375309,0.0369763,0.052686,
0.6 O H9,SUCCESS,0.6,0.4,-1,0.0388471,0.041383,0.0567596,
0.6 O H10,SUCCESS,0.6,0.4,-1,0.0348814,0.0383971,0.0518753,
0.6 O H11,SUCCESS,0.6,0.4,-1,0.0288084,0.027644,0.0399264,
0.6 O H12,SUCCESS,0.6,0.4,-1,0.0175061,0.0472287,0.0503688,
0.6 O H13,SUCCESS,0.6,0.4,-1,0.0447963,0.0276515,0.0526433,
0.6 O H14,SUCCESS,0.6,0.4,-1,0.0388873,0.0345013,0.0519862,
0.6 O H15,SUCCESS,0.6,0.4,-1,0.0222903,0.0236272,0.0324823,
0.6 O H16,SUCCESS,0.6,0.4,-1,0.0271289,0.0338947,0.0434146,
0.6 O H17,SUCCESS,0.6,0.4,-1,0.0598011,0.0255047,0.0650128,
0.6 O H18,SUCCESS,0.6,0.4,-1,0.0929696,0.0329651,0.098641,
0.6 O H19,SUCCESS,0.6,0.4,-1,0.0725865,0.0165708,0.074454,
,,,,,,,,
,,,,,,,,
,,,,,,,,
,,,,,,,,
,,,,,,,,
,,,,,,,,
,,,,,,,,
,,,,,,,,
,,,,,,,,
,,,,,,,,
,,,,,,,,
,,,,,,,,
,,,,,,,,
,,,,,,,,
,,,,,,,,
,,,,,,,,
,,,,,,,,
,,,,,,,,
,,,,,,,,
,,,,,,,,
,,,,,,,,
,,,,,,,,
,,,,,,,,
,,,,,,,,
,,,,,,,,
,,,,,,,,
,,,,,,,,
,,,,,,,,
,,,,,,,,
,,,,,,,,
,,,,,,,,
,,,,,,,,
,,,,,,,,
,,,,,,,,
,,,,,,,,
,,,,,,,,
,,,,,,,,
,,,,,,,,
,,,,,,,,
1.15 H1,SUCCESS,1.15,0.3,-1,-0.157185,0.00492637,0.157262,
1.15 H2,SUCCESS,1.15,0.3,-1,-0.0643921,0.0237711,0.0686397,
1.15 H3,SUCCESS,1.15,0.3,-1,0.0204941,0.0498714,0.0539181,
1.15 H4,SUCCESS,1.15,0.3,-1,0.0268336,0.0356465,0.0446174,
1.15 H5,SUCCESS,1.15,0.3,-1,-0.00584387,0.0301835,0.030744,
1.15 H6,SUCCESS,1.15,0.3,-1,0.000982246,0.0578889,0.0578972,
1.15 H7,SUCCESS,1.15,0.3,-1,0.0187456,0.00949401,0.0210127,
1.15 H8,SUCCESS,1.15,0.3,-1,0.0113583,0.0153287,0.0190783,
1.15 H9,SUCCESS,1.15,0.3,-1,0.0147881,0.0136069,0.0200957,
1.15 H10,SUCCESS,1.15,0.3,-1,0.0209372,0.0115849,0.0239286,
1.15 H11,SUCCESS,1.15,0.3,-1,0.0261116,0.0185064,0.0320047,
3.3 H1,SUCCESS,3.3,0.2,-1,0.0558297,-0.0146366,0.0577164,
3.3 H2,SUCCESS,3.3,0.2,-1,0.117828,-0.0303692,0.121679,
,,,,,,,,
,,,,,,,,
,,,,,,,,
,,,,,,,,
,,,,,,,,
,,,,,,,,
,,,,,,,,
,,,,,,,,
,,,,,,,,
,,,,,,,,
,,,,,,,,
,,,,,,,,
,,,,,,,,
,,,,,,,,
,,,,,,,,
,,,,,,,,
,,,,,,,,
,,,,,,,,
,,,,,,,,
,,,,,,,,
,,,,,,,,
,,,,,,,,
,,,,,,,,
,,,,,,,,
,,,,,,,,
,,,,,,,,
,,,,,,,,
,,,,,,,,
,,,,,,,,
,,,,,,,,
,,,,,,,,
,,,,,,,,
,,,,,,,,
,,,,,,,,
,,,,,,,,
,,,,,,,,
,,,,,,,,
,,,,,,,,
,,,,,,,,
