ACNCScriptFile 1
ACNCScriptFileName Mainstart
Interface

type
   procedure Main;

Implementation


Procedure Main;
var Tmp: Double;
    WasStowed: Boolean;
    WasHigh: Boolean;
    I: Integer;
begin
  while(1) do

//IO.ForceLoadActive:= 'C:\profiles\hsd6GT.V3\data\programs\AxisMoveAndToolLoad.opp';
for I:= 0 to 100 do

end
//IO.ForceLoadActive:= 'C:\profiles\hsd6GT.V3\data\programs\AxisMoveAndToolLoad1.opp';
for I:= 0 to 100 do

end

    Tmp:= IO.PU[0] - IO.StowA[6];
    IO.HeadStowed:= (Abs(Tmp) < 0.05);


    if (IO.NonBalluffReq and (IO.NonBaluffAck = 0)) then
      ToolLifeAddTool(IO.HypertacToolCode, IO.HypertacSerialNumber, 300, 300, 0, 0);
      IO.NonBaluffAck:= 1;
    end else
      IO.NonBaluffAck:= 0;
    end

    StrCopy(IO.PartID, IO.PartName);
    //IO.CycleTimeText:= IO.ACNCTimeRunning / 1000;
    //IO.EDMTimeText:= IO.FstSparkToDepth / 1000;
    IO.Head1PositionStr:= IO.IH1Position / 10000;
    IO.Head1FirstSparkStr:= IO.Head1FirstSparkPos / 10000;

    IO.UActualPosition:= IO.PU[2] + (IO.IH1Offset / 10000);
    if(IO.OPP_ToolIDString <> -1) then
      IO.InCorrectToolLoaded := StrCompare(IO.ToolInHead, IO.OPP_ToolIDString);
    end else
      IO.InCorrectToolLoaded := 0;
    end

    Tmp:= IO.I_CPOS_HI;
    Tmp:= Tmp + (IO.I_CPOS_LO / 1000);
    if(IO.I_REVERSE_C) then
      Tmp:= Tmp * -1;
    end
    IO.C_POSITION_INTL:= Tmp;

    Tmp:= IO.I_VPOS_HI;
    Tmp:= Tmp + (IO.I_VPOS_LO / 1000);
    if(IO.I_REVERSE_V) then
      Tmp:= Tmp * -1;
    end
    IO.V_POSITION_INTL:= Tmp;
  end
end


