feature,status,rework,X,Y,Z,I,J,K,Solution,AlignVector,AlignC,Xoff,Yoff,Zoff,Probe
R1_TR1,2,,,,,,,,,,,-0.04771016,,,
R1_TR2,2,,,,,,,,,,,-0.05360615,,,
R1_TR3,2,,,,,,,,,,,-0.05950214,,,
R1_TR4,2,,,,,,,,,,,-0.06539813,,,
R1_TR5,2,,,,,,,,,,,-0.07129412,,,
R1_TR6,2,,,,,,,,,,,-0.07719011,,,
R1_TR7,2,,,,,,,,,,,-0.0830861,,,
R1_TR8,2,,,,,,,,,,,-0.08898209,,,
R1_TR9,2,,,,,,,,,,,-0.09487808,,,
R1_TR10,2,,,,,,,,,,,-0.10077407,,,
R1_TR11,2,,,,,,,,,,,-0.10667006,,,
R1_TR12,2,,,,,,,,,,,-0.11256605,,,
R1_TR13,2,,,,,,,,,,,-0.11846204,,,
R1_TR14,2,,,,,,,,,,,-0.12435803,,,
R1_TR15,2,,,,,,,,,,,-0.13025402,,,
R1_TR16,2,,,,,,,,,,,-0.13615001,,,
R1_TR17,2,,,,,,,,,,,-0.142046,,,1
R1_TR18,2,,,,,,,,,,,-0.13435558,,,
R1_TR19,2,,,,,,,,,,,-0.12666516,,,
R1_TR20,2,,,,,,,,,,,-0.11897474,,,
R1_TR21,2,,,,,,,,,,,-0.11128432,,,
R1_TR22,2,,,,,,,,,,,-0.1035939,,,
R1_TR23,2,,,,,,,,,,,-0.09590348,,,
R1_TR24,2,,,,,,,,,,,-0.08821306,,,
R1_TR25,2,,,,,,,,,,,-0.08052264,,,
R1_TR26,2,,,,,,,,,,,-0.07283222,,,
R1_TR27,2,,,,,,,,,,,-0.0651418,,-0.09959,
R1_TR28,2,,,,,,,,,,,-0.05745138,,,
R1_TR29,2,,,,,,,,,,,-0.04976096,,,
R1_TR30,2,,,,,,,,,,,-0.04207054,,,
R1_TR31,2,,,,,,,,,,,-0.03438012,,,
R1_TR32,2,,,,,,,,,,,-0.0266897,,,
R1_TR33,2,,,,,,,,,,,-0.01899928,,,
R1_TR34,2,,,,,,,,,,,-0.01130886,,,
R1_TR35,2,,,,,,,,,,,-0.00361844000000001,,,
R1_TR36,2,,,,,,,,,,,0.00407197999999999,,,
R1_TR37,2,,,,,,,,,,,0.0117624,,,1
R1_TR38,2,,,,,,,,,,,0.0275658076923077,,,
R1_TR39,2,,,,,,,,,,,0.0433692153846154,,,
R1_TR40,2,,,,,,,,,,,0.0591726230769231,,,
R1_TR41,2,,,,,,,,,,,0.0749760307692308,,,
R1_TR42,2,,,,,,,,,,,0.0907794384615385,,,
R1_TR43,2,,,,,,,,,,,0.106582846153846,,,
R1_TR44,2,,,,,,,,,,,0.122386253846154,,,
R1_TR45,2,,,,,,,,,,,0.138189661538462,,,
R1_TR46,2,,,,,,,,,,,0.153993069230769,,,
R1_TR47,2,,,,,,,,,,,0.169796476923077,,,
R1_TR48,2,,,,,,,,,,,0.185599884615385,,,
R1_TR49,2,,,,,,,,,,,0.201403292307692,,,
R1_TR50,2,,,,,,,,,,,0.2172067,,,
R1_TR51,2,,,,,,,,,,,0.233010107692308,,,
R1_TR52,2,,,,,,,,,,,0.248813515384615,,,
R1_TR53,2,,,,,,,,,,,0.264616923076923,,,
R1_TR54,2,,,,,,,,,,,0.280420330769231,,,
R1_TR55,2,,,,,,,,,,,0.296223738461538,,,
R1_TR56,2,,,,,,,,,,,0.312027146153846,,,
R1_TR57,2,,,,,,,,,,,0.327830553846154,,,
R1_TR58,2,,,,,,,,,,,0.343633961538462,,,
R1_TR59,2,,,,,,,,,,,0.359437369230769,,,
R1_TR60,2,,,,,,,,,,,0.375240776923077,,,
R1_TR61,2,,,,,,,,,,,0.391044184615385,,,
R1_TR62,2,,,,,,,,,,,0.406847592307692,,,
R1_TR63,2,,,,,,,,,,,0.422651,,,1
R1_TR64,2,,,,,,,,,,,0.426470071428571,,,
R1_TR65,2,,,,,,,,,,,0.430289142857143,,,
R1_TR66,2,,,,,,,,,,,0.434108214285714,,,
R1_TR67,2,,,,,,,,,,,0.437927285714286,,,
R1_TR68,2,,,,,,,,,,,0.441746357142857,,,
R1_TR69,2,,,,,,,,,,,0.445565428571429,,,
R1_TR70,2,,,,,,,,,,,0.4493845,,,
R1_TR71,2,,,,,,,,,,,0.453203571428571,,,
R1_TR72,2,,,,,,,,,,,0.457022642857143,,,
R1_TR73,2,,,,,,,,,,,0.460841714285714,,,
R1_TR74,2,,,,,,,,,,,0.464660785714286,,,
R1_TR75,2,,,,,,,,,,,0.468479857142857,,,
R1_TR76,2,,,,,,,,,,,0.472298928571429,,0.0197948,
R1_TR77,2,,,,,,,,,,,0.476118,,,1
R1_TR78,2,,,,,,,,,,,0.4690135,,,
R1_TR79,2,,,,,,,,,,,0.461909,,,
R1_TR80,2,,,,,,,,,,,0.4548045,,,
R1_TR81,2,,,,,,,,,,,0.4477,,,
R1_TR82,2,,,,,,,,,,,0.4405955,,,
R1_TR83,2,,,,,,,,,,,0.433491,,,
R1_TR84,2,,,,,,,,,,,0.4263865,,,
R1_TR85,2,,,,,,,,,,,0.419282,,,
R1_TR86,2,,,,,,,,,,,0.4121775,,,
R1_TR87,2,,,,,,,,,,,0.405073,,,
R1_TR88,2,,,,,,,,,,,0.3979685,,,
R1_TR89,2,,,,,,,,,,,0.390864,,,
R1_TR90,2,,,,,,,,,,,0.3837595,,,
R1_TR91,2,,,,,,,,,,,0.376655,,,
R1_TR92,2,,,,,,,,,,,0.3695505,,,
R1_TR93,2,,,,,,,,,,,0.362446,,,
R1_TR94,2,,,,,,,,,,,0.3553415,,,
R1_TR95,2,,,,,,,,,,,0.348237,,,
R1_TR96,2,,,,,,,,,,,0.3411325,,,
R1_TR97,2,,,,,,,,,,,0.334028,,,1
R1_TR98,2,,,,,,,,,,,0.32058806,,,
R1_TR99,2,,,,,,,,,,,0.30714812,,,
R1_TR100,2,,,,,,,,,,,0.29370818,,,
R1_TR101,2,,,,,,,,,,,0.28026824,,,
R1_TR102,2,,,,,,,,,,,0.2668283,,,
R1_TR103,2,,,,,,,,,,,0.25338836,,,
R1_TR104,2,,,,,,,,,,,0.23994842,,,
R1_TR105,2,,,,,,,,,,,0.22650848,,,
R1_TR106,2,,,,,,,,,,,0.21306854,,,
R1_TR107,2,,,,,,,,,,,0.1996286,,,
R1_TR108,2,,,,,,,,,,,0.18618866,,,
R1_TR109,2,,,,,,,,,,,0.17274872,,,
R1_TR110,2,,,,,,,,,,,0.15930878,,,
R1_TR111,2,,,,,,,,,,,0.14586884,,,
R1_TR112,2,,,,,,,,,,,0.1324289,,,
R1_TR113,2,,,,,,,,,,,0.11898896,,,
R1_TR114,2,,,,,,,,,,,0.10554902,,,
R1_TR115,2,,,,,,,,,,,0.09210908,,,
R1_TR116,2,,,,,,,,,,,0.07866914,,,
R1_TR117,2,,,,,,,,,,,0.0652292,,,1
R1_TR118,2,,,,,,,,,,,0.05977266,,,
R1_TR119,2,,,,,,,,,,,0.05431612,,,
R1_TR120,2,,,,,,,,,,,0.04885958,,,
R1_TR121,2,,,,,,,,,,,0.04340304,,,
R1_TR122,2,,,,,,,,,,,0.0379465,,,
R1_TR123,2,,,,,,,,,,,0.03248996,,,
R1_TR124,2,,,,,,,,,,,0.02703342,,,
R1_TR125,2,,,,,,,,,,,0.02157688,,,
R1_TR126,2,,,,,,,,,,,0.01612034,,-0.0812794,
R1_TR127,2,,,,,,,,,,,0.0106638,,,
R1_TR128,2,,,,,,,,,,,0.00520726,,,
R1_TR129,2,,,,,,,,,,,-0.000249280000000001,,,
R1_TR130,2,,,,,,,,,,,-0.00570582,,,
R1_TR131,2,,,,,,,,,,,-0.01116236,,,
R1_TR132,2,,,,,,,,,,,-0.0166189,,,
R1_TR133,2,,,,,,,,,,,-0.02207544,,,
R1_TR134,2,,,,,,,,,,,-0.02753198,,,
R1_TR135,2,,,,,,,,,,,-0.03298852,,,
R1_TR136,2,,,,,,,,,,,-0.03844506,,,
R1_TR137,2,,,,,,,,,,,-0.0439016,,,1
R1_TR138,2,,,,,,,,,,,-0.0378731923076923,,,
R1_TR139,2,,,,,,,,,,,-0.0318447846153846,,,
R1_TR140,2,,,,,,,,,,,-0.0258163769230769,,,
R1_TR141,2,,,,,,,,,,,-0.0197879692307692,,,
R1_TR142,2,,,,,,,,,,,-0.0137595615384615,,,
R1_TR143,2,,,,,,,,,,,-0.00773115384615384,,,
R1_TR144,2,,,,,,,,,,,-0.00170274615384615,,,
R1_TR145,2,,,,,,,,,,,0.00432566153846154,,,
R1_TR146,2,,,,,,,,,,,0.0103540692307692,,,
R1_TR147,2,,,,,,,,,,,0.0163824769230769,,,
R1_TR148,2,,,,,,,,,,,0.0224108846153846,,,
R1_TR149,2,,,,,,,,,,,0.0284392923076923,,,
R1_TR150,2,,,,,,,,,,,0.0344677,,,
R1_TR151,2,,,,,,,,,,,0.0404961076923077,,,
R1_TR152,2,,,,,,,,,,,0.0465245153846154,,,
R1_TR153,2,,,,,,,,,,,0.0525529230769231,,,
R1_TR154,2,,,,,,,,,,,0.0585813307692308,,,
R1_TR155,2,,,,,,,,,,,0.0646097384615385,,,
R1_TR156,2,,,,,,,,,,,0.0706381461538462,,,
R1_TR157,2,,,,,,,,,,,0.0766665538461539,,,
R1_TR158,2,,,,,,,,,,,0.0826949615384615,,,
R1_TR159,2,,,,,,,,,,,0.0887233692307692,,,
R1_TR160,2,,,,,,,,,,,0.0947517769230769,,,
R1_TR161,2,,,,,,,,,,,0.100780184615385,,,
R1_TR162,2,,,,,,,,,,,0.106808592307692,,,
R1_TR163,2,,,,,,,,,,,0.112837,,,1
R1_TR164,2,,,,,,,,,,,0.119899642857143,,,
R1_TR165,2,,,,,,,,,,,0.126962285714286,,,
R1_TR166,2,,,,,,,,,,,0.134024928571429,,,
R1_TR167,2,,,,,,,,,,,0.141087571428571,,,
R1_TR168,2,,,,,,,,,,,0.148150214285714,,,
R1_TR169,2,,,,,,,,,,,0.155212857142857,,,
R1_TR170,2,,,,,,,,,,,0.1622755,,,
R1_TR171,2,,,,,,,,,,,0.169338142857143,,,
R1_TR172,2,,,,,,,,,,,0.176400785714286,,,
R1_TR173,2,,,,,,,,,,,0.183463428571429,,,
R1_TR174,2,,,,,,,,,,,0.190526071428571,,,
R1_TR175,2,,,,,,,,,,,0.197588714285714,,,
R1_TR176,2,,,,,,,,,,,0.204651357142857,,,
R1_TR177,2,,,,,,,,,,,0.211714,,-0.0732228,1
R1_TR178,2,,,,,,,,,,,0.21552255,,,
R1_TR179,2,,,,,,,,,,,0.2193311,,,
R1_TR180,2,,,,,,,,,,,0.22313965,,,
R1_TR181,2,,,,,,,,,,,0.2269482,,,
R1_TR182,2,,,,,,,,,,,0.23075675,,,
R1_TR183,2,,,,,,,,,,,0.2345653,,,
R1_TR184,2,,,,,,,,,,,0.23837385,,,
R1_TR185,2,,,,,,,,,,,0.2421824,,,
R1_TR186,2,,,,,,,,,,,0.24599095,,,
R1_TR187,2,,,,,,,,,,,0.2497995,,,
R1_TR188,2,,,,,,,,,,,0.25360805,,,
R1_TR189,2,,,,,,,,,,,0.2574166,,,
R1_TR190,2,,,,,,,,,,,0.26122515,,,
R1_TR191,2,,,,,,,,,,,0.2650337,,,
R1_TR192,2,,,,,,,,,,,0.26884225,,,
R1_TR193,2,,,,,,,,,,,0.2726508,,,
R1_TR194,2,,,,,,,,,,,0.27645935,,,
R1_TR195,2,,,,,,,,,,,0.2802679,,,
R1_TR196,2,,,,,,,,,,,0.28407645,,,
R1_TR197,2,,,,,,,,,,,0.287885,,,1
R1_TR198,2,,,,,,,,,,,0.2841863,,,
R1_TR199,2,,,,,,,,,,,0.2804876,,,
R1_TR200,2,,,,,,,,,,,0.2767889,,,
R1_TR201,2,,,,,,,,,,,0.2730902,,,
R1_TR202,2,,,,,,,,,,,0.2693915,,,
R1_TR203,2,,,,,,,,,,,0.2656928,,,
R1_TR204,2,,,,,,,,,,,0.2619941,,,
R1_TR205,2,,,,,,,,,,,0.2582954,,,
R1_TR206,2,,,,,,,,,,,0.2545967,,,
R1_TR207,2,,,,,,,,,,,0.250898,,,
R1_TR208,2,,,,,,,,,,,0.2471993,,,
R1_TR209,2,,,,,,,,,,,0.2435006,,,
R1_TR210,2,,,,,,,,,,,0.2398019,,,
R1_TR211,2,,,,,,,,,,,0.2361032,,,
R1_TR212,2,,,,,,,,,,,0.2324045,,,
R1_TR213,2,,,,,,,,,,,0.2287058,,,
R1_TR214,2,,,,,,,,,,,0.2250071,,,
R1_TR215,2,,,,,,,,,,,0.2213084,,,
R1_TR216,2,,,,,,,,,,,0.2176097,,,
R1_TR217,2,,,,,,,,,,,0.213911,,,1
R1_TR218,2,,,,,,,,,,,0.21958725,,,
R1_TR219,2,,,,,,,,,,,0.2252635,,,
R1_TR220,2,,,,,,,,,,,0.23093975,,,
R1_TR221,2,,,,,,,,,,,0.236616,,,
R1_TR222,2,,,,,,,,,,,0.24229225,,,
R1_TR223,2,,,,,,,,,,,0.2479685,,,
R1_TR224,2,,,,,,,,,,,0.25364475,,,
R1_TR225,2,,,,,,,,,,,0.259321,,,
R1_TR226,2,,,,,,,,,,,0.26499725,,,
R1_TR227,2,,,,,,,,,,,0.2706735,,-0.0549122,
R1_TR228,2,,,,,,,,,,,0.27634975,,,
R1_TR229,2,,,,,,,,,,,0.282026,,,
R1_TR230,2,,,,,,,,,,,0.28770225,,,
R1_TR231,2,,,,,,,,,,,0.2933785,,,
R1_TR232,2,,,,,,,,,,,0.29905475,,,
R1_TR233,2,,,,,,,,,,,0.304731,,,
R1_TR234,2,,,,,,,,,,,0.31040725,,,
R1_TR235,2,,,,,,,,,,,0.3160835,,,
R1_TR236,2,,,,,,,,,,,0.32175975,,,
R1_TR237,2,,,,,,,,,,,0.327436,,,1
R1_TR238,2,,,,,,,,,,,0.3314925,,,
R1_TR239,2,,,,,,,,,,,0.335549,,,
R1_TR240,2,,,,,,,,,,,0.3396055,,,
R1_TR241,2,,,,,,,,,,,0.343662,,,
R1_TR242,2,,,,,,,,,,,0.3477185,,,
R1_TR243,2,,,,,,,,,,,0.351775,,,
R1_TR244,2,,,,,,,,,,,0.3558315,,,
R1_TR245,2,,,,,,,,,,,0.359888,,,
R1_TR246,2,,,,,,,,,,,0.3639445,,,
R1_TR247,2,,,,,,,,,,,0.368001,,,
R1_TR248,2,,,,,,,,,,,0.3720575,,,
R1_TR249,2,,,,,,,,,,,0.376114,,,
R1_TR250,2,,,,,,,,,,,0.3801705,,,
R1_TR251,2,,,,,,,,,,,0.384227,,,
R1_TR252,2,,,,,,,,,,,0.3882835,,,
R1_TR253,2,,,,,,,,,,,0.39234,,,
R1_TR254,2,,,,,,,,,,,0.3963965,,,
R1_TR255,2,,,,,,,,,,,0.400453,,,
R1_TR256,2,,,,,,,,,,,0.4045095,,,
R1_TR257,2,,,,,,,,,,,0.408566,,,
R1_TR258,2,,,,,,,,,,,0.4126225,,,
R1_TR259,2,,,,,,,,,,,0.416679,,,
R1_TR260,2,,,,,,,,,,,0.4207355,,,
R1_TR261,,,,,,,,,,,,0.424792,,,
R1_TR262,,,,,,,,,,,,0.4288485,,,
R1_TR263,,,,,,,,,,,,0.432905,,,1
R1_TR264,,,,,,,,,,,,0.431126285714286,,,
R1_TR265,,,,,,,,,,,,0.429347571428571,,,
R1_TR266,,,,,,,,,,,,0.427568857142857,,,
R1_TR267,,,,,,,,,,,,0.425790142857143,,,
R1_TR268,,,,,,,,,,,,0.424011428571429,,,
R1_TR269,,,,,,,,,,,,0.422232714285714,,,
R1_TR270,,,,,,,,,,,,0.420454,,,
R1_TR271,,,,,,,,,,,,0.418675285714286,,,
R1_TR272,,,,,,,,,,,,0.416896571428571,,,
R1_TR273,,,,,,,,,,,,0.415117857142857,,,
R1_TR274,,,,,,,,,,,,0.413339142857143,,,
R1_TR275,,,,,,,,,,,,0.411560428571429,,,
R1_TR276,,,,,,,,,,,,0.409781714285714,,,
R1_TR277,,,,,,,,,,,,0.408003,,-0.106182,1
R1_TR278,,,,,,,,,,,,0.39943365,,,
R1_TR279,,,,,,,,,,,,0.3908643,,,
R1_TR280,,,,,,,,,,,,0.38229495,,,
R1_TR281,,,,,,,,,,,,0.3737256,,,
R1_TR282,,,,,,,,,,,,0.36515625,,,
R1_TR283,,,,,,,,,,,,0.3565869,,,
R1_TR284,,,,,,,,,,,,0.34801755,,,
R1_TR285,,,,,,,,,,,,0.3394482,,,
R1_TR286,,,,,,,,,,,,0.33087885,,,
R1_TR287,,,,,,,,,,,,0.3223095,,,
R1_TR288,,,,,,,,,,,,0.31374015,,,
R1_TR289,,,,,,,,,,,,0.3051708,,,
R1_TR290,,,,,,,,,,,,0.29660145,,,
R1_TR291,,,,,,,,,,,,0.2880321,,,
R1_TR292,,,,,,,,,,,,0.27946275,,,
R1_TR293,,,,,,,,,,,,0.2708934,,,
R1_TR294,,,,,,,,,,,,0.26232405,,,
R1_TR295,,,,,,,,,,,,0.2537547,,,
R1_TR296,,,,,,,,,,,,0.24518535,,,
R1_TR297,,,,,,,,,,,,0.236616,,,1
R1_TR298,,,,,,,,,,,,0.218928,,,
R1_TR299,,,,,,,,,,,,0.20124,,,
R1_TR300,,,,,,,,,,,,0.183552,,,
R1_TR301,,,,,,,,,,,,0.165864,,,
R1_TR302,,,,,,,,,,,,0.148176,,,
R1_TR303,,,,,,,,,,,,0.130488,,,
R1_TR304,,,,,,,,,,,,0.1128,,,
R1_TR305,,,,,,,,,,,,0.095112,,,
R1_TR306,,,,,,,,,,,,0.077424,,,
R1_TR307,,,,,,,,,,,,0.059736,,,
R1_TR308,,,,,,,,,,,,0.042048,,,
R1_TR309,,,,,,,,,,,,0.02436,,,
R1_TR310,,,,,,,,,,,,0.00667200000000001,,,
R1_TR311,,,,,,,,,,,,-0.011016,,,
R1_TR312,,,,,,,,,,,,-0.028704,,,
R1_TR313,,,,,,,,,,,,-0.046392,,,
R1_TR314,,,,,,,,,,,,-0.06408,,,
R1_TR315,,,,,,,,,,,,-0.081768,,,
R1_TR316,,,,,,,,,,,,-0.099456,,,
R1_TR317,,,,,,,,,,,,-0.117144,,,1
R1_TR318,,,,,,,,,,,,-0.1307304,,,
R1_TR319,,,,,,,,,,,,-0.1443168,,,
R1_TR320,,,,,,,,,,,,-0.1579032,,,
R1_TR321,,,,,,,,,,,,-0.1714896,,,
R1_TR322,,,,,,,,,,,,-0.185076,,,
R1_TR323,,,,,,,,,,,,-0.1986624,,,
R1_TR324,,,,,,,,,,,,-0.2122488,,,
R1_TR325,,,,,,,,,,,,-0.2258352,,,
R1_TR326,,,,,,,,,,,,-0.2394216,,,
R1_TR327,,,,,,,,,,,,-0.253008,,-0.103252,
R1_TR328,,,,,,,,,,,,-0.2665944,,,
R1_TR329,,,,,,,,,,,,-0.2801808,,,
R1_TR330,,,,,,,,,,,,-0.2937672,,,
R1_TR331,,,,,,,,,,,,-0.3073536,,,
R1_TR332,,,,,,,,,,,,-0.32094,,,
R1_TR333,,,,,,,,,,,,-0.3345264,,,
R1_TR334,,,,,,,,,,,,-0.3481128,,,
R1_TR335,,,,,,,,,,,,-0.3616992,,,
R1_TR336,,,,,,,,,,,,-0.3752856,,,
R1_TR337,,,,,,,,,,,,-0.388872,,,1
R1_TR338,,,,,,,,,,,,-0.393745423076923,,,
R1_TR339,,,,,,,,,,,,-0.398618846153846,,,
R1_TR340,,,,,,,,,,,,-0.403492269230769,,,
R1_TR341,,,,,,,,,,,,-0.408365692307692,,,
R1_TR342,,,,,,,,,,,,-0.413239115384615,,,
R1_TR343,,,,,,,,,,,,-0.418112538461538,,,
R1_TR344,,,,,,,,,,,,-0.422985961538462,,,
R1_TR345,,,,,,,,,,,,-0.427859384615385,,,
R1_TR346,,,,,,,,,,,,-0.432732807692308,,,
R1_TR347,,,,,,,,,,,,-0.437606230769231,,,
R1_TR348,,,,,,,,,,,,-0.442479653846154,,,
R1_TR349,,,,,,,,,,,,-0.447353076923077,,,
R1_TR350,,,,,,,,,,,,-0.4522265,,,
R1_TR351,,,,,,,,,,,,-0.457099923076923,,,
R1_TR352,,,,,,,,,,,,-0.461973346153846,,,
R1_TR353,,,,,,,,,,,,-0.466846769230769,,,
R1_TR354,,,,,,,,,,,,-0.471720192307692,,,
R1_TR355,,,,,,,,,,,,-0.476593615384615,,,
R1_TR356,,,,,,,,,,,,-0.481467038461538,,,
R1_TR357,,,,,,,,,,,,-0.486340461538461,,,
R1_TR358,,,,,,,,,,,,-0.491213884615385,,,
R1_TR359,,,,,,,,,,,,-0.496087307692308,,,
R1_TR360,,,,,,,,,,,,-0.500960730769231,,,
R1_TR361,,,,,,,,,,,,-0.505834153846154,,,
R1_TR362,,,,,,,,,,,,-0.510707576923077,,,
R1_TR363,,,,,,,,,,,,-0.515581,,,1
R1_TR364,,,,,,,,,,,,-0.506268785714286,,,
R1_TR365,,,,,,,,,,,,-0.496956571428571,,,
R1_TR366,,,,,,,,,,,,-0.487644357142857,,,
R1_TR367,,,,,,,,,,,,-0.478332142857143,,,
R1_TR368,,,,,,,,,,,,-0.469019928571429,,,
R1_TR369,,,,,,,,,,,,-0.459707714285714,,,
R1_TR370,,,,,,,,,,,,-0.4503955,,,
R1_TR371,,,,,,,,,,,,-0.441083285714286,,,
R1_TR372,,,,,,,,,,,,-0.431771071428571,,,
R1_TR373,,,,,,,,,,,,-0.422458857142857,,,
R1_TR374,,,,,,,,,,,,-0.413146642857143,,,
R1_TR375,,,,,,,,,,,,-0.403834428571429,,,
R1_TR376,,,,,,,,,,,,-0.394522214285714,,,
R1_TR377,,,,,,,,,,,,-0.38521,,-0.120098,1
R1_TR378,,,,,,,,,,,,-0.37993655,,,
R1_TR379,,,,,,,,,,,,-0.3746631,,,
R1_TR380,,,,,,,,,,,,-0.36938965,,,
R1_TR381,,,,,,,,,,,,-0.3641162,,,
R1_TR382,,,,,,,,,,,,-0.35884275,,,
R1_TR383,,,,,,,,,,,,-0.3535693,,,
R1_TR384,,,,,,,,,,,,-0.34829585,,,
R1_TR385,,,,,,,,,,,,-0.3430224,,,
R1_TR386,,,,,,,,,,,,-0.33774895,,,
R1_TR387,,,,,,,,,,,,-0.3324755,,,
R1_TR388,,,,,,,,,,,,-0.32720205,,,
R1_TR389,,,,,,,,,,,,-0.3219286,,,
R1_TR390,,,,,,,,,,,,-0.31665515,,,
R1_TR391,,,,,,,,,,,,-0.3113817,,,
R1_TR392,,,,,,,,,,,,-0.30610825,,,
R1_TR393,,,,,,,,,,,,-0.3008348,,,
R1_TR394,,,,,,,,,,,,-0.29556135,,,
R1_TR395,,,,,,,,,,,,-0.2902879,,,
R1_TR396,,,,,,,,,,,,-0.28501445,,,
R1_TR397,,,,,,,,,,,,-0.279741,,,1
R1_TR398,,,,,,,,,,,,-0.28149885,,,
R1_TR399,,,,,,,,,,,,-0.2832567,,,
R1_TR400,,,,,,,,,,,,-0.28501455,,,
R1_TR401,,,,,,,,,,,,-0.2867724,,,
R1_TR402,,,,,,,,,,,,-0.28853025,,,
R1_TR403,,,,,,,,,,,,-0.2902881,,,
R1_TR404,,,,,,,,,,,,-0.29204595,,,
R1_TR405,,,,,,,,,,,,-0.2938038,,,
R1_TR406,,,,,,,,,,,,-0.29556165,,,
R1_TR407,,,,,,,,,,,,-0.2973195,,,
R1_TR408,,,,,,,,,,,,-0.29907735,,,
R1_TR409,,,,,,,,,,,,-0.3008352,,,
R1_TR410,,,,,,,,,,,,-0.30259305,,,
R1_TR411,,,,,,,,,,,,-0.3043509,,,
R1_TR412,,,,,,,,,,,,-0.30610875,,,
R1_TR413,,,,,,,,,,,,-0.3078666,,,
R1_TR414,,,,,,,,,,,,-0.30962445,,,
R1_TR415,,,,,,,,,,,,-0.3113823,,,
R1_TR416,,,,,,,,,,,,-0.31314015,,,
R1_TR417,,,,,,,,,,,,-0.314898,,,1
R1_TR418,,,,,,,,,,,,-0.3159966,,,
R1_TR419,,,,,,,,,,,,-0.3170952,,,
R1_TR420,,,,,,,,,,,,-0.3181938,,,
R1_TR421,,,,,,,,,,,,-0.3192924,,,
R1_TR422,,,,,,,,,,,,-0.320391,,,
R1_TR423,,,,,,,,,,,,-0.3214896,,,
R1_TR424,,,,,,,,,,,,-0.3225882,,,
R1_TR425,,,,,,,,,,,,-0.3236868,,,
R1_TR426,,,,,,,,,,,,-0.3247854,,,
R1_TR427,,,,,,,,,,,,-0.325884,,-0.0915333,
R1_TR428,,,,,,,,,,,,-0.3269826,,,
R1_TR429,,,,,,,,,,,,-0.3280812,,,
R1_TR430,,,,,,,,,,,,-0.3291798,,,
R1_TR431,,,,,,,,,,,,-0.3302784,,,
R1_TR432,,,,,,,,,,,,-0.331377,,,
R1_TR433,,,,,,,,,,,,-0.3324756,,,
R1_TR434,,,,,,,,,,,,-0.3335742,,,
R1_TR435,,,,,,,,,,,,-0.3346728,,,
R1_TR436,,,,,,,,,,,,-0.3357714,,,
R1_TR437,,,,,,,,,,,,-0.33687,,,1
R1_TR438,,,,,,,,,,,,-0.334081192307692,,,
R1_TR439,,,,,,,,,,,,-0.331292384615385,,,
R1_TR440,,,,,,,,,,,,-0.328503576923077,,,
R1_TR441,,,,,,,,,,,,-0.325714769230769,,,
R1_TR442,,,,,,,,,,,,-0.322925961538462,,,
R1_TR443,,,,,,,,,,,,-0.320137153846154,,,
R1_TR444,,,,,,,,,,,,-0.317348346153846,,,
R1_TR445,,,,,,,,,,,,-0.314559538461538,,,
R1_TR446,,,,,,,,,,,,-0.311770730769231,,,
R1_TR447,,,,,,,,,,,,-0.308981923076923,,,
R1_TR448,,,,,,,,,,,,-0.306193115384615,,,
R1_TR449,,,,,,,,,,,,-0.303404307692308,,,
R1_TR450,,,,,,,,,,,,-0.3006155,,,
R1_TR451,,,,,,,,,,,,-0.297826692307692,,,
R1_TR452,,,,,,,,,,,,-0.295037884615385,,,
R1_TR453,,,,,,,,,,,,-0.292249076923077,,,
R1_TR454,,,,,,,,,,,,-0.289460269230769,,,
R1_TR455,,,,,,,,,,,,-0.286671461538462,,,
R1_TR456,,,,,,,,,,,,-0.283882653846154,,,
R1_TR457,,,,,,,,,,,,-0.281093846153846,,,
R1_TR458,,,,,,,,,,,,-0.278305038461538,,,
R1_TR459,,,,,,,,,,,,-0.275516230769231,,,
R1_TR460,,,,,,,,,,,,-0.272727423076923,,,
R1_TR461,,,,,,,,,,,,-0.269938615384615,,,
R1_TR462,,,,,,,,,,,,-0.267149807692308,,,
R1_TR463,,,,,,,,,,,,-0.264361,,,1
R1_TR464,,,,,,,,,,,,-0.266139714285714,,,
R1_TR465,,,,,,,,,,,,-0.267918428571429,,,
R1_TR466,,,,,,,,,,,,-0.269697142857143,,,
R1_TR467,,,,,,,,,,,,-0.271475857142857,,,
R1_TR468,,,,,,,,,,,,-0.273254571428571,,,
R1_TR469,,,,,,,,,,,,-0.275033285714286,,,
R1_TR470,,,,,,,,,,,,-0.276812,,,
R1_TR471,,,,,,,,,,,,-0.278590714285714,,,
R1_TR472,,,,,,,,,,,,-0.280369428571429,,,
R1_TR473,,,,,,,,,,,,-0.282148142857143,,,
R1_TR474,,,,,,,,,,,,-0.283926857142857,,,
R1_TR475,,,,,,,,,,,,-0.285705571428571,,,
R1_TR476,,,,,,,,,,,,-0.287484285714286,,,
R1_TR477,,,,,,,,,,,,-0.289263,,-0.0724904,1
R1_TR478,,,,,,,,,,,,-0.28955595,,,
R1_TR479,,,,,,,,,,,,-0.2898489,,,
R1_TR480,,,,,,,,,,,,-0.29014185,,,
R1_TR481,,,,,,,,,,,,-0.2904348,,,
R1_TR482,,,,,,,,,,,,-0.29072775,,,
R1_TR483,,,,,,,,,,,,-0.2910207,,,
R1_TR484,,,,,,,,,,,,-0.29131365,,,
R1_TR485,,,,,,,,,,,,-0.2916066,,,
R1_TR486,,,,,,,,,,,,-0.29189955,,,
R1_TR487,,,,,,,,,,,,-0.2921925,,,
R1_TR488,,,,,,,,,,,,-0.29248545,,,
R1_TR489,,,,,,,,,,,,-0.2927784,,,
R1_TR490,,,,,,,,,,,,-0.29307135,,,
R1_TR491,,,,,,,,,,,,-0.2933643,,,
R1_TR492,,,,,,,,,,,,-0.29365725,,,
R1_TR493,,,,,,,,,,,,-0.2939502,,,
R1_TR494,,,,,,,,,,,,-0.29424315,,,
R1_TR495,,,,,,,,,,,,-0.2945361,,,
R1_TR496,,,,,,,,,,,,-0.29482905,,,
R1_TR497,,,,,,,,,,,,-0.295122,,,1
R1_TR498,,,,,,,,,,,,-0.2969897,,,
R1_TR499,,,,,,,,,,,,-0.2988574,,,
R1_TR500,,,,,,,,,,,,-0.3007251,,,
R1_TR501,,,,,,,,,,,,-0.3025928,,,
R1_TR502,,,,,,,,,,,,-0.3044605,,,
R1_TR503,,,,,,,,,,,,-0.3063282,,,
R1_TR504,,,,,,,,,,,,-0.3081959,,,
R1_TR505,,,,,,,,,,,,-0.3100636,,,
R1_TR506,,,,,,,,,,,,-0.3119313,,,
R1_TR507,,,,,,,,,,,,-0.313799,,,
R1_TR508,,,,,,,,,,,,-0.3156667,,,
R1_TR509,,,,,,,,,,,,-0.3175344,,,
R1_TR510,,,,,,,,,,,,-0.3194021,,,
R1_TR511,,,,,,,,,,,,-0.3212698,,,
R1_TR512,,,,,,,,,,,,-0.3231375,,,
R1_TR513,,,,,,,,,,,,-0.3250052,,,
R1_TR514,,,,,,,,,,,,-0.3268729,,,
R1_TR515,,,,,,,,,,,,-0.3287406,,,
R1_TR516,,,,,,,,,,,,-0.3306083,,,
R1_TR517,,,,,,,,,,,,-0.332476,,,1
R1_TR518,,,,,,,,,,,,-0.31958537,,,
R1_TR519,,,,,,,,,,,,-0.30669474,,,
R1_TR520,,,,,,,,,,,,-0.29380411,,,
R1_TR521,,,,,,,,,,,,-0.28091348,,,
R1_TR522,,,,,,,,,,,,-0.26802285,,,
R1_TR523,,,,,,,,,,,,-0.25513222,,,
R1_TR524,,,,,,,,,,,,-0.24224159,,,
R1_TR525,,,,,,,,,,,,-0.22935096,,,
R1_TR526,,,,,,,,,,,,-0.21646033,,-0.136211,
R1_TR527,,,,,,,,,,,,-0.2035697,,,
R1_TR528,,,,,,,,,,,,-0.19067907,,,
R1_TR529,,,,,,,,,,,,-0.17778844,,,
R1_TR530,,,,,,,,,,,,-0.16489781,,,
R1_TR531,,,,,,,,,,,,-0.15200718,,,
R1_TR532,,,,,,,,,,,,-0.13911655,,,
R1_TR533,,,,,,,,,,,,-0.12622592,,,
R1_TR534,,,,,,,,,,,,-0.11333529,,,
R1_TR535,,,,,,,,,,,,-0.10044466,,,
R1_TR536,,,,,,,,,,,,-0.08755403,,,
R1_TR537,,,,,,,,,,,,-0.0746634,,,1
R1_TR538,,,,,,,,,,,,-0.0690575538461538,,,
R1_TR539,,,,,,,,,,,,-0.0634517076923077,,,
R1_TR540,,,,,,,,,,,,-0.0578458615384615,,,
R1_TR541,,,,,,,,,,,,-0.0522400153846154,,,
R1_TR542,,,,,,,,,,,,-0.0466341692307692,,,
R1_TR543,,,,,,,,,,,,-0.0410283230769231,,,
R1_TR544,,,,,,,,,,,,-0.0354224769230769,,,
R1_TR545,,,,,,,,,,,,-0.0298166307692308,,,
R1_TR546,,,,,,,,,,,,-0.0242107846153846,,,
R1_TR547,,,,,,,,,,,,-0.0186049384615385,,,
R1_TR548,,,,,,,,,,,,-0.0129990923076923,,,
R1_TR549,,,,,,,,,,,,-0.00739324615384616,,,
R1_TR550,,,,,,,,,,,,-0.0017874,,,
R1_TR551,,,,,,,,,,,,0.00381844615384615,,,
R1_TR552,,,,,,,,,,,,0.0094242923076923,,,
R1_TR553,,,,,,,,,,,,0.0150301384615385,,,
R1_TR554,,,,,,,,,,,,0.0206359846153846,,,
R1_TR555,,,,,,,,,,,,0.0262418307692308,,,
R1_TR556,,,,,,,,,,,,0.0318476769230769,,,
R1_TR557,,,,,,,,,,,,0.0374535230769231,,,
R1_TR558,,,,,,,,,,,,0.0430593692307692,,,
R1_TR559,,,,,,,,,,,,0.0486652153846154,,,
R1_TR560,,,,,,,,,,,,0.0542710615384615,,,
R1_TR561,,,,,,,,,,,,0.0598769076923077,,,
R1_TR562,,,,,,,,,,,,0.0654827538461538,,,
R1_TR563,,,,,,,,,,,,0.0710886,,,1
R1_TR564,,,,,,,,,,,,0.0724488142857143,,,
R1_TR565,,,,,,,,,,,,0.0738090285714286,,,
R1_TR566,,,,,,,,,,,,0.0751692428571429,,,
R1_TR567,,,,,,,,,,,,0.0765294571428572,,,
R1_TR568,,,,,,,,,,,,0.0778896714285714,,,
R1_TR569,,,,,,,,,,,,0.0792498857142857,,,
R1_TR570,,,,,,,,,,,,0.0806101,,,
R1_TR571,,,,,,,,,,,,0.0819703142857143,,,
R1_TR572,,,,,,,,,,,,0.0833305285714286,,,
R1_TR573,,,,,,,,,,,,0.0846907428571429,,,
R1_TR574,,,,,,,,,,,,0.0860509571428572,,,
R1_TR575,,,,,,,,,,,,0.0874111714285714,,,
R1_TR576,,,,,,,,,,,,0.0887713857142857,,0.0161327,
R1_TR577,,,,,,,,,,,,0.0901316,,,1
R1_TR578,2,,,,,,,,,,,0.08441871,,,
R1_TR579,0,,,,,,,,,,,0.07870582,,,
R1_TR580,,,,,,,,,,,,0.07299293,,,
R1_TR581,2,,,,,,,,,,,0.06728004,,,
R1_TR582,,,,,,,,,,,,0.06156715,,,
R1_TR583,,,,,,,,,,,,0.05585426,,,
R1_TR584,,,,,,,,,,,,0.05014137,,,
R1_TR585,,,,,,,,,,,,0.04442848,,,
R1_TR586,,,,,,,,,,,,0.03871559,,,
R1_TR587,,,,,,,,,,,,0.0330027,,,
R1_TR588,,,,,,,,,,,,0.02728981,,,
R1_TR589,,,,,,,,,,,,0.02157692,,,
R1_TR590,,,,,,,,,,,,0.01586403,,,
R1_TR591,,,,,,,,,,,,0.01015114,,,
R1_TR592,,,,,,,,,,,,0.00443825000000001,,,
R1_TR593,,,,,,,,,,,,-0.00127463999999999,,,
R1_TR594,,,,,,,,,,,,-0.00698752999999999,,,
R1_TR595,,,,,,,,,,,,-0.01270042,,,
R1_TR596,,,,,,,,,,,,-0.01841331,,,
R1_TR597,,,,,,,,,,,,-0.0241262,,,1
R1_TR598,,,,,,,,,,,,-0.03002219,,,
R1_TR599,,,,,,,,,,,,-0.03591818,,,
R1_TR600,,,,,,,,,,,,-0.04181417,,,
