feature,status,rework,X,Y,Z,I,J,K,Solution,AlignVector,AlignC,Xoff,Yoff,Zoff,Probe
R1_TR1,0,,,,,,,,,,,,,,
R1_TR2,,,,,,,,,,,,,,,
R1_TR3,,,,,,,,,,,,,,,
R1_TR4,,,,,,,,,,,,,,,
R1_TR5,,,,,,,,,,,,,,,
R1_TR6,,,,,,,,,,,,,,,
R1_TR7,,,,,,,,,,,,,,,
R1_TR8,,,,,,,,,,,,,,,
R1_TR9,,,,,,,,,,,,,,,
R1_TR10,,,,,,,,,,,,,,,
R1_TR11,,,,,,,,,,,,,,,
R1_TR12,,,,,,,,,,,,,,,
R1_TR13,,,,,,,,,,,,,,,
R1_TR14,,,,,,,,,,,,,,,
R1_TR15,,,,,,,,,,,,,,,
R1_TR16,,,,,,,,,,,,,,,
R1_TR17,,,,,,,,,,,,,,,1
R1_TR18,,,,,,,,,,,,,,,
R1_TR19,,,,,,,,,,,,,,,
R1_TR20,,,,,,,,,,,,,,,
R1_TR21,,,,,,,,,,,,,,,
R1_TR22,,,,,,,,,,,,,,,
R1_TR23,,,,,,,,,,,,,,,
R1_TR24,,,,,,,,,,,,,,,
R1_TR25,,,,,,,,,,,,,,,
R1_TR26,,,,,,,,,,,,,,,
R1_TR27,,,,,,,,,,,,,,-0.150127,
R1_TR28,,,,,,,,,,,,,,,
R1_TR29,,,,,,,,,,,,,,,
R1_TR30,,,,,,,,,,,,,,,
R1_TR31,,,,,,,,,,,,,,,
R1_TR32,,,,,,,,,,,,,,,
R1_TR33,,,,,,,,,,,,,,,
R1_TR34,,,,,,,,,,,,,,,
R1_TR35,,,,,,,,,,,,,,,
R1_TR36,,,,,,,,,,,,,,,
R1_TR37,,,,,,,,,,,,,,,1
R1_TR38,,,,,,,,,,,,,,,
R1_TR39,,,,,,,,,,,,,,,
R1_TR40,,,,,,,,,,,,,,,
R1_TR41,,,,,,,,,,,,,,,
R1_TR42,,,,,,,,,,,,,,,
R1_TR43,,,,,,,,,,,,,,,
R1_TR44,,,,,,,,,,,,,,,
R1_TR45,,,,,,,,,,,,,,,
R1_TR46,,,,,,,,,,,,,,,
R1_TR47,,,,,,,,,,,,,,,
R1_TR48,,,,,,,,,,,,,,,
R1_TR49,,,,,,,,,,,,,,,
R1_TR50,,,,,,,,,,,,,,,
R1_TR51,,,,,,,,,,,,,,,
R1_TR52,,,,,,,,,,,,,,,
R1_TR53,,,,,,,,,,,,,,,
R1_TR54,,,,,,,,,,,,,,,
R1_TR55,,,,,,,,,,,,,,,
R1_TR56,,,,,,,,,,,,,,,
R1_TR57,,,,,,,,,,,,,,,
R1_TR58,,,,,,,,,,,,,,,
R1_TR59,,,,,,,,,,,,,,,
R1_TR60,,,,,,,,,,,,,,,
R1_TR61,,,,,,,,,,,,,,,
R1_TR62,,,,,,,,,,,,,,,
R1_TR63,,,,,,,,,,,,,,,1
R1_TR64,,,,,,,,,,,,,,,
R1_TR65,,,,,,,,,,,,,,,
R1_TR66,,,,,,,,,,,,,,,
R1_TR67,,,,,,,,,,,,,,,
R1_TR68,,,,,,,,,,,,,,,
R1_TR69,,,,,,,,,,,,,,,
R1_TR70,,,,,,,,,,,,,,,
R1_TR71,,,,,,,,,,,,,,,
R1_TR72,,,,,,,,,,,,,,,
R1_TR73,,,,,,,,,,,,,,,
R1_TR74,,,,,,,,,,,,,,,
R1_TR75,,,,,,,,,,,,,,,
R1_TR76,,,,,,,,,,,,,,0.0637401,
R1_TR77,,,,,,,,,,,,,,,1
R1_TR78,,,,,,,,,,,,,,,
R1_TR79,,,,,,,,,,,,,,,
R1_TR80,,,,,,,,,,,,,,,
R1_TR81,,,,,,,,,,,,,,,
R1_TR82,,,,,,,,,,,,,,,
R1_TR83,,,,,,,,,,,,,,,
R1_TR84,,,,,,,,,,,,,,,
R1_TR85,,,,,,,,,,,,,,,
R1_TR86,,,,,,,,,,,,,,,
R1_TR87,,,,,,,,,,,,,,,
R1_TR88,,,,,,,,,,,,,,,
R1_TR89,,,,,,,,,,,,,,,
R1_TR90,,,,,,,,,,,,,,,
R1_TR91,,,,,,,,,,,,,,,
R1_TR92,,,,,,,,,,,,,,,
R1_TR93,,,,,,,,,,,,,,,
R1_TR94,,,,,,,,,,,,,,,
R1_TR95,,,,,,,,,,,,,,,
R1_TR96,,,,,,,,,,,,,,,
R1_TR97,,,,,,,,,,,,,,,1
R1_TR98,,,,,,,,,,,,,,,
R1_TR99,,,,,,,,,,,,,,,
R1_TR100,,,,,,,,,,,,,,,
R1_TR101,,,,,,,,,,,,,,,
R1_TR102,,,,,,,,,,,,,,,
R1_TR103,,,,,,,,,,,,,,,
R1_TR104,,,,,,,,,,,,,,,
R1_TR105,,,,,,,,,,,,,,,
R1_TR106,,,,,,,,,,,,,,,
R1_TR107,,,,,,,,,,,,,,,
R1_TR108,,,,,,,,,,,,,,,
R1_TR109,,,,,,,,,,,,,,,
R1_TR110,,,,,,,,,,,,,,,
R1_TR111,,,,,,,,,,,,,,,
R1_TR112,,,,,,,,,,,,,,,
R1_TR113,,,,,,,,,,,,,,,
R1_TR114,,,,,,,,,,,,,,,
R1_TR115,,,,,,,,,,,,,,,
R1_TR116,,,,,,,,,,,,,,,
R1_TR117,,,,,,,,,,,,,,,1
R1_TR118,,,,,,,,,,,,,,,
R1_TR119,,,,,,,,,,,,,,,
R1_TR120,,,,,,,,,,,,,,,
R1_TR121,,,,,,,,,,,,,,,
R1_TR122,,,,,,,,,,,,,,,
R1_TR123,,,,,,,,,,,,,,,
R1_TR124,,,,,,,,,,,,,,,
R1_TR125,,,,,,,,,,,,,,,
R1_TR126,,,,,,,,,,,,,,,
R1_TR127,,,,,,,,,,,,,,,
R1_TR128,,,,,,,,,,,,,,,
R1_TR129,,,,,,,,,,,,,,,
R1_TR130,,,,,,,,,,,,,,,
R1_TR131,,,,,,,,,,,,,,,
R1_TR132,,,,,,,,,,,,,,,
R1_TR133,,,,,,,,,,,,,,,
R1_TR134,,,,,,,,,,,,,,,
R1_TR135,,,,,,,,,,,,,,,
R1_TR136,,,,,,,,,,,,,,,
R1_TR137,,,,,,,,,,,,,,,1
R1_TR138,,,,,,,,,,,,,,,
R1_TR139,,,,,,,,,,,,,,,
R1_TR140,,,,,,,,,,,,,,,
R1_TR141,,,,,,,,,,,,,,,
R1_TR142,,,,,,,,,,,,,,,
R1_TR143,,,,,,,,,,,,,,,
R1_TR144,,,,,,,,,,,,,,,
R1_TR145,,,,,,,,,,,,,,,
R1_TR146,,,,,,,,,,,,,,,
R1_TR147,,,,,,,,,,,,,,,
R1_TR148,,,,,,,,,,,,,,,
R1_TR149,,,,,,,,,,,,,,,
R1_TR150,,,,,,,,,,,,,,,
R1_TR151,,,,,,,,,,,,,,,
R1_TR152,,,,,,,,,,,,,,,
R1_TR153,,,,,,,,,,,,,,,
R1_TR154,,,,,,,,,,,,,,,
R1_TR155,,,,,,,,,,,,,,,
R1_TR156,,,,,,,,,,,,,,,
R1_TR157,,,,,,,,,,,,,,,
R1_TR158,,,,,,,,,,,,,,,
R1_TR159,,,,,,,,,,,,,,,
R1_TR160,,,,,,,,,,,,,,,
R1_TR161,,,,,,,,,,,,,,,
R1_TR162,,,,,,,,,,,,,,,
R1_TR163,,,,,,,,,,,,,,,1
R1_TR164,,,,,,,,,,,,,,,
R1_TR165,,,,,,,,,,,,,,,
R1_TR166,,,,,,,,,,,,,,,
R1_TR167,,,,,,,,,,,,,,,
R1_TR168,,,,,,,,,,,,,,,
R1_TR169,,,,,,,,,,,,,,,
R1_TR170,,,,,,,,,,,,,,,
R1_TR171,,,,,,,,,,,,,,,
R1_TR172,,,,,,,,,,,,,,,
R1_TR173,,,,,,,,,,,,,,,
R1_TR174,,,,,,,,,,,,,,,
R1_TR175,,,,,,,,,,,,,,,
R1_TR176,,,,,,,,,,,,,,,
R1_TR177,,,,,,,,,,,,,,,1
R1_TR178,,,,,,,,,,,,,,,
R1_TR179,,,,,,,,,,,,,,,
R1_TR180,,,,,,,,,,,,,,,
R1_TR181,,,,,,,,,,,,,,,
R1_TR182,,,,,,,,,,,,,,,
R1_TR183,,,,,,,,,,,,,,,
R1_TR184,,,,,,,,,,,,,,,
R1_TR185,,,,,,,,,,,,,,,
R1_TR186,,,,,,,,,,,,,,,
R1_TR187,,,,,,,,,,,,,,,
R1_TR188,,,,,,,,,,,,,,,
R1_TR189,,,,,,,,,,,,,,,
R1_TR190,,,,,,,,,,,,,,,
R1_TR191,,,,,,,,,,,,,,,
R1_TR192,,,,,,,,,,,,,,,
R1_TR193,,,,,,,,,,,,,,,
R1_TR194,,,,,,,,,,,,,,,
R1_TR195,,,,,,,,,,,,,,,
R1_TR196,,,,,,,,,,,,,,,
R1_TR197,,,,,,,,,,,,,,,1
R1_TR198,,,,,,,,,,,,,,,
R1_TR199,,,,,,,,,,,,,,,
R1_TR200,,,,,,,,,,,,,,,
R1_TR201,,,,,,,,,,,,,,,
R1_TR202,,,,,,,,,,,,,,,
R1_TR203,,,,,,,,,,,,,,,
R1_TR204,,,,,,,,,,,,,,,
R1_TR205,,,,,,,,,,,,,,,
R1_TR206,,,,,,,,,,,,,,,
R1_TR207,,,,,,,,,,,,,,,
R1_TR208,,,,,,,,,,,,,,,
R1_TR209,,,,,,,,,,,,,,,
R1_TR210,,,,,,,,,,,,,,,
R1_TR211,,,,,,,,,,,,,,,
R1_TR212,,,,,,,,,,,,,,,
R1_TR213,,,,,,,,,,,,,,,
R1_TR214,,,,,,,,,,,,,,,
R1_TR215,,,,,,,,,,,,,,,
R1_TR216,,,,,,,,,,,,,,,
R1_TR217,,,,,,,,,,,,,,,1
R1_TR218,,,,,,,,,,,,,,,
R1_TR219,,,,,,,,,,,,,,,
R1_TR220,,,,,,,,,,,,,,,
R1_TR221,,,,,,,,,,,,,,,
R1_TR222,,,,,,,,,,,,,,,
R1_TR223,,,,,,,,,,,,,,,
R1_TR224,,,,,,,,,,,,,,,
R1_TR225,,,,,,,,,,,,,,,
R1_TR226,,,,,,,,,,,,,,,
R1_TR227,,,,,,,,,,,,,,,
R1_TR228,,,,,,,,,,,,,,,
R1_TR229,,,,,,,,,,,,,,,
R1_TR230,,,,,,,,,,,,,,,
R1_TR231,,,,,,,,,,,,,,,
R1_TR232,,,,,,,,,,,,,,,
R1_TR233,,,,,,,,,,,,,,,
R1_TR234,,,,,,,,,,,,,,,
R1_TR235,,,,,,,,,,,,,,,
R1_TR236,,,,,,,,,,,,,,,
R1_TR237,,,,,,,,,,,,,,,1
R1_TR238,,,,,,,,,,,,,,,
R1_TR239,,,,,,,,,,,,,,,
R1_TR240,,,,,,,,,,,,,,,
R1_TR241,,,,,,,,,,,,,,,
R1_TR242,,,,,,,,,,,,,,,
R1_TR243,,,,,,,,,,,,,,,
R1_TR244,,,,,,,,,,,,,,,
R1_TR245,,,,,,,,,,,,,,,
R1_TR246,,,,,,,,,,,,,,,
R1_TR247,,,,,,,,,,,,,,,
R1_TR248,,,,,,,,,,,,,,,
R1_TR249,,,,,,,,,,,,,,,
R1_TR250,,,,,,,,,,,,,,,
R1_TR251,,,,,,,,,,,,,,,
R1_TR252,,,,,,,,,,,,,,,
R1_TR253,,,,,,,,,,,,,,,
R1_TR254,,,,,,,,,,,,,,,
R1_TR255,,,,,,,,,,,,,,,
R1_TR256,,,,,,,,,,,,,,,
R1_TR257,,,,,,,,,,,,,,,
R1_TR258,,,,,,,,,,,,,,,
R1_TR259,,,,,,,,,,,,,,,
R1_TR260,,,,,,,,,,,,,,,
R1_TR261,,,,,,,,,,,,,,,
R1_TR262,,,,,,,,,,,,,,,
R1_TR263,,,,,,,,,,,,,,,1
R1_TR264,,,,,,,,,,,,,,,
R1_TR265,,,,,,,,,,,,,,,
R1_TR266,,,,,,,,,,,,,,,
R1_TR267,,,,,,,,,,,,,,,
R1_TR268,,,,,,,,,,,,,,,
R1_TR269,,,,,,,,,,,,,,,
R1_TR270,,,,,,,,,,,,,,,
R1_TR271,,,,,,,,,,,,,,,
R1_TR272,,,,,,,,,,,,,,,
R1_TR273,,,,,,,,,,,,,,,
R1_TR274,,,,,,,,,,,,,,,
R1_TR275,,,,,,,,,,,,,,,
R1_TR276,,,,,,,,,,,,,,,
R1_TR277,,,,,,,,,,,,,,,1
R1_TR278,,,,,,,,,,,,,,,
R1_TR279,,,,,,,,,,,,,,,
R1_TR280,,,,,,,,,,,,,,,
R1_TR281,,,,,,,,,,,,,,,
R1_TR282,,,,,,,,,,,,,,,
R1_TR283,,,,,,,,,,,,,,,
R1_TR284,,,,,,,,,,,,,,,
R1_TR285,,,,,,,,,,,,,,,
R1_TR286,,,,,,,,,,,,,,,
R1_TR287,,,,,,,,,,,,,,,
R1_TR288,,,,,,,,,,,,,,,
R1_TR289,,,,,,,,,,,,,,,
R1_TR290,,,,,,,,,,,,,,,
R1_TR291,,,,,,,,,,,,,,,
R1_TR292,,,,,,,,,,,,,,,
R1_TR293,,,,,,,,,,,,,,,
R1_TR294,,,,,,,,,,,,,,,
R1_TR295,,,,,,,,,,,,,,,
R1_TR296,,,,,,,,,,,,,,,
R1_TR297,,,,,,,,,,,,,,,1
R1_TR298,,,,,,,,,,,,,,,
R1_TR299,,,,,,,,,,,,,,,
R1_TR300,,,,,,,,,,,,,,,
R1_TR301,,,,,,,,,,,,,,,
R1_TR302,,,,,,,,,,,,,,,
R1_TR303,,,,,,,,,,,,,,,
R1_TR304,,,,,,,,,,,,,,,
R1_TR305,,,,,,,,,,,,,,,
R1_TR306,,,,,,,,,,,,,,,
R1_TR307,,,,,,,,,,,,,,,
R1_TR308,,,,,,,,,,,,,,,
R1_TR309,,,,,,,,,,,,,,,
R1_TR310,,,,,,,,,,,,,,,
R1_TR311,,,,,,,,,,,,,,,
R1_TR312,,,,,,,,,,,,,,,
R1_TR313,,,,,,,,,,,,,,,
R1_TR314,,,,,,,,,,,,,,,
R1_TR315,,,,,,,,,,,,,,,
R1_TR316,,,,,,,,,,,,,,,
R1_TR317,,,,,,,,,,,,,,,1
R1_TR318,,,,,,,,,,,,,,,
R1_TR319,,,,,,,,,,,,,,,
R1_TR320,,,,,,,,,,,,,,,
R1_TR321,,,,,,,,,,,,,,,
R1_TR322,,,,,,,,,,,,,,,
R1_TR323,,,,,,,,,,,,,,,
R1_TR324,,,,,,,,,,,,,,,
R1_TR325,,,,,,,,,,,,,,,
R1_TR326,,,,,,,,,,,,,,,
R1_TR327,,,,,,,,,,,,,,,
R1_TR328,,,,,,,,,,,,,,,
R1_TR329,,,,,,,,,,,,,,,
R1_TR330,,,,,,,,,,,,,,,
R1_TR331,,,,,,,,,,,,,,,
R1_TR332,,,,,,,,,,,,,,,
R1_TR333,,,,,,,,,,,,,,,
R1_TR334,,,,,,,,,,,,,,,
R1_TR335,,,,,,,,,,,,,,,
R1_TR336,,,,,,,,,,,,,,,
R1_TR337,,,,,,,,,,,,,,,1
R1_TR338,,,,,,,,,,,,,,,
R1_TR339,,,,,,,,,,,,,,,
R1_TR340,,,,,,,,,,,,,,,
R1_TR341,,,,,,,,,,,,,,,
R1_TR342,,,,,,,,,,,,,,,
R1_TR343,,,,,,,,,,,,,,,
R1_TR344,,,,,,,,,,,,,,,
R1_TR345,,,,,,,,,,,,,,,
R1_TR346,,,,,,,,,,,,,,,
R1_TR347,,,,,,,,,,,,,,,
R1_TR348,,,,,,,,,,,,,,,
R1_TR349,,,,,,,,,,,,,,,
R1_TR350,,,,,,,,,,,,,,,
R1_TR351,,,,,,,,,,,,,,,
R1_TR352,,,,,,,,,,,,,,,
R1_TR353,,,,,,,,,,,,,,,
R1_TR354,,,,,,,,,,,,,,,
R1_TR355,,,,,,,,,,,,,,,
R1_TR356,,,,,,,,,,,,,,,
R1_TR357,,,,,,,,,,,,,,,
R1_TR358,,,,,,,,,,,,,,,
R1_TR359,,,,,,,,,,,,,,,
R1_TR360,,,,,,,,,,,,,,,
R1_TR361,,,,,,,,,,,,,,,
R1_TR362,,,,,,,,,,,,,,,
R1_TR363,,,,,,,,,,,,,,,1
R1_TR364,,,,,,,,,,,,,,,
R1_TR365,,,,,,,,,,,,,,,
R1_TR366,,,,,,,,,,,,,,,
R1_TR367,,,,,,,,,,,,,,,
R1_TR368,,,,,,,,,,,,,,,
R1_TR369,,,,,,,,,,,,,,,
R1_TR370,,,,,,,,,,,,,,,
R1_TR371,,,,,,,,,,,,,,,
R1_TR372,,,,,,,,,,,,,,,
R1_TR373,,,,,,,,,,,,,,,
R1_TR374,,,,,,,,,,,,,,,
R1_TR375,,,,,,,,,,,,,,,
R1_TR376,,,,,,,,,,,,,,,
R1_TR377,,,,,,,,,,,,,,,1
R1_TR378,,,,,,,,,,,,,,,
R1_TR379,,,,,,,,,,,,,,,
R1_TR380,,,,,,,,,,,,,,,
R1_TR381,,,,,,,,,,,,,,,
R1_TR382,,,,,,,,,,,,,,,
R1_TR383,,,,,,,,,,,,,,,
R1_TR384,,,,,,,,,,,,,,,
R1_TR385,,,,,,,,,,,,,,,
R1_TR386,,,,,,,,,,,,,,,
R1_TR387,,,,,,,,,,,,,,,
R1_TR388,,,,,,,,,,,,,,,
R1_TR389,,,,,,,,,,,,,,,
R1_TR390,,,,,,,,,,,,,,,
R1_TR391,,,,,,,,,,,,,,,
R1_TR392,,,,,,,,,,,,,,,
R1_TR393,,,,,,,,,,,,,,,
R1_TR394,,,,,,,,,,,,,,,
R1_TR395,,,,,,,,,,,,,,,
R1_TR396,,,,,,,,,,,,,,,
R1_TR397,,,,,,,,,,,,,,,1
R1_TR398,,,,,,,,,,,,,,,
R1_TR399,,,,,,,,,,,,,,,
R1_TR400,,,,,,,,,,,,,,,
R1_TR401,,,,,,,,,,,,,,,
R1_TR402,,,,,,,,,,,,,,,
R1_TR403,,,,,,,,,,,,,,,
R1_TR404,,,,,,,,,,,,,,,
R1_TR405,,,,,,,,,,,,,,,
R1_TR406,,,,,,,,,,,,,,,
R1_TR407,,,,,,,,,,,,,,,
R1_TR408,,,,,,,,,,,,,,,
R1_TR409,,,,,,,,,,,,,,,
R1_TR410,,,,,,,,,,,,,,,
R1_TR411,,,,,,,,,,,,,,,
R1_TR412,,,,,,,,,,,,,,,
R1_TR413,,,,,,,,,,,,,,,
R1_TR414,,,,,,,,,,,,,,,
R1_TR415,,,,,,,,,,,,,,,
R1_TR416,,,,,,,,,,,,,,,
R1_TR417,,,,,,,,,,,,,,,1
R1_TR418,,,,,,,,,,,,,,,
R1_TR419,,,,,,,,,,,,,,,
R1_TR420,,,,,,,,,,,,,,,
R1_TR421,,,,,,,,,,,,,,,
R1_TR422,,,,,,,,,,,,,,,
R1_TR423,,,,,,,,,,,,,,,
R1_TR424,,,,,,,,,,,,,,,
R1_TR425,,,,,,,,,,,,,,,
R1_TR426,,,,,,,,,,,,,,,
R1_TR427,,,,,,,,,,,,,,,
R1_TR428,,,,,,,,,,,,,,,
R1_TR429,,,,,,,,,,,,,,,
R1_TR430,,,,,,,,,,,,,,,
R1_TR431,,,,,,,,,,,,,,,
R1_TR432,,,,,,,,,,,,,,,
R1_TR433,,,,,,,,,,,,,,,
R1_TR434,,,,,,,,,,,,,,,
R1_TR435,,,,,,,,,,,,,,,
R1_TR436,,,,,,,,,,,,,,,
R1_TR437,,,,,,,,,,,,,,,1
R1_TR438,,,,,,,,,,,,,,,
R1_TR439,,,,,,,,,,,,,,,
R1_TR440,,,,,,,,,,,,,,,
R1_TR441,,,,,,,,,,,,,,,
R1_TR442,,,,,,,,,,,,,,,
R1_TR443,,,,,,,,,,,,,,,
R1_TR444,,,,,,,,,,,,,,,
R1_TR445,,,,,,,,,,,,,,,
R1_TR446,,,,,,,,,,,,,,,
R1_TR447,,,,,,,,,,,,,,,
R1_TR448,,,,,,,,,,,,,,,
R1_TR449,,,,,,,,,,,,,,,
R1_TR450,,,,,,,,,,,,,,,
R1_TR451,,,,,,,,,,,,,,,
R1_TR452,,,,,,,,,,,,,,,
R1_TR453,,,,,,,,,,,,,,,
R1_TR454,,,,,,,,,,,,,,,
R1_TR455,,,,,,,,,,,,,,,
R1_TR456,,,,,,,,,,,,,,,
R1_TR457,,,,,,,,,,,,,,,
R1_TR458,,,,,,,,,,,,,,,
R1_TR459,,,,,,,,,,,,,,,
R1_TR460,,,,,,,,,,,,,,,
R1_TR461,,,,,,,,,,,,,,,
R1_TR462,,,,,,,,,,,,,,,
R1_TR463,,,,,,,,,,,,,,,1
R1_TR464,,,,,,,,,,,,,,,
R1_TR465,,,,,,,,,,,,,,,
R1_TR466,,,,,,,,,,,,,,,
R1_TR467,,,,,,,,,,,,,,,
R1_TR468,,,,,,,,,,,,,,,
R1_TR469,,,,,,,,,,,,,,,
R1_TR470,,,,,,,,,,,,,,,
R1_TR471,,,,,,,,,,,,,,,
R1_TR472,,,,,,,,,,,,,,,
R1_TR473,,,,,,,,,,,,,,,
R1_TR474,,,,,,,,,,,,,,,
R1_TR475,,,,,,,,,,,,,,,
R1_TR476,,,,,,,,,,,,,,,
R1_TR477,,,,,,,,,,,,,,,1
R1_TR478,,,,,,,,,,,,,,,
R1_TR479,,,,,,,,,,,,,,,
R1_TR480,,,,,,,,,,,,,,,
R1_TR481,,,,,,,,,,,,,,,
R1_TR482,,,,,,,,,,,,,,,
R1_TR483,,,,,,,,,,,,,,,
R1_TR484,,,,,,,,,,,,,,,
R1_TR485,,,,,,,,,,,,,,,
R1_TR486,,,,,,,,,,,,,,,
R1_TR487,,,,,,,,,,,,,,,
R1_TR488,,,,,,,,,,,,,,,
R1_TR489,,,,,,,,,,,,,,,
R1_TR490,,,,,,,,,,,,,,,
R1_TR491,,,,,,,,,,,,,,,
R1_TR492,,,,,,,,,,,,,,,
R1_TR493,,,,,,,,,,,,,,,
R1_TR494,,,,,,,,,,,,,,,
R1_TR495,,,,,,,,,,,,,,,
R1_TR496,,,,,,,,,,,,,,,
R1_TR497,,,,,,,,,,,,,,,1
R1_TR498,,,,,,,,,,,,,,,
R1_TR499,,,,,,,,,,,,,,,
R1_TR500,,,,,,,,,,,,,,,
R1_TR501,,,,,,,,,,,,,,,
R1_TR502,,,,,,,,,,,,,,,
R1_TR503,,,,,,,,,,,,,,,
R1_TR504,,,,,,,,,,,,,,,
R1_TR505,,,,,,,,,,,,,,,
R1_TR506,,,,,,,,,,,,,,,
R1_TR507,,,,,,,,,,,,,,,
R1_TR508,,,,,,,,,,,,,,,
R1_TR509,,,,,,,,,,,,,,,
R1_TR510,,,,,,,,,,,,,,,
R1_TR511,,,,,,,,,,,,,,,
R1_TR512,,,,,,,,,,,,,,,
R1_TR513,,,,,,,,,,,,,,,
R1_TR514,,,,,,,,,,,,,,,
R1_TR515,,,,,,,,,,,,,,,
R1_TR516,,,,,,,,,,,,,,,
R1_TR517,,,,,,,,,,,,,,,1
R1_TR518,,,,,,,,,,,,,,,
R1_TR519,,,,,,,,,,,,,,,
R1_TR520,,,,,,,,,,,,,,,
R1_TR521,,,,,,,,,,,,,,,
R1_TR522,,,,,,,,,,,,,,,
R1_TR523,,,,,,,,,,,,,,,
R1_TR524,,,,,,,,,,,,,,,
R1_TR525,,,,,,,,,,,,,,,
R1_TR526,,,,,,,,,,,,,,,
R1_TR527,,,,,,,,,,,,,,,
R1_TR528,,,,,,,,,,,,,,,
R1_TR529,,,,,,,,,,,,,,,
R1_TR530,,,,,,,,,,,,,,,
R1_TR531,,,,,,,,,,,,,,,
R1_TR532,,,,,,,,,,,,,,,
R1_TR533,,,,,,,,,,,,,,,
R1_TR534,,,,,,,,,,,,,,,
R1_TR535,,,,,,,,,,,,,,,
R1_TR536,,,,,,,,,,,,,,,
R1_TR537,,,,,,,,,,,,,,,1
R1_TR538,,,,,,,,,,,,,,,
R1_TR539,,,,,,,,,,,,,,,
R1_TR540,,,,,,,,,,,,,,,
R1_TR541,,,,,,,,,,,,,,,
R1_TR542,,,,,,,,,,,,,,,
R1_TR543,,,,,,,,,,,,,,,
R1_TR544,,,,,,,,,,,,,,,
R1_TR545,,,,,,,,,,,,,,,
R1_TR546,,,,,,,,,,,,,,,
R1_TR547,,,,,,,,,,,,,,,
R1_TR548,,,,,,,,,,,,,,,
R1_TR549,,,,,,,,,,,,,,,
R1_TR550,,,,,,,,,,,,,,,
R1_TR551,,,,,,,,,,,,,,,
R1_TR552,,,,,,,,,,,,,,,
R1_TR553,,,,,,,,,,,,,,,
R1_TR554,,,,,,,,,,,,,,,
R1_TR555,,,,,,,,,,,,,,,
R1_TR556,,,,,,,,,,,,,,,
R1_TR557,,,,,,,,,,,,,,,
R1_TR558,,,,,,,,,,,,,,,
R1_TR559,,,,,,,,,,,,,,,
R1_TR560,,,,,,,,,,,,,,,
R1_TR561,,,,,,,,,,,,,,,
R1_TR562,,,,,,,,,,,,,,,
R1_TR563,,,,,,,,,,,,,,,1
R1_TR564,,,,,,,,,,,,,,,
R1_TR565,,,,,,,,,,,,,,,
R1_TR566,,,,,,,,,,,,,,,
R1_TR567,,,,,,,,,,,,,,,
R1_TR568,,,,,,,,,,,,,,,
R1_TR569,,,,,,,,,,,,,,,
R1_TR570,,,,,,,,,,,,,,,
R1_TR571,,,,,,,,,,,,,,,
R1_TR572,,,,,,,,,,,,,,,
R1_TR573,,,,,,,,,,,,,,,
R1_TR574,,,,,,,,,,,,,,,
R1_TR575,,,,,,,,,,,,,,,
R1_TR576,,,,,,,,,,,,,,,
R1_TR577,,,,,,,,,,,,,,,1
R1_TR578,,,,,,,,,,,,,,,
R1_TR579,,,,,,,,,,,,,,,
R1_TR580,,,,,,,,,,,,,,,
R1_TR581,,,,,,,,,,,,,,,
R1_TR582,,,,,,,,,,,,,,,
R1_TR583,,,,,,,,,,,,,,,
R1_TR584,,,,,,,,,,,,,,,
R1_TR585,,,,,,,,,,,,,,,
R1_TR586,,,,,,,,,,,,,,,
R1_TR587,,,,,,,,,,,,,,,
R1_TR588,,,,,,,,,,,,,,,
R1_TR589,,,,,,,,,,,,,,,
R1_TR590,,,,,,,,,,,,,,,
R1_TR591,,,,,,,,,,,,,,,
R1_TR592,,,,,,,,,,,,,,,
R1_TR593,,,,,,,,,,,,,,,
R1_TR594,,,,,,,,,,,,,,,
R1_TR595,,,,,,,,,,,,,,,
R1_TR596,,,,,,,,,,,,,,,
R1_TR597,,,,,,,,,,,,,,,1
R1_TR598,,,,,,,,,,,,,,,
R1_TR599,,,,,,,,,,,,,,,
R1_TR600,,,,,,,,,,,,,,,
