Index,X,Y
CENTRE,321.095,18.898
0,1.81499,-7.17163E-007
1,0.0189871,1.696
2,-1.78701,-0.00400072
3,0.0199871,-1.748
CENTRE,308.009,112.646
0,1.80101,0.00699628
1,0.022009,1.705
2,-1.79899,0.00499628
3,0.018009,-1.724
,0,0
,0,0
,0,0
,0,0
,0,0
,0,0
,0,0
,0,0
,0,0
,0,0
,0,0
,0,0
,0,0
,0,0
,0,0
,0,0
,0,0
,0,0
,0,0
,0,0
,0,0
,0,0
,0,0
,0,0
,0,0
,0,0
,0,0
,0,0
,0,0
,0,0
,0,0
,0,0
,0,0
,0,0
,0,0
,0,0
,0,0
,0,0
,0,0
,0,0
,0,0
,0,0
,0,0
,0,0
,0,0
,0,0
,0,0
,0,0
,0,0
,0,0
,0,0
,0,0
,0,0
,0,0
,0,0
,0,0
,0,0
,0,0
,0,0
,0,0
,0,0
,0,0
,0,0
,0,0
,0,0
,0,0
,0,0
,0,0
,0,0
,0,0
,0,0
,0,0
,0,0
,0,0
,0,0
,0,0
,0,0
,0,0
,0,0
,0,0
,0,0
,0,0
,0,0
,0,0
,0,0
,0,0
,0,0
,0,0
,0,0
,0,0
